<?xml version="1.0" encoding="UTF-8"?><svg xmlns="http://www.w3.org/2000/svg" xmlns:xlink="http://www.w3.org/1999/xlink" fill-opacity="1" color-rendering="auto" color-interpolation="auto" text-rendering="auto" stroke="black" stroke-linecap="square" width="541" stroke-miterlimit="10" shape-rendering="auto" stroke-opacity="1" fill="black" stroke-dasharray="none" font-weight="normal" stroke-width="1" height="1073" font-family="'Dialog'" font-style="normal" stroke-linejoin="miter" font-size="12px" stroke-dashoffset="0" image-rendering="auto">
  <!--Generated by ySVG 2.5-->
  <defs id="genericDefs"/>
  <g>
    <defs id="defs1">
      <clipPath clipPathUnits="userSpaceOnUse" id="clipPath1">
        <path d="M0 0 L541 0 L541 1073 L0 1073 L0 0 Z"/>
      </clipPath>
      <clipPath clipPathUnits="userSpaceOnUse" id="clipPath2">
        <path d="M-15 -1198 L526 -1198 L526 -125 L-15 -125 L-15 -1198 Z"/>
      </clipPath>
      <clipPath clipPathUnits="userSpaceOnUse" id="clipPath3">
        <path d="M0 0 L0 66 L117 66 L117 0 Z"/>
      </clipPath>
      <clipPath clipPathUnits="userSpaceOnUse" id="clipPath4">
        <path d="M0 0 L0 66 L200 66 L200 0 Z"/>
      </clipPath>
      <clipPath clipPathUnits="userSpaceOnUse" id="clipPath5">
        <path d="M0 0 L0 66 L150 66 L150 0 Z"/>
      </clipPath>
      <clipPath clipPathUnits="userSpaceOnUse" id="clipPath6">
        <path d="M0 0 L0 66 L176 66 L176 0 Z"/>
      </clipPath>
      <clipPath clipPathUnits="userSpaceOnUse" id="clipPath7">
        <path d="M0 0 L0 66 L162 66 L162 0 Z"/>
      </clipPath>
      <clipPath clipPathUnits="userSpaceOnUse" id="clipPath8">
        <path d="M0 0 L0 66 L220 66 L220 0 Z"/>
      </clipPath>
      <clipPath clipPathUnits="userSpaceOnUse" id="clipPath9">
        <path d="M0 0 L0 66 L172 66 L172 0 Z"/>
      </clipPath>
      <clipPath clipPathUnits="userSpaceOnUse" id="clipPath10">
        <path d="M0 0 L0 66 L141 66 L141 0 Z"/>
      </clipPath>
      <clipPath clipPathUnits="userSpaceOnUse" id="clipPath11">
        <path d="M0 0 L0 66 L143 66 L143 0 Z"/>
      </clipPath>
      <script type="text/ecmascript"><![CDATA[      var SVGDocument = null;
      var SVGRoot = null;
      var TrueCoords = null;
      var lastElement = null;
      var initialized = null;
      var tipGroup;
      function Init(evt)
      {
         SVGDocument = evt.target.ownerDocument;
         SVGRoot = SVGDocument.documentElement;
         TrueCoords = SVGRoot.createSVGPoint();
         initialized = evt;
      };
      function GetTrueCoords(evt)
      {
         var newScale = SVGRoot.currentScale;
         var translation = SVGRoot.currentTranslate;
         TrueCoords.x = (evt.clientX - translation.x)/newScale;
         TrueCoords.y = (evt.clientY - translation.y)/newScale;
      };
      function HideTooltip( evt )
      {
         if(initialized == null) {
           Init(evt);
         }
         if(tipGroup != null) {
           tipGroup.setAttributeNS(null, 'visibility', 'hidden');
         }
      };
      function ShowTooltip( evt )
      {
         if(initialized == null) {
           Init(evt);
         }
         GetTrueCoords( evt );
         var tipScale = 1/SVGRoot.currentScale;
         var targetElement = evt.currentTarget;
         if ( lastElement != targetElement )
         {
            var targetId = targetElement.getAttributeNS(null, 'id');
            var tipId = 'tooltip.' + targetId;
            tipGroup = SVGDocument.getElementById(tipId);
            var xPos = TrueCoords.x + (10 * tipScale);
            var yPos = TrueCoords.y + (10 * tipScale);
            tipGroup.setAttributeNS(null, 'transform', 'translate(' + xPos + ',' + yPos + ') scale(' + tipScale + ')');
            tipGroup.setAttributeNS(null, 'visibility', 'visible');
         }
      };
]]></script>
    </defs>
    <g fill="white" text-rendering="geometricPrecision" shape-rendering="geometricPrecision" transform="translate(15,1198)" stroke="white">
      <rect x="-15" width="541" height="1073" y="-1198" clip-path="url(#clipPath2)" stroke="none"/>
    </g>
    <g onmouseout="HideTooltip(evt)" id="y.node.0" onmousemove="ShowTooltip(evt)">
      <g transform="matrix(1,0,0,1,15,1198) translate(2,2)" fill-opacity="0.4941" fill="rgb(192,192,192)" text-rendering="geometricPrecision" shape-rendering="geometricPrecision" stroke="rgb(192,192,192)" stroke-opacity="0.4941">
        <rect x="309" y="-381.8728" width="200" rx="4" ry="4" height="45" stroke="none"/>
      </g>
      <g fill="rgb(89,169,223)" text-rendering="geometricPrecision" shape-rendering="geometricPrecision" transform="matrix(1,0,0,1,15,1198)" stroke="rgb(89,169,223)">
        <rect x="309" y="-381.8728" width="200" rx="4" ry="4" height="45" stroke="none"/>
      </g>
      <g>
        <g stroke-linecap="butt" font-size="15px" transform="matrix(1,0,0,1,15,1198)" fill="white" text-rendering="geometricPrecision" font-family="'Gill Sans MT'" shape-rendering="geometricPrecision" stroke="white" stroke-miterlimit="1.45">
          <text x="365.9592" xml:space="preserve" y="-362.8298" stroke="none">SolutionTypes</text>
          <text x="363.176" xml:space="preserve" y="-345.4348" stroke="none">domstp, #code</text>
        </g>
      </g>
      <g stroke-linecap="butt" transform="matrix(1,0,0,1,15,1198)" fill="rgb(29,113,184)" text-rendering="geometricPrecision" shape-rendering="geometricPrecision" stroke="rgb(29,113,184)" stroke-miterlimit="1.45">
        <rect x="309" y="-381.8728" fill="none" width="200" rx="4" ry="4" height="45"/>
      </g>
    </g>
    <g onmouseout="HideTooltip(evt)" id="y.node.1" onmousemove="ShowTooltip(evt)">
      <g transform="matrix(1,0,0,1,15,1198) translate(2,2)" fill-opacity="0.4941" fill="rgb(192,192,192)" text-rendering="geometricPrecision" shape-rendering="geometricPrecision" stroke="rgb(192,192,192)" stroke-opacity="0.4941">
        <rect x="309" y="-187.8728" width="200" rx="4" ry="4" height="45" stroke="none"/>
      </g>
      <g fill="rgb(89,169,223)" text-rendering="geometricPrecision" shape-rendering="geometricPrecision" transform="matrix(1,0,0,1,15,1198)" stroke="rgb(89,169,223)">
        <rect x="309" y="-187.8728" width="200" rx="4" ry="4" height="45" stroke="none"/>
      </g>
      <g>
        <g stroke-linecap="butt" font-size="15px" transform="matrix(1,0,0,1,15,1198)" fill="white" text-rendering="geometricPrecision" font-family="'Gill Sans MT'" shape-rendering="geometricPrecision" stroke="white" stroke-miterlimit="1.45">
          <text x="346.594" xml:space="preserve" y="-168.8298" stroke="none">SolutionLinkStatuses</text>
          <text x="364.8936" xml:space="preserve" y="-151.4348" stroke="none">domsls, #code</text>
        </g>
      </g>
      <g stroke-linecap="butt" transform="matrix(1,0,0,1,15,1198)" fill="rgb(29,113,184)" text-rendering="geometricPrecision" shape-rendering="geometricPrecision" stroke="rgb(29,113,184)" stroke-miterlimit="1.45">
        <rect x="309" y="-187.8728" fill="none" width="200" rx="4" ry="4" height="45"/>
      </g>
    </g>
    <g onmouseout="HideTooltip(evt)" id="y.node.2" onmousemove="ShowTooltip(evt)">
      <g transform="matrix(1,0,0,1,15,1198) translate(2,2)" fill-opacity="0.4941" fill="rgb(192,192,192)" text-rendering="geometricPrecision" shape-rendering="geometricPrecision" stroke="rgb(192,192,192)" stroke-opacity="0.4941">
        <rect x="0" y="-1027.6873" width="200" rx="4" ry="4" height="145" stroke="none"/>
      </g>
      <g fill="rgb(168,201,76)" text-rendering="geometricPrecision" shape-rendering="geometricPrecision" transform="matrix(1,0,0,1,15,1198)" stroke="rgb(168,201,76)">
        <rect x="0" y="-1027.6873" width="200" rx="4" ry="4" height="145" stroke="none"/>
      </g>
      <g>
        <g stroke-linecap="butt" font-size="15px" transform="matrix(1,0,0,1,15,1198)" fill="white" text-rendering="geometricPrecision" font-family="'Gill Sans MT'" shape-rendering="geometricPrecision" stroke="white" stroke-miterlimit="1.45">
          <text x="27.0581" xml:space="preserve" y="-958.6443" stroke="none">CustomerCooperations</text>
          <text x="84.6008" xml:space="preserve" y="-941.2493" stroke="none">rwcn</text>
        </g>
      </g>
      <g stroke-linecap="butt" transform="matrix(1,0,0,1,15,1198)" fill="rgb(138,170,23)" text-rendering="geometricPrecision" shape-rendering="geometricPrecision" stroke="rgb(138,170,23)" stroke-miterlimit="1.45">
        <rect x="0" y="-1027.6873" fill="none" width="200" rx="4" ry="4" height="145"/>
      </g>
    </g>
    <g onmouseout="HideTooltip(evt)" id="y.node.3" onmousemove="ShowTooltip(evt)">
      <g transform="matrix(1,0,0,1,15,1198) translate(2,2)" fill-opacity="0.4941" fill="rgb(192,192,192)" text-rendering="geometricPrecision" shape-rendering="geometricPrecision" stroke="rgb(192,192,192)" stroke-opacity="0.4941">
        <rect x="0" y="-697.9373" width="200" rx="4" ry="4" height="45" stroke="none"/>
      </g>
      <g fill="rgb(168,201,76)" text-rendering="geometricPrecision" shape-rendering="geometricPrecision" transform="matrix(1,0,0,1,15,1198)" stroke="rgb(168,201,76)">
        <rect x="0" y="-697.9373" width="200" rx="4" ry="4" height="45" stroke="none"/>
      </g>
      <g>
        <g stroke-linecap="butt" font-size="15px" transform="matrix(1,0,0,1,15,1198)" fill="white" text-rendering="geometricPrecision" font-family="'Gill Sans MT'" shape-rendering="geometricPrecision" stroke="white" stroke-miterlimit="1.45">
          <text x="56.9629" xml:space="preserve" y="-678.8943" stroke="none">InvolvedUsers</text>
          <text x="88.6658" xml:space="preserve" y="-661.4993" stroke="none">riur</text>
        </g>
      </g>
      <g stroke-linecap="butt" transform="matrix(1,0,0,1,15,1198)" fill="rgb(138,170,23)" text-rendering="geometricPrecision" shape-rendering="geometricPrecision" stroke="rgb(138,170,23)" stroke-miterlimit="1.45">
        <rect x="0" y="-697.9373" fill="none" width="200" rx="4" ry="4" height="45"/>
      </g>
    </g>
    <g onmouseout="HideTooltip(evt)" id="y.node.4" onmousemove="ShowTooltip(evt)">
      <g transform="matrix(1,0,0,1,15,1198) translate(2,2)" fill-opacity="0.4941" fill="rgb(192,192,192)" text-rendering="geometricPrecision" shape-rendering="geometricPrecision" stroke="rgb(192,192,192)" stroke-opacity="0.4941">
        <rect x="0" y="-794.9373" width="200" rx="4" ry="4" height="45" stroke="none"/>
      </g>
      <g fill="rgb(168,201,76)" text-rendering="geometricPrecision" shape-rendering="geometricPrecision" transform="matrix(1,0,0,1,15,1198)" stroke="rgb(168,201,76)">
        <rect x="0" y="-794.9373" width="200" rx="4" ry="4" height="45" stroke="none"/>
      </g>
      <g>
        <g stroke-linecap="butt" font-size="15px" transform="matrix(1,0,0,1,15,1198)" fill="white" text-rendering="geometricPrecision" font-family="'Gill Sans MT'" shape-rendering="geometricPrecision" stroke="white" stroke-miterlimit="1.45">
          <text x="43.0579" xml:space="preserve" y="-775.8943" stroke="none">InvolvedUserRoles</text>
          <text x="72.4353" xml:space="preserve" y="-758.4993" stroke="none">riue, #ID</text>
        </g>
      </g>
      <g stroke-linecap="butt" transform="matrix(1,0,0,1,15,1198)" fill="rgb(138,170,23)" text-rendering="geometricPrecision" shape-rendering="geometricPrecision" stroke="rgb(138,170,23)" stroke-miterlimit="1.45">
        <rect x="0" y="-794.9373" fill="none" width="200" rx="4" ry="4" height="45"/>
      </g>
    </g>
    <g onmouseout="HideTooltip(evt)" id="y.node.5" onmousemove="ShowTooltip(evt)">
      <g transform="matrix(1,0,0,1,15,1198) translate(2,2)" fill-opacity="0.4941" fill="rgb(192,192,192)" text-rendering="geometricPrecision" shape-rendering="geometricPrecision" stroke="rgb(192,192,192)" stroke-opacity="0.4941">
        <rect x="0" y="-588.6847" width="200" rx="4" ry="4" height="45" stroke="none"/>
      </g>
      <g fill="rgb(220,118,0)" text-rendering="geometricPrecision" shape-rendering="geometricPrecision" transform="matrix(1,0,0,1,15,1198)" stroke="rgb(220,118,0)">
        <rect x="0" y="-588.6847" width="200" rx="4" ry="4" height="45" stroke="none"/>
      </g>
      <g>
        <g stroke-linecap="butt" font-size="15px" transform="matrix(1,0,0,1,15,1198)" fill="white" text-rendering="geometricPrecision" font-family="'Gill Sans MT'" shape-rendering="geometricPrecision" stroke="white" stroke-miterlimit="1.45">
          <text x="49.5251" xml:space="preserve" y="-569.6417" stroke="none">AccountOwners</text>
          <text x="86.7212" xml:space="preserve" y="-552.2467" stroke="none">raor</text>
        </g>
      </g>
      <g stroke-linecap="butt" transform="matrix(1,0,0,1,15,1198)" fill="rgb(209,84,0)" text-rendering="geometricPrecision" shape-rendering="geometricPrecision" stroke="rgb(209,84,0)" stroke-miterlimit="1.45">
        <rect x="0" y="-588.6847" fill="none" width="200" rx="4" ry="4" height="45"/>
      </g>
    </g>
    <g onmouseout="HideTooltip(evt)" id="y.node.6" onmousemove="ShowTooltip(evt)">
      <g transform="matrix(1,0,0,1,15,1198) translate(2,2)" fill-opacity="0.4941" fill="rgb(192,192,192)" text-rendering="geometricPrecision" shape-rendering="geometricPrecision" stroke="rgb(192,192,192)" stroke-opacity="0.4941">
        <rect x="0" y="-412.8101" width="200" rx="4" ry="4" height="45" stroke="none"/>
      </g>
      <g fill="rgb(220,118,0)" text-rendering="geometricPrecision" shape-rendering="geometricPrecision" transform="matrix(1,0,0,1,15,1198)" stroke="rgb(220,118,0)">
        <rect x="0" y="-412.8101" width="200" rx="4" ry="4" height="45" stroke="none"/>
      </g>
      <g>
        <g stroke-linecap="butt" font-size="15px" transform="matrix(1,0,0,1,15,1198)" fill="white" text-rendering="geometricPrecision" font-family="'Gill Sans MT'" shape-rendering="geometricPrecision" stroke="white" stroke-miterlimit="1.45">
          <text x="20.3052" xml:space="preserve" y="-393.7671" stroke="none">AccountInvolvedAccounts</text>
          <text x="89.6875" xml:space="preserve" y="-376.3721" stroke="none">rait</text>
        </g>
      </g>
      <g stroke-linecap="butt" transform="matrix(1,0,0,1,15,1198)" fill="rgb(209,84,0)" text-rendering="geometricPrecision" shape-rendering="geometricPrecision" stroke="rgb(209,84,0)" stroke-miterlimit="1.45">
        <rect x="0" y="-412.8101" fill="none" width="200" rx="4" ry="4" height="45"/>
      </g>
    </g>
    <g onmouseout="HideTooltip(evt)" id="y.node.7" onmousemove="ShowTooltip(evt)">
      <g transform="matrix(1,0,0,1,15,1198) translate(2,2)" fill-opacity="0.4941" fill="rgb(192,192,192)" text-rendering="geometricPrecision" shape-rendering="geometricPrecision" stroke="rgb(192,192,192)" stroke-opacity="0.4941">
        <rect x="0" y="-324.8728" width="200" rx="4" ry="4" height="100" stroke="none"/>
      </g>
      <g fill="rgb(220,118,0)" text-rendering="geometricPrecision" shape-rendering="geometricPrecision" transform="matrix(1,0,0,1,15,1198)" stroke="rgb(220,118,0)">
        <rect x="0" y="-324.8728" width="200" rx="4" ry="4" height="100" stroke="none"/>
      </g>
      <g>
        <g stroke-linecap="butt" font-size="15px" transform="matrix(1,0,0,1,15,1198)" fill="white" text-rendering="geometricPrecision" font-family="'Gill Sans MT'" shape-rendering="geometricPrecision" stroke="white" stroke-miterlimit="1.45">
          <text x="59.4531" xml:space="preserve" y="-278.3298" stroke="none">SolutionLinks</text>
          <text x="88.9075" xml:space="preserve" y="-260.9348" stroke="none">rslk</text>
        </g>
      </g>
      <g stroke-linecap="butt" transform="matrix(1,0,0,1,15,1198)" fill="rgb(209,84,0)" text-rendering="geometricPrecision" shape-rendering="geometricPrecision" stroke="rgb(209,84,0)" stroke-miterlimit="1.45">
        <rect x="0" y="-324.8728" fill="none" width="200" rx="4" ry="4" height="100"/>
      </g>
    </g>
    <g onmouseout="HideTooltip(evt)" id="y.node.8" onmousemove="ShowTooltip(evt)">
      <g transform="matrix(1,0,0,1,15,1198) translate(2,2)" fill-opacity="0.4941" fill="rgb(192,192,192)" text-rendering="geometricPrecision" shape-rendering="geometricPrecision" stroke="rgb(192,192,192)" stroke-opacity="0.4941">
        <rect x="0" y="-500.7474" width="200" rx="4" ry="4" height="45" stroke="none"/>
      </g>
      <g fill="rgb(153,153,153)" text-rendering="geometricPrecision" shape-rendering="geometricPrecision" transform="matrix(1,0,0,1,15,1198)" stroke="rgb(153,153,153)">
        <rect x="0" y="-500.7474" width="200" rx="4" ry="4" height="45" stroke="none"/>
      </g>
      <g>
        <g stroke-linecap="butt" font-size="15px" transform="matrix(1,0,0,1,15,1198)" fill="white" text-rendering="geometricPrecision" font-family="'Gill Sans MT'" shape-rendering="geometricPrecision" stroke="white" stroke-miterlimit="1.45">
          <text x="45.0793" xml:space="preserve" y="-481.7044" stroke="none">ExcludedDivisions</text>
          <text x="86.4868" xml:space="preserve" y="-464.3094" stroke="none">raen</text>
        </g>
      </g>
      <g stroke-linecap="butt" transform="matrix(1,0,0,1,15,1198)" fill="rgb(102,102,102)" text-rendering="geometricPrecision" shape-rendering="geometricPrecision" stroke="rgb(102,102,102)" stroke-miterlimit="1.45">
        <rect x="0" y="-500.7474" fill="none" width="200" rx="4" ry="4" height="45"/>
      </g>
    </g>
    <g onmouseout="HideTooltip(evt)" id="y.node.9" onmousemove="ShowTooltip(evt)">
      <g fill="rgb(204,204,204)" text-rendering="geometricPrecision" shape-rendering="geometricPrecision" transform="matrix(1,0,0,1,15,1198) translate(2,2)" stroke="rgb(204,204,204)">
        <rect x="0" y="-1182.9373" width="200" rx="4" ry="4" height="45" stroke="none"/>
      </g>
      <g fill="rgb(238,238,238)" text-rendering="geometricPrecision" shape-rendering="geometricPrecision" transform="matrix(1,0,0,1,15,1198)" stroke="rgb(238,238,238)">
        <rect x="0" y="-1182.9373" width="200" rx="4" ry="4" height="45" stroke="none"/>
      </g>
      <g>
        <g font-size="15px" stroke-linecap="butt" transform="matrix(1,0,0,1,15,1198)" text-rendering="geometricPrecision" font-family="'Gill Sans MT'" shape-rendering="geometricPrecision" stroke-miterlimit="1.45">
          <text x="56.9556" xml:space="preserve" y="-1163.8943" stroke="none">Opportunities</text>
          <text x="50.8252" xml:space="preserve" y="-1146.4993" stroke="none">CRM: ropy, #ID</text>
        </g>
      </g>
      <g stroke-linecap="butt" transform="matrix(1,0,0,1,15,1198)" fill="rgb(68,68,68)" text-rendering="geometricPrecision" shape-rendering="geometricPrecision" stroke="rgb(68,68,68)" stroke-miterlimit="1.45">
        <rect x="0" y="-1182.9373" fill="none" width="200" rx="4" ry="4" height="45"/>
      </g>
    </g>
    <g onmouseout="HideTooltip(evt)" id="y.node.10" onmousemove="ShowTooltip(evt)">
      <g fill="rgb(204,204,204)" text-rendering="geometricPrecision" shape-rendering="geometricPrecision" transform="matrix(1,0,0,1,15,1198) translate(2,2)" stroke="rgb(204,204,204)">
        <rect x="309" y="-794.9373" width="200" rx="4" ry="4" height="45" stroke="none"/>
      </g>
      <g fill="rgb(238,238,238)" text-rendering="geometricPrecision" shape-rendering="geometricPrecision" transform="matrix(1,0,0,1,15,1198)" stroke="rgb(238,238,238)">
        <rect x="309" y="-794.9373" width="200" rx="4" ry="4" height="45" stroke="none"/>
      </g>
      <g>
        <g font-size="15px" stroke-linecap="butt" transform="matrix(1,0,0,1,15,1198)" text-rendering="geometricPrecision" font-family="'Gill Sans MT'" shape-rendering="geometricPrecision" stroke-miterlimit="1.45">
          <text x="381.4353" xml:space="preserve" y="-775.8943" stroke="none">Contacts</text>
          <text x="349.8203" xml:space="preserve" y="-758.4993" stroke="none">Accounts: rctt, #ID</text>
        </g>
      </g>
      <g stroke-linecap="butt" transform="matrix(1,0,0,1,15,1198)" fill="rgb(68,68,68)" text-rendering="geometricPrecision" shape-rendering="geometricPrecision" stroke="rgb(68,68,68)" stroke-miterlimit="1.45">
        <rect x="309" y="-794.9373" fill="none" width="200" rx="4" ry="4" height="45"/>
      </g>
    </g>
    <g onmouseout="HideTooltip(evt)" id="y.node.11" onmousemove="ShowTooltip(evt)">
      <g fill="rgb(204,204,204)" text-rendering="geometricPrecision" shape-rendering="geometricPrecision" transform="matrix(1,0,0,1,15,1198) translate(2,2)" stroke="rgb(204,204,204)">
        <rect x="309" y="-1085.9373" width="200" rx="4" ry="4" height="45" stroke="none"/>
      </g>
      <g fill="rgb(238,238,238)" text-rendering="geometricPrecision" shape-rendering="geometricPrecision" transform="matrix(1,0,0,1,15,1198)" stroke="rgb(238,238,238)">
        <rect x="309" y="-1085.9373" width="200" rx="4" ry="4" height="45" stroke="none"/>
      </g>
      <g>
        <g font-size="15px" stroke-linecap="butt" transform="matrix(1,0,0,1,15,1198)" text-rendering="geometricPrecision" font-family="'Gill Sans MT'" shape-rendering="geometricPrecision" stroke-miterlimit="1.45">
          <text x="376.5793" xml:space="preserve" y="-1066.8943" stroke="none">Employees</text>
          <text x="355.5186" xml:space="preserve" y="-1049.4993" stroke="none">Payroll: reye, #ID</text>
        </g>
      </g>
      <g stroke-linecap="butt" transform="matrix(1,0,0,1,15,1198)" fill="rgb(68,68,68)" text-rendering="geometricPrecision" shape-rendering="geometricPrecision" stroke="rgb(68,68,68)" stroke-miterlimit="1.45">
        <rect x="309" y="-1085.9373" fill="none" width="200" rx="4" ry="4" height="45"/>
      </g>
    </g>
    <g onmouseout="HideTooltip(evt)" id="y.node.12" onmousemove="ShowTooltip(evt)">
      <g fill="rgb(204,204,204)" text-rendering="geometricPrecision" shape-rendering="geometricPrecision" transform="matrix(1,0,0,1,15,1198) translate(2,2)" stroke="rgb(204,204,204)">
        <rect x="309" y="-1182.9373" width="200" rx="4" ry="4" height="45" stroke="none"/>
      </g>
      <g fill="rgb(238,238,238)" text-rendering="geometricPrecision" shape-rendering="geometricPrecision" transform="matrix(1,0,0,1,15,1198)" stroke="rgb(238,238,238)">
        <rect x="309" y="-1182.9373" width="200" rx="4" ry="4" height="45" stroke="none"/>
      </g>
      <g>
        <g font-size="15px" stroke-linecap="butt" transform="matrix(1,0,0,1,15,1198)" text-rendering="geometricPrecision" font-family="'Gill Sans MT'" shape-rendering="geometricPrecision" stroke-miterlimit="1.45">
          <text x="373.6936" xml:space="preserve" y="-1163.8943" stroke="none">Documents</text>
          <text x="341.782" xml:space="preserve" y="-1146.4993" stroke="none">Documents: rdct, #ID</text>
        </g>
      </g>
      <g stroke-linecap="butt" transform="matrix(1,0,0,1,15,1198)" fill="rgb(68,68,68)" text-rendering="geometricPrecision" shape-rendering="geometricPrecision" stroke="rgb(68,68,68)" stroke-miterlimit="1.45">
        <rect x="309" y="-1182.9373" fill="none" width="200" rx="4" ry="4" height="45"/>
      </g>
    </g>
    <g onmouseout="HideTooltip(evt)" id="y.node.13" onmousemove="ShowTooltip(evt)">
      <g fill="rgb(204,204,204)" text-rendering="geometricPrecision" shape-rendering="geometricPrecision" transform="matrix(1,0,0,1,15,1198) translate(2,2)" stroke="rgb(204,204,204)">
        <rect x="309" y="-891.9373" width="200" rx="4" ry="4" height="45" stroke="none"/>
      </g>
      <g fill="rgb(238,238,238)" text-rendering="geometricPrecision" shape-rendering="geometricPrecision" transform="matrix(1,0,0,1,15,1198)" stroke="rgb(238,238,238)">
        <rect x="309" y="-891.9373" width="200" rx="4" ry="4" height="45" stroke="none"/>
      </g>
      <g>
        <g font-size="15px" stroke-linecap="butt" transform="matrix(1,0,0,1,15,1198)" text-rendering="geometricPrecision" font-family="'Gill Sans MT'" shape-rendering="geometricPrecision" stroke-miterlimit="1.45">
          <text x="384.1636" xml:space="preserve" y="-872.8943" stroke="none">Projects</text>
          <text x="356.8516" xml:space="preserve" y="-855.4993" stroke="none">Project: rpjt, #ID</text>
        </g>
      </g>
      <g stroke-linecap="butt" transform="matrix(1,0,0,1,15,1198)" fill="rgb(68,68,68)" text-rendering="geometricPrecision" shape-rendering="geometricPrecision" stroke="rgb(68,68,68)" stroke-miterlimit="1.45">
        <rect x="309" y="-891.9373" fill="none" width="200" rx="4" ry="4" height="45"/>
      </g>
    </g>
    <g onmouseout="HideTooltip(evt)" id="y.node.14" onmousemove="ShowTooltip(evt)">
      <g fill="rgb(204,204,204)" text-rendering="geometricPrecision" shape-rendering="geometricPrecision" transform="matrix(1,0,0,1,15,1198) translate(2,2)" stroke="rgb(204,204,204)">
        <rect x="309" y="-500.7474" width="200" rx="4" ry="4" height="45" stroke="none"/>
      </g>
      <g fill="rgb(238,238,238)" text-rendering="geometricPrecision" shape-rendering="geometricPrecision" transform="matrix(1,0,0,1,15,1198)" stroke="rgb(238,238,238)">
        <rect x="309" y="-500.7474" width="200" rx="4" ry="4" height="45" stroke="none"/>
      </g>
      <g>
        <g font-size="15px" stroke-linecap="butt" transform="matrix(1,0,0,1,15,1198)" text-rendering="geometricPrecision" font-family="'Gill Sans MT'" shape-rendering="geometricPrecision" stroke-miterlimit="1.45">
          <text x="380.4062" xml:space="preserve" y="-481.7044" stroke="none">Accounts</text>
          <text x="349.1172" xml:space="preserve" y="-464.3094" stroke="none">Accounts: ract, #ID</text>
        </g>
      </g>
      <g stroke-linecap="butt" transform="matrix(1,0,0,1,15,1198)" fill="rgb(68,68,68)" text-rendering="geometricPrecision" shape-rendering="geometricPrecision" stroke="rgb(68,68,68)" stroke-miterlimit="1.45">
        <rect x="309" y="-500.7474" fill="none" width="200" rx="4" ry="4" height="45"/>
      </g>
    </g>
    <g onmouseout="HideTooltip(evt)" id="y.node.15" onmousemove="ShowTooltip(evt)">
      <g fill="rgb(204,204,204)" text-rendering="geometricPrecision" shape-rendering="geometricPrecision" transform="matrix(1,0,0,1,15,1198) translate(2,2)" stroke="rgb(204,204,204)">
        <rect x="309" y="-697.9373" width="200" rx="4" ry="4" height="45" stroke="none"/>
      </g>
      <g fill="rgb(238,238,238)" text-rendering="geometricPrecision" shape-rendering="geometricPrecision" transform="matrix(1,0,0,1,15,1198)" stroke="rgb(238,238,238)">
        <rect x="309" y="-697.9373" width="200" rx="4" ry="4" height="45" stroke="none"/>
      </g>
      <g>
        <g font-size="15px" stroke-linecap="butt" transform="matrix(1,0,0,1,15,1198)" text-rendering="geometricPrecision" font-family="'Gill Sans MT'" shape-rendering="geometricPrecision" stroke-miterlimit="1.45">
          <text x="369.8777" xml:space="preserve" y="-678.8943" stroke="none">SystemUsers</text>
          <text x="355.6101" xml:space="preserve" y="-661.4993" stroke="none">System: rsur, #ID</text>
        </g>
      </g>
      <g stroke-linecap="butt" transform="matrix(1,0,0,1,15,1198)" fill="rgb(68,68,68)" text-rendering="geometricPrecision" shape-rendering="geometricPrecision" stroke="rgb(68,68,68)" stroke-miterlimit="1.45">
        <rect x="309" y="-697.9373" fill="none" width="200" rx="4" ry="4" height="45"/>
      </g>
    </g>
    <g onmouseout="HideTooltip(evt)" id="y.node.16" onmousemove="ShowTooltip(evt)">
      <g fill="rgb(204,204,204)" text-rendering="geometricPrecision" shape-rendering="geometricPrecision" transform="matrix(1,0,0,1,15,1198) translate(2,2)" stroke="rgb(204,204,204)">
        <rect x="309" y="-988.9373" width="200" rx="4" ry="4" height="45" stroke="none"/>
      </g>
      <g fill="rgb(238,238,238)" text-rendering="geometricPrecision" shape-rendering="geometricPrecision" transform="matrix(1,0,0,1,15,1198)" stroke="rgb(238,238,238)">
        <rect x="309" y="-988.9373" width="200" rx="4" ry="4" height="45" stroke="none"/>
      </g>
      <g>
        <g font-size="15px" stroke-linecap="butt" transform="matrix(1,0,0,1,15,1198)" text-rendering="geometricPrecision" font-family="'Gill Sans MT'" shape-rendering="geometricPrecision" stroke-miterlimit="1.45">
          <text x="392.3667" xml:space="preserve" y="-969.8943" stroke="none">Items</text>
          <text x="350.9116" xml:space="preserve" y="-952.4993" stroke="none">Logistics: ritm, #ID</text>
        </g>
      </g>
      <g stroke-linecap="butt" transform="matrix(1,0,0,1,15,1198)" fill="rgb(68,68,68)" text-rendering="geometricPrecision" shape-rendering="geometricPrecision" stroke="rgb(68,68,68)" stroke-miterlimit="1.45">
        <rect x="309" y="-988.9373" fill="none" width="200" rx="4" ry="4" height="45"/>
      </g>
    </g>
    <g onmouseout="HideTooltip(evt)" id="y.node.17" onmousemove="ShowTooltip(evt)">
      <g fill="rgb(204,204,204)" text-rendering="geometricPrecision" shape-rendering="geometricPrecision" transform="matrix(1,0,0,1,15,1198) translate(2,2)" stroke="rgb(204,204,204)">
        <rect x="309" y="-284.8728" width="200" rx="4" ry="4" height="45" stroke="none"/>
      </g>
      <g fill="rgb(238,238,238)" text-rendering="geometricPrecision" shape-rendering="geometricPrecision" transform="matrix(1,0,0,1,15,1198)" stroke="rgb(238,238,238)">
        <rect x="309" y="-284.8728" width="200" rx="4" ry="4" height="45" stroke="none"/>
      </g>
      <g>
        <g font-size="15px" stroke-linecap="butt" transform="matrix(1,0,0,1,15,1198)" text-rendering="geometricPrecision" font-family="'Gill Sans MT'" shape-rendering="geometricPrecision" stroke-miterlimit="1.45">
          <text x="360.0193" xml:space="preserve" y="-265.8298" stroke="none">SystemDivisions</text>
          <text x="345.3928" xml:space="preserve" y="-248.4348" stroke="none">System: rsdn, #Code</text>
        </g>
      </g>
      <g stroke-linecap="butt" transform="matrix(1,0,0,1,15,1198)" fill="rgb(68,68,68)" text-rendering="geometricPrecision" shape-rendering="geometricPrecision" stroke="rgb(68,68,68)" stroke-miterlimit="1.45">
        <rect x="309" y="-284.8728" fill="none" width="200" rx="4" ry="4" height="45"/>
      </g>
    </g>
    <g id="y.edge.11">
      <g text-rendering="geometricPrecision" stroke-miterlimit="1.45" shape-rendering="geometricPrecision" transform="matrix(1,0,0,1,15,1198)" stroke-linecap="butt">
        <path fill="none" d="M100 -697.9349 L100 -741.9193"/>
        <path d="M100 -749.9193 L95 -737.9193 L100 -740.9193 L105 -737.9193 Z" stroke="none"/>
      </g>
    </g>
    <g id="y.edge.17">
      <g text-rendering="geometricPrecision" stroke-miterlimit="1.45" shape-rendering="geometricPrecision" transform="matrix(1,0,0,1,15,1198)" stroke-linecap="butt">
        <path fill="none" d="M200 -237.3728 L206.25 -237.3728 L208.9844 -236.7478 L210.9375 -234.8728 L212.1094 -231.7478 L212.5 -227.3728 L212.5 -175.3728 L213.125 -170.9978 L215 -167.8728 L218.125 -165.9978 L222.5 -165.3728 L300.9529 -165.3728"/>
        <path d="M308.9529 -165.3728 L296.9529 -170.3728 L299.9529 -165.3728 L296.9529 -160.3728 Z" stroke="none"/>
      </g>
    </g>
    <g id="y.edge.18">
      <g text-rendering="geometricPrecision" stroke-miterlimit="1.45" shape-rendering="geometricPrecision" transform="matrix(1,0,0,1,15,1198)" stroke-linecap="butt">
        <path fill="none" d="M200 -287.3728 L235.5 -287.3728 L239.875 -287.9978 L243 -289.8728 L244.875 -292.9978 L245.5 -297.3728 L245.5 -349.3728 L246.125 -353.7478 L248 -356.8728 L251.125 -358.7478 L255.5 -359.3728 L300.969 -359.3728"/>
        <path d="M308.969 -359.3728 L296.969 -364.3728 L299.969 -359.3728 L296.969 -354.3728 Z" stroke="none"/>
      </g>
    </g>
    <g id="y.edge.0">
      <g text-rendering="geometricPrecision" stroke-miterlimit="1.45" shape-rendering="geometricPrecision" transform="matrix(1,0,0,1,15,1198)" stroke-linecap="butt">
        <path fill="none" d="M100 -1027.6713 L100 -1129.9099"/>
        <path d="M100 -1137.9099 L95 -1125.9099 L100 -1128.9099 L105 -1125.9099 Z" stroke="none"/>
      </g>
    </g>
    <g id="y.edge.1">
      <g text-rendering="geometricPrecision" stroke-miterlimit="1.45" shape-rendering="geometricPrecision" transform="matrix(1,0,0,1,15,1198)" stroke-linecap="butt">
        <path fill="none" d="M200 -922.9651 L257.5 -922.9651 L261.875 -922.3401 L265 -920.4651 L266.875 -917.3401 L267.5 -912.9651 L267.5 -782.4373 L268.125 -778.0623 L270 -774.9373 L273.125 -773.0623 L277.5 -772.4373 L300.9595 -772.4373"/>
        <path d="M308.9595 -772.4373 L296.9595 -777.4373 L299.9595 -772.4373 L296.9595 -767.4373 Z" stroke="none"/>
      </g>
    </g>
    <g id="y.edge.2">
      <g text-rendering="geometricPrecision" stroke-miterlimit="1.45" shape-rendering="geometricPrecision" transform="matrix(1,0,0,1,15,1198)" stroke-linecap="butt">
        <path fill="none" d="M200 -987.4095 L224.5 -987.4095 L228.875 -988.0345 L232 -989.9095 L233.875 -993.0345 L234.5 -997.4095 L234.5 -1053.4373 L235.125 -1057.8123 L237 -1060.9373 L240.125 -1062.8123 L244.5 -1063.4373 L300.9636 -1063.4373"/>
        <path d="M308.9636 -1063.4373 L296.9636 -1068.4373 L299.9636 -1063.4373 L296.9636 -1058.4373 Z" stroke="none"/>
      </g>
    </g>
    <g id="y.edge.3">
      <g text-rendering="geometricPrecision" stroke-miterlimit="1.45" shape-rendering="geometricPrecision" transform="matrix(1,0,0,1,15,1198)" stroke-linecap="butt">
        <path fill="none" d="M200 -1003.5206 L213.5 -1003.5206 L217.875 -1004.1456 L221 -1006.0206 L222.875 -1009.1456 L223.5 -1013.5206 L223.5 -1150.4373 L224.125 -1154.8123 L226 -1157.9373 L229.125 -1159.8123 L233.5 -1160.4373 L300.9583 -1160.4373"/>
        <path d="M308.9583 -1160.4373 L296.9583 -1165.4373 L299.9583 -1160.4373 L296.9583 -1155.4373 Z" stroke="none"/>
      </g>
    </g>
    <g id="y.edge.4">
      <g text-rendering="geometricPrecision" stroke-miterlimit="1.45" shape-rendering="geometricPrecision" transform="matrix(1,0,0,1,15,1198)" stroke-linecap="butt">
        <path fill="none" d="M200 -939.0762 L268.5 -939.0762 L272.875 -938.4512 L276 -936.5762 L277.875 -933.4512 L278.5 -929.0762 L278.5 -879.4373 L279.125 -875.0623 L281 -871.9373 L284.125 -870.0623 L288.5 -869.4373 L300.9702 -869.4373"/>
        <path d="M308.9702 -869.4373 L296.9702 -874.4373 L299.9702 -869.4373 L296.9702 -864.4373 Z" stroke="none"/>
      </g>
    </g>
    <g id="y.edge.5">
      <g text-rendering="geometricPrecision" stroke-miterlimit="1.45" shape-rendering="geometricPrecision" transform="matrix(1,0,0,1,15,1198)" stroke-linecap="butt">
        <path fill="none" d="M199.9961 -889.9678 L206.9981 -889.9678 L210.0614 -889.3428 L212.2495 -887.4678 L213.5624 -884.3428 L214 -879.9678 L214 -488.2474 L214.625 -483.8724 L216.5 -480.7474 L219.625 -478.8724 L224 -478.2474 L300.9536 -478.2474"/>
        <path d="M308.9536 -478.2474 L296.9536 -483.2474 L299.9536 -478.2474 L296.9536 -473.2474 Z" stroke="none"/>
      </g>
    </g>
    <g id="y.edge.10">
      <g text-rendering="geometricPrecision" stroke-miterlimit="1.45" shape-rendering="geometricPrecision" transform="matrix(1,0,0,1,15,1198)" stroke-linecap="butt">
        <path fill="none" d="M199.9638 -661.0662 L206.9819 -661.0662 L210.0523 -660.4412 L212.2455 -658.5662 L213.5614 -655.4412 L214 -651.0662 L214 -488.2474 L214.625 -483.8724 L216.5 -480.7474 L219.625 -478.8724 L224 -478.2474 L300.9536 -478.2474"/>
        <path d="M308.9536 -478.2474 L296.9536 -483.2474 L299.9536 -478.2474 L296.9536 -473.2474 Z" stroke="none"/>
      </g>
    </g>
    <g id="y.edge.12">
      <g text-rendering="geometricPrecision" stroke-miterlimit="1.45" shape-rendering="geometricPrecision" transform="matrix(1,0,0,1,15,1198)" stroke-linecap="butt">
        <path fill="none" d="M200 -566.1844 L207 -566.1844 L210.0625 -565.5594 L212.25 -563.6844 L213.5625 -560.5594 L214 -556.1844 L214 -488.2474 L214.625 -483.8724 L216.5 -480.7474 L219.625 -478.8724 L224 -478.2474 L300.9536 -478.2474"/>
        <path d="M308.9536 -478.2474 L296.9536 -483.2474 L299.9536 -478.2474 L296.9536 -473.2474 Z" stroke="none"/>
      </g>
    </g>
    <g id="y.edge.13">
      <g text-rendering="geometricPrecision" stroke-miterlimit="1.45" shape-rendering="geometricPrecision" transform="matrix(1,0,0,1,15,1198)" stroke-linecap="butt">
        <path fill="none" d="M200 -566.1844 L207 -566.1844 L210.0625 -565.5594 L212.25 -563.6844 L213.5625 -560.5594 L214 -556.1844 L214 -488.2474 L214.625 -483.8724 L216.5 -480.7474 L219.625 -478.8724 L224 -478.2474 L300.9536 -478.2474"/>
        <path d="M308.9536 -478.2474 L296.9536 -483.2474 L299.9536 -478.2474 L296.9536 -473.2474 Z" stroke="none"/>
      </g>
    </g>
    <g id="y.edge.14">
      <g text-rendering="geometricPrecision" stroke-miterlimit="1.45" shape-rendering="geometricPrecision" transform="matrix(1,0,0,1,15,1198)" stroke-linecap="butt">
        <path fill="none" d="M199.995 -478.2474 L301.0134 -478.2474"/>
        <path d="M309.0134 -478.2474 L297.0134 -483.2474 L300.0134 -478.2474 L297.0134 -473.2474 Z" stroke="none"/>
      </g>
      <g>
        <g stroke-linecap="butt" transform="matrix(1,0,0,1,15,1198)" fill="rgb(218,231,247)" text-rendering="geometricPrecision" shape-rendering="geometricPrecision" stroke="rgb(218,231,247)" stroke-miterlimit="1.45">
          <rect x="233.9441" width="41.1118" height="14.437" y="-476.2474" stroke="none"/>
        </g>
        <g fill="rgb(91,171,224)" text-rendering="geometricPrecision" stroke-miterlimit="1.6" shape-rendering="geometricPrecision" transform="matrix(1,0,0,1,15,1198)" stroke="rgb(91,171,224)">
          <rect fill="none" x="233.9441" width="41.1118" height="14.437" y="-476.2474"/>
        </g>
        <g font-size="9px" stroke-linecap="butt" transform="matrix(1,0,0,1,15,1198)" text-rendering="geometricPrecision" font-family="'Gill Sans MT'" shape-rendering="geometricPrecision" stroke-miterlimit="1.45">
          <text x="235.9441" xml:space="preserve" y="-465.8846" stroke="none">Customer</text>
        </g>
      </g>
    </g>
    <g id="y.edge.15">
      <g text-rendering="geometricPrecision" stroke-miterlimit="1.45" shape-rendering="geometricPrecision" transform="matrix(1,0,0,1,15,1198)" stroke-linecap="butt">
        <path fill="none" d="M200 -390.3098 L207 -390.3098 L210.0625 -390.9348 L212.25 -392.8098 L213.5625 -395.9348 L214 -400.3098 L214 -468.2474 L214.625 -472.6224 L216.5 -475.7474 L219.625 -477.6224 L224 -478.2474 L300.9536 -478.2474"/>
        <path d="M308.9536 -478.2474 L296.9536 -483.2474 L299.9536 -478.2474 L296.9536 -473.2474 Z" stroke="none"/>
      </g>
    </g>
    <g id="y.edge.16">
      <g text-rendering="geometricPrecision" stroke-miterlimit="1.45" shape-rendering="geometricPrecision" transform="matrix(1,0,0,1,15,1198)" stroke-linecap="butt">
        <path fill="none" d="M200 -390.3098 L207 -390.3098 L210.0625 -390.9348 L212.25 -392.8098 L213.5625 -395.9348 L214 -400.3098 L214 -468.2474 L214.625 -472.6224 L216.5 -475.7474 L219.625 -477.6224 L224 -478.2474 L300.9536 -478.2474"/>
        <path d="M308.9536 -478.2474 L296.9536 -483.2474 L299.9536 -478.2474 L296.9536 -473.2474 Z" stroke="none"/>
      </g>
    </g>
    <g id="y.edge.19">
      <g text-rendering="geometricPrecision" stroke-miterlimit="1.45" shape-rendering="geometricPrecision" transform="matrix(1,0,0,1,15,1198)" stroke-linecap="butt">
        <path fill="none" d="M200.0064 -306.3504 L207.0032 -306.3504 L210.0643 -306.9754 L212.2508 -308.8504 L213.5627 -311.9754 L214 -316.3504 L214 -468.2474 L214.625 -472.6224 L216.5 -475.7474 L219.625 -477.6224 L224 -478.2474 L300.9536 -478.2474"/>
        <path d="M308.9536 -478.2474 L296.9536 -483.2474 L299.9536 -478.2474 L296.9536 -473.2474 Z" stroke="none"/>
      </g>
    </g>
    <g id="y.edge.6">
      <g text-rendering="geometricPrecision" stroke-miterlimit="1.45" shape-rendering="geometricPrecision" transform="matrix(1,0,0,1,15,1198)" stroke-linecap="butt">
        <path fill="none" d="M200 -906.8539 L246.5 -906.8539 L250.875 -906.2289 L254 -904.3539 L255.875 -901.2289 L256.5 -896.8539 L256.5 -696.6873 L257.125 -692.3123 L259 -689.1873 L262.125 -687.3123 L266.5 -686.6873 L300.9744 -686.6873"/>
        <path d="M308.9744 -686.6873 L296.9744 -691.6873 L299.9744 -686.6873 L296.9744 -681.6873 Z" stroke="none"/>
      </g>
    </g>
    <g id="y.edge.9">
      <g text-rendering="geometricPrecision" stroke-miterlimit="1.45" shape-rendering="geometricPrecision" transform="matrix(1,0,0,1,15,1198)" stroke-linecap="butt">
        <path fill="none" d="M199.9812 -675.4373 L301.0068 -675.4373"/>
        <path d="M309.0068 -675.4373 L297.0068 -680.4373 L300.0068 -675.4373 L297.0068 -670.4373 Z" stroke="none"/>
      </g>
    </g>
    <g id="y.edge.7">
      <g text-rendering="geometricPrecision" stroke-miterlimit="1.45" shape-rendering="geometricPrecision" transform="matrix(1,0,0,1,15,1198)" stroke-linecap="butt">
        <path fill="none" d="M200 -955.1873 L300.9734 -955.1873"/>
        <path d="M308.9734 -955.1873 L296.9734 -960.1873 L299.9734 -955.1873 L296.9734 -950.1873 Z" stroke="none"/>
      </g>
      <g>
        <g stroke-linecap="butt" transform="matrix(1,0,0,1,15,1198)" fill="rgb(218,231,247)" text-rendering="geometricPrecision" shape-rendering="geometricPrecision" stroke="rgb(218,231,247)" stroke-miterlimit="1.45">
          <rect x="239.5186" width="29.9629" height="14.437" y="-953.1873" stroke="none"/>
        </g>
        <g fill="rgb(91,171,224)" text-rendering="geometricPrecision" stroke-miterlimit="1.6" shape-rendering="geometricPrecision" transform="matrix(1,0,0,1,15,1198)" stroke="rgb(91,171,224)">
          <rect fill="none" x="239.5186" width="29.9629" height="14.437" y="-953.1873"/>
        </g>
        <g font-size="9px" stroke-linecap="butt" transform="matrix(1,0,0,1,15,1198)" text-rendering="geometricPrecision" font-family="'Gill Sans MT'" shape-rendering="geometricPrecision" stroke-miterlimit="1.45">
          <text x="241.5186" xml:space="preserve" y="-942.8245" stroke="none">Item_2</text>
        </g>
      </g>
    </g>
    <g id="y.edge.8">
      <g text-rendering="geometricPrecision" stroke-miterlimit="1.45" shape-rendering="geometricPrecision" transform="matrix(1,0,0,1,15,1198)" stroke-linecap="butt">
        <path fill="none" d="M200 -971.2984 L235.5 -971.2984 L243 -972.097 L244.875 -973.0953 L245.5 -974.4929 L245.5 -974.4929 L246.125 -975.8904 L248 -976.8887 L255.5 -977.6873 L300.969 -977.6873"/>
        <path d="M308.969 -977.6873 L296.969 -982.6873 L299.969 -977.6873 L296.969 -972.6873 Z" stroke="none"/>
      </g>
      <g>
        <g stroke-linecap="butt" transform="matrix(1,0,0,1,15,1198)" fill="rgb(218,231,247)" text-rendering="geometricPrecision" shape-rendering="geometricPrecision" stroke="rgb(218,231,247)" stroke-miterlimit="1.45">
          <rect x="246.5" width="29.9629" height="14.437" y="-975.6873" stroke="none"/>
        </g>
        <g fill="rgb(91,171,224)" text-rendering="geometricPrecision" stroke-miterlimit="1.6" shape-rendering="geometricPrecision" transform="matrix(1,0,0,1,15,1198)" stroke="rgb(91,171,224)">
          <rect fill="none" x="246.5" width="29.9629" height="14.437" y="-975.6873"/>
        </g>
        <g font-size="9px" stroke-linecap="butt" transform="matrix(1,0,0,1,15,1198)" text-rendering="geometricPrecision" font-family="'Gill Sans MT'" shape-rendering="geometricPrecision" stroke-miterlimit="1.45">
          <text x="248.5" xml:space="preserve" y="-965.3245" stroke="none">Item_1</text>
        </g>
      </g>
    </g>
    <g id="y.edge.20">
      <g text-rendering="geometricPrecision" stroke-miterlimit="1.45" shape-rendering="geometricPrecision" transform="matrix(1,0,0,1,15,1198)" stroke-linecap="butt">
        <path fill="none" d="M200 -262.3728 L300.9734 -262.3728"/>
        <path d="M308.9734 -262.3728 L296.9734 -267.3728 L299.9734 -262.3728 L296.9734 -257.3728 Z" stroke="none"/>
      </g>
      <g>
        <g stroke-linecap="butt" transform="matrix(1,0,0,1,15,1198)" fill="rgb(218,231,247)" text-rendering="geometricPrecision" shape-rendering="geometricPrecision" stroke="rgb(218,231,247)" stroke-miterlimit="1.45">
          <rect x="208.7634" width="91.4731" height="14.437" y="-260.3728" stroke="none"/>
        </g>
        <g fill="rgb(91,171,224)" text-rendering="geometricPrecision" stroke-miterlimit="1.6" shape-rendering="geometricPrecision" transform="matrix(1,0,0,1,15,1198)" stroke="rgb(91,171,224)">
          <rect fill="none" x="208.7634" width="91.4731" height="14.437" y="-260.3728"/>
        </g>
        <g font-size="9px" stroke-linecap="butt" transform="matrix(1,0,0,1,15,1198)" text-rendering="geometricPrecision" font-family="'Gill Sans MT'" shape-rendering="geometricPrecision" stroke-miterlimit="1.45">
          <text x="210.7634" xml:space="preserve" y="-250.01" stroke="none">InternalSolutionDivision</text>
        </g>
      </g>
    </g>
    <g visibility="hidden" id="tooltip.y.node.0" pointer-events="none">
      <g fill="rgb(255,255,225)" text-rendering="geometricPrecision" shape-rendering="geometricPrecision" font-family="'Segoe UI'" stroke="rgb(255,255,225)">
        <rect x="0" width="117" height="66" y="0" clip-path="url(#clipPath3)" stroke="none"/>
        <text fill="black" x="4" xml:space="preserve" y="14" clip-path="url(#clipPath3)" stroke="none">Description: None.</text>
        <text fill="black" x="102" xml:space="preserve" y="14" clip-path="url(#clipPath3)" stroke="none"> </text>
        <text fill="black" x="4" xml:space="preserve" y="30" clip-path="url(#clipPath3)" stroke="none">Data Category: Seed</text>
        <text fill="black" x="110" xml:space="preserve" y="30" clip-path="url(#clipPath3)" stroke="none"> </text>
        <text fill="black" x="4" xml:space="preserve" y="46" clip-path="url(#clipPath3)" stroke="none">Group: Accountancy</text>
        <text fill="black" x="113" xml:space="preserve" y="46" clip-path="url(#clipPath3)" stroke="none"> </text>
        <text fill="black" x="4" xml:space="preserve" y="62" clip-path="url(#clipPath3)" stroke="none">Partition: N</text>
      </g>
      <g font-family="'Segoe UI'" text-rendering="geometricPrecision" shape-rendering="geometricPrecision">
        <path d="M0 0 L117 0 L117 66 L0 66 L0 0 ZM1 1 L116 1 L116 65 L1 65 L1 1 Z" fill-rule="evenodd" clip-path="url(#clipPath3)" stroke="none"/>
      </g>
    </g>
    <g visibility="hidden" id="tooltip.y.node.1" pointer-events="none">
      <g fill="rgb(255,255,225)" text-rendering="geometricPrecision" shape-rendering="geometricPrecision" font-family="'Segoe UI'" stroke="rgb(255,255,225)">
        <rect x="0" width="117" height="66" y="0" clip-path="url(#clipPath3)" stroke="none"/>
        <text fill="black" x="4" xml:space="preserve" y="14" clip-path="url(#clipPath3)" stroke="none">Description: None.</text>
        <text fill="black" x="102" xml:space="preserve" y="14" clip-path="url(#clipPath3)" stroke="none"> </text>
        <text fill="black" x="4" xml:space="preserve" y="30" clip-path="url(#clipPath3)" stroke="none">Data Category: Seed</text>
        <text fill="black" x="110" xml:space="preserve" y="30" clip-path="url(#clipPath3)" stroke="none"> </text>
        <text fill="black" x="4" xml:space="preserve" y="46" clip-path="url(#clipPath3)" stroke="none">Group: Accountancy</text>
        <text fill="black" x="113" xml:space="preserve" y="46" clip-path="url(#clipPath3)" stroke="none"> </text>
        <text fill="black" x="4" xml:space="preserve" y="62" clip-path="url(#clipPath3)" stroke="none">Partition: N</text>
      </g>
      <g font-family="'Segoe UI'" text-rendering="geometricPrecision" shape-rendering="geometricPrecision">
        <path d="M0 0 L117 0 L117 66 L0 66 L0 0 ZM1 1 L116 1 L116 65 L1 65 L1 1 Z" fill-rule="evenodd" clip-path="url(#clipPath3)" stroke="none"/>
      </g>
    </g>
    <g visibility="hidden" id="tooltip.y.node.2" pointer-events="none">
      <g fill="rgb(255,255,225)" text-rendering="geometricPrecision" shape-rendering="geometricPrecision" font-family="'Segoe UI'" stroke="rgb(255,255,225)">
        <rect x="0" width="200" height="66" y="0" clip-path="url(#clipPath4)" stroke="none"/>
        <text fill="black" x="4" xml:space="preserve" y="14" clip-path="url(#clipPath4)" stroke="none">Description: Customer Cooperations</text>
        <text fill="black" x="196" xml:space="preserve" y="14" clip-path="url(#clipPath4)" stroke="none"> </text>
        <text fill="black" x="4" xml:space="preserve" y="30" clip-path="url(#clipPath4)" stroke="none">Data Category: Reference</text>
        <text fill="black" x="137" xml:space="preserve" y="30" clip-path="url(#clipPath4)" stroke="none"> </text>
        <text fill="black" x="4" xml:space="preserve" y="46" clip-path="url(#clipPath4)" stroke="none">Group: Accountancy</text>
        <text fill="black" x="113" xml:space="preserve" y="46" clip-path="url(#clipPath4)" stroke="none"> </text>
        <text fill="black" x="4" xml:space="preserve" y="62" clip-path="url(#clipPath4)" stroke="none">Partition: Y</text>
      </g>
      <g font-family="'Segoe UI'" text-rendering="geometricPrecision" shape-rendering="geometricPrecision">
        <path d="M0 0 L200 0 L200 66 L0 66 L0 0 ZM1 1 L199 1 L199 65 L1 65 L1 1 Z" fill-rule="evenodd" clip-path="url(#clipPath4)" stroke="none"/>
      </g>
    </g>
    <g visibility="hidden" id="tooltip.y.node.3" pointer-events="none">
      <g fill="rgb(255,255,225)" text-rendering="geometricPrecision" shape-rendering="geometricPrecision" font-family="'Segoe UI'" stroke="rgb(255,255,225)">
        <rect x="0" width="150" height="66" y="0" clip-path="url(#clipPath5)" stroke="none"/>
        <text fill="black" x="4" xml:space="preserve" y="14" clip-path="url(#clipPath5)" stroke="none">Description: Involved Users</text>
        <text fill="black" x="146" xml:space="preserve" y="14" clip-path="url(#clipPath5)" stroke="none"> </text>
        <text fill="black" x="4" xml:space="preserve" y="30" clip-path="url(#clipPath5)" stroke="none">Data Category: Reference</text>
        <text fill="black" x="137" xml:space="preserve" y="30" clip-path="url(#clipPath5)" stroke="none"> </text>
        <text fill="black" x="4" xml:space="preserve" y="46" clip-path="url(#clipPath5)" stroke="none">Group: Accountancy</text>
        <text fill="black" x="113" xml:space="preserve" y="46" clip-path="url(#clipPath5)" stroke="none"> </text>
        <text fill="black" x="4" xml:space="preserve" y="62" clip-path="url(#clipPath5)" stroke="none">Partition: Y</text>
      </g>
      <g font-family="'Segoe UI'" text-rendering="geometricPrecision" shape-rendering="geometricPrecision">
        <path d="M0 0 L150 0 L150 66 L0 66 L0 0 ZM1 1 L149 1 L149 65 L1 65 L1 1 Z" fill-rule="evenodd" clip-path="url(#clipPath5)" stroke="none"/>
      </g>
    </g>
    <g visibility="hidden" id="tooltip.y.node.4" pointer-events="none">
      <g fill="rgb(255,255,225)" text-rendering="geometricPrecision" shape-rendering="geometricPrecision" font-family="'Segoe UI'" stroke="rgb(255,255,225)">
        <rect x="0" width="176" height="66" y="0" clip-path="url(#clipPath6)" stroke="none"/>
        <text fill="black" x="4" xml:space="preserve" y="14" clip-path="url(#clipPath6)" stroke="none">Description: Involved User Roles</text>
        <text fill="black" x="172" xml:space="preserve" y="14" clip-path="url(#clipPath6)" stroke="none"> </text>
        <text fill="black" x="4" xml:space="preserve" y="30" clip-path="url(#clipPath6)" stroke="none">Data Category: Reference</text>
        <text fill="black" x="137" xml:space="preserve" y="30" clip-path="url(#clipPath6)" stroke="none"> </text>
        <text fill="black" x="4" xml:space="preserve" y="46" clip-path="url(#clipPath6)" stroke="none">Group: Accountancy</text>
        <text fill="black" x="113" xml:space="preserve" y="46" clip-path="url(#clipPath6)" stroke="none"> </text>
        <text fill="black" x="4" xml:space="preserve" y="62" clip-path="url(#clipPath6)" stroke="none">Partition: Y</text>
      </g>
      <g font-family="'Segoe UI'" text-rendering="geometricPrecision" shape-rendering="geometricPrecision">
        <path d="M0 0 L176 0 L176 66 L0 66 L0 0 ZM1 1 L175 1 L175 65 L1 65 L1 1 Z" fill-rule="evenodd" clip-path="url(#clipPath6)" stroke="none"/>
      </g>
    </g>
    <g visibility="hidden" id="tooltip.y.node.5" pointer-events="none">
      <g fill="rgb(255,255,225)" text-rendering="geometricPrecision" shape-rendering="geometricPrecision" font-family="'Segoe UI'" stroke="rgb(255,255,225)">
        <rect x="0" width="162" height="66" y="0" clip-path="url(#clipPath7)" stroke="none"/>
        <text fill="black" x="4" xml:space="preserve" y="14" clip-path="url(#clipPath7)" stroke="none">Description: Account Owners</text>
        <text fill="black" x="158" xml:space="preserve" y="14" clip-path="url(#clipPath7)" stroke="none"> </text>
        <text fill="black" x="4" xml:space="preserve" y="30" clip-path="url(#clipPath7)" stroke="none">Data Category: Transaction</text>
        <text fill="black" x="146" xml:space="preserve" y="30" clip-path="url(#clipPath7)" stroke="none"> </text>
        <text fill="black" x="4" xml:space="preserve" y="46" clip-path="url(#clipPath7)" stroke="none">Group: Accountancy</text>
        <text fill="black" x="113" xml:space="preserve" y="46" clip-path="url(#clipPath7)" stroke="none"> </text>
        <text fill="black" x="4" xml:space="preserve" y="62" clip-path="url(#clipPath7)" stroke="none">Partition: Y</text>
      </g>
      <g font-family="'Segoe UI'" text-rendering="geometricPrecision" shape-rendering="geometricPrecision">
        <path d="M0 0 L162 0 L162 66 L0 66 L0 0 ZM1 1 L161 1 L161 65 L1 65 L1 1 Z" fill-rule="evenodd" clip-path="url(#clipPath7)" stroke="none"/>
      </g>
    </g>
    <g visibility="hidden" id="tooltip.y.node.6" pointer-events="none">
      <g fill="rgb(255,255,225)" text-rendering="geometricPrecision" shape-rendering="geometricPrecision" font-family="'Segoe UI'" stroke="rgb(255,255,225)">
        <rect x="0" width="220" height="66" y="0" clip-path="url(#clipPath8)" stroke="none"/>
        <text fill="black" x="4" xml:space="preserve" y="14" clip-path="url(#clipPath8)" stroke="none">Description: Account Involved Accounts</text>
        <text fill="black" x="216" xml:space="preserve" y="14" clip-path="url(#clipPath8)" stroke="none"> </text>
        <text fill="black" x="4" xml:space="preserve" y="30" clip-path="url(#clipPath8)" stroke="none">Data Category: Transaction</text>
        <text fill="black" x="146" xml:space="preserve" y="30" clip-path="url(#clipPath8)" stroke="none"> </text>
        <text fill="black" x="4" xml:space="preserve" y="46" clip-path="url(#clipPath8)" stroke="none">Group: Accountancy</text>
        <text fill="black" x="113" xml:space="preserve" y="46" clip-path="url(#clipPath8)" stroke="none"> </text>
        <text fill="black" x="4" xml:space="preserve" y="62" clip-path="url(#clipPath8)" stroke="none">Partition: Y</text>
      </g>
      <g font-family="'Segoe UI'" text-rendering="geometricPrecision" shape-rendering="geometricPrecision">
        <path d="M0 0 L220 0 L220 66 L0 66 L0 0 ZM1 1 L219 1 L219 65 L1 65 L1 1 Z" fill-rule="evenodd" clip-path="url(#clipPath8)" stroke="none"/>
      </g>
    </g>
    <g visibility="hidden" id="tooltip.y.node.7" pointer-events="none">
      <g fill="rgb(255,255,225)" text-rendering="geometricPrecision" shape-rendering="geometricPrecision" font-family="'Segoe UI'" stroke="rgb(255,255,225)">
        <rect x="0" width="150" height="66" y="0" clip-path="url(#clipPath5)" stroke="none"/>
        <text fill="black" x="4" xml:space="preserve" y="14" clip-path="url(#clipPath5)" stroke="none">Description: Solution Links</text>
        <text fill="black" x="144" xml:space="preserve" y="14" clip-path="url(#clipPath5)" stroke="none"> </text>
        <text fill="black" x="4" xml:space="preserve" y="30" clip-path="url(#clipPath5)" stroke="none">Data Category: Transaction</text>
        <text fill="black" x="146" xml:space="preserve" y="30" clip-path="url(#clipPath5)" stroke="none"> </text>
        <text fill="black" x="4" xml:space="preserve" y="46" clip-path="url(#clipPath5)" stroke="none">Group: Accountancy</text>
        <text fill="black" x="113" xml:space="preserve" y="46" clip-path="url(#clipPath5)" stroke="none"> </text>
        <text fill="black" x="4" xml:space="preserve" y="62" clip-path="url(#clipPath5)" stroke="none">Partition: Y</text>
      </g>
      <g font-family="'Segoe UI'" text-rendering="geometricPrecision" shape-rendering="geometricPrecision">
        <path d="M0 0 L150 0 L150 66 L0 66 L0 0 ZM1 1 L149 1 L149 65 L1 65 L1 1 Z" fill-rule="evenodd" clip-path="url(#clipPath5)" stroke="none"/>
      </g>
    </g>
    <g visibility="hidden" id="tooltip.y.node.8" pointer-events="none">
      <g fill="rgb(255,255,225)" text-rendering="geometricPrecision" shape-rendering="geometricPrecision" font-family="'Segoe UI'" stroke="rgb(255,255,225)">
        <rect x="0" width="172" height="66" y="0" clip-path="url(#clipPath9)" stroke="none"/>
        <text fill="black" x="4" xml:space="preserve" y="14" clip-path="url(#clipPath9)" stroke="none">Description: Excluded Divisions</text>
        <text fill="black" x="168" xml:space="preserve" y="14" clip-path="url(#clipPath9)" stroke="none"> </text>
        <text fill="black" x="4" xml:space="preserve" y="30" clip-path="url(#clipPath9)" stroke="none">Data Category: Other</text>
        <text fill="black" x="115" xml:space="preserve" y="30" clip-path="url(#clipPath9)" stroke="none"> </text>
        <text fill="black" x="4" xml:space="preserve" y="46" clip-path="url(#clipPath9)" stroke="none">Group: Accountancy</text>
        <text fill="black" x="113" xml:space="preserve" y="46" clip-path="url(#clipPath9)" stroke="none"> </text>
        <text fill="black" x="4" xml:space="preserve" y="62" clip-path="url(#clipPath9)" stroke="none">Partition: Y</text>
      </g>
      <g font-family="'Segoe UI'" text-rendering="geometricPrecision" shape-rendering="geometricPrecision">
        <path d="M0 0 L172 0 L172 66 L0 66 L0 0 ZM1 1 L171 1 L171 65 L1 65 L1 1 Z" fill-rule="evenodd" clip-path="url(#clipPath9)" stroke="none"/>
      </g>
    </g>
    <g visibility="hidden" id="tooltip.y.node.9" pointer-events="none">
      <g fill="rgb(255,255,225)" text-rendering="geometricPrecision" shape-rendering="geometricPrecision" font-family="'Segoe UI'" stroke="rgb(255,255,225)">
        <rect x="0" width="150" height="66" y="0" clip-path="url(#clipPath5)" stroke="none"/>
        <text fill="black" x="4" xml:space="preserve" y="14" clip-path="url(#clipPath5)" stroke="none">Description: Opportunities</text>
        <text fill="black" x="143" xml:space="preserve" y="14" clip-path="url(#clipPath5)" stroke="none"> </text>
        <text fill="black" x="4" xml:space="preserve" y="30" clip-path="url(#clipPath5)" stroke="none">Data Category: Transaction</text>
        <text fill="black" x="146" xml:space="preserve" y="30" clip-path="url(#clipPath5)" stroke="none"> </text>
        <text fill="black" x="4" xml:space="preserve" y="46" clip-path="url(#clipPath5)" stroke="none">Group: CRM</text>
        <text fill="black" x="69" xml:space="preserve" y="46" clip-path="url(#clipPath5)" stroke="none"> </text>
        <text fill="black" x="4" xml:space="preserve" y="62" clip-path="url(#clipPath5)" stroke="none">Partition: Y</text>
      </g>
      <g font-family="'Segoe UI'" text-rendering="geometricPrecision" shape-rendering="geometricPrecision">
        <path d="M0 0 L150 0 L150 66 L0 66 L0 0 ZM1 1 L149 1 L149 65 L1 65 L1 1 Z" fill-rule="evenodd" clip-path="url(#clipPath5)" stroke="none"/>
      </g>
    </g>
    <g visibility="hidden" id="tooltip.y.node.10" pointer-events="none">
      <g fill="rgb(255,255,225)" text-rendering="geometricPrecision" shape-rendering="geometricPrecision" font-family="'Segoe UI'" stroke="rgb(255,255,225)">
        <rect x="0" width="150" height="66" y="0" clip-path="url(#clipPath5)" stroke="none"/>
        <text fill="black" x="4" xml:space="preserve" y="14" clip-path="url(#clipPath5)" stroke="none">Description: Contacts</text>
        <text fill="black" x="117" xml:space="preserve" y="14" clip-path="url(#clipPath5)" stroke="none"> </text>
        <text fill="black" x="4" xml:space="preserve" y="30" clip-path="url(#clipPath5)" stroke="none">Data Category: Transaction</text>
        <text fill="black" x="146" xml:space="preserve" y="30" clip-path="url(#clipPath5)" stroke="none"> </text>
        <text fill="black" x="4" xml:space="preserve" y="46" clip-path="url(#clipPath5)" stroke="none">Group: Accounts</text>
        <text fill="black" x="93" xml:space="preserve" y="46" clip-path="url(#clipPath5)" stroke="none"> </text>
        <text fill="black" x="4" xml:space="preserve" y="62" clip-path="url(#clipPath5)" stroke="none">Partition: Y</text>
      </g>
      <g font-family="'Segoe UI'" text-rendering="geometricPrecision" shape-rendering="geometricPrecision">
        <path d="M0 0 L150 0 L150 66 L0 66 L0 0 ZM1 1 L149 1 L149 65 L1 65 L1 1 Z" fill-rule="evenodd" clip-path="url(#clipPath5)" stroke="none"/>
      </g>
    </g>
    <g visibility="hidden" id="tooltip.y.node.11" pointer-events="none">
      <g fill="rgb(255,255,225)" text-rendering="geometricPrecision" shape-rendering="geometricPrecision" font-family="'Segoe UI'" stroke="rgb(255,255,225)">
        <rect x="0" width="141" height="66" y="0" clip-path="url(#clipPath10)" stroke="none"/>
        <text fill="black" x="4" xml:space="preserve" y="14" clip-path="url(#clipPath10)" stroke="none">Description: Employees</text>
        <text fill="black" x="127" xml:space="preserve" y="14" clip-path="url(#clipPath10)" stroke="none"> </text>
        <text fill="black" x="4" xml:space="preserve" y="30" clip-path="url(#clipPath10)" stroke="none">Data Category: Reference</text>
        <text fill="black" x="137" xml:space="preserve" y="30" clip-path="url(#clipPath10)" stroke="none"> </text>
        <text fill="black" x="4" xml:space="preserve" y="46" clip-path="url(#clipPath10)" stroke="none">Group: Payroll</text>
        <text fill="black" x="79" xml:space="preserve" y="46" clip-path="url(#clipPath10)" stroke="none"> </text>
        <text fill="black" x="4" xml:space="preserve" y="62" clip-path="url(#clipPath10)" stroke="none">Partition: Y</text>
      </g>
      <g font-family="'Segoe UI'" text-rendering="geometricPrecision" shape-rendering="geometricPrecision">
        <path d="M0 0 L141 0 L141 66 L0 66 L0 0 ZM1 1 L140 1 L140 65 L1 65 L1 1 Z" fill-rule="evenodd" clip-path="url(#clipPath10)" stroke="none"/>
      </g>
    </g>
    <g visibility="hidden" id="tooltip.y.node.12" pointer-events="none">
      <g fill="rgb(255,255,225)" text-rendering="geometricPrecision" shape-rendering="geometricPrecision" font-family="'Segoe UI'" stroke="rgb(255,255,225)">
        <rect x="0" width="150" height="66" y="0" clip-path="url(#clipPath5)" stroke="none"/>
        <text fill="black" x="4" xml:space="preserve" y="14" clip-path="url(#clipPath5)" stroke="none">Description: Documents</text>
        <text fill="black" x="131" xml:space="preserve" y="14" clip-path="url(#clipPath5)" stroke="none"> </text>
        <text fill="black" x="4" xml:space="preserve" y="30" clip-path="url(#clipPath5)" stroke="none">Data Category: Transaction</text>
        <text fill="black" x="146" xml:space="preserve" y="30" clip-path="url(#clipPath5)" stroke="none"> </text>
        <text fill="black" x="4" xml:space="preserve" y="46" clip-path="url(#clipPath5)" stroke="none">Group: Documents</text>
        <text fill="black" x="104" xml:space="preserve" y="46" clip-path="url(#clipPath5)" stroke="none"> </text>
        <text fill="black" x="4" xml:space="preserve" y="62" clip-path="url(#clipPath5)" stroke="none">Partition: Y</text>
      </g>
      <g font-family="'Segoe UI'" text-rendering="geometricPrecision" shape-rendering="geometricPrecision">
        <path d="M0 0 L150 0 L150 66 L0 66 L0 0 ZM1 1 L149 1 L149 65 L1 65 L1 1 Z" fill-rule="evenodd" clip-path="url(#clipPath5)" stroke="none"/>
      </g>
    </g>
    <g visibility="hidden" id="tooltip.y.node.13" pointer-events="none">
      <g fill="rgb(255,255,225)" text-rendering="geometricPrecision" shape-rendering="geometricPrecision" font-family="'Segoe UI'" stroke="rgb(255,255,225)">
        <rect x="0" width="150" height="66" y="0" clip-path="url(#clipPath5)" stroke="none"/>
        <text fill="black" x="4" xml:space="preserve" y="14" clip-path="url(#clipPath5)" stroke="none">Description: Projects</text>
        <text fill="black" x="112" xml:space="preserve" y="14" clip-path="url(#clipPath5)" stroke="none"> </text>
        <text fill="black" x="4" xml:space="preserve" y="30" clip-path="url(#clipPath5)" stroke="none">Data Category: Transaction</text>
        <text fill="black" x="146" xml:space="preserve" y="30" clip-path="url(#clipPath5)" stroke="none"> </text>
        <text fill="black" x="4" xml:space="preserve" y="46" clip-path="url(#clipPath5)" stroke="none">Group: Project</text>
        <text fill="black" x="80" xml:space="preserve" y="46" clip-path="url(#clipPath5)" stroke="none"> </text>
        <text fill="black" x="4" xml:space="preserve" y="62" clip-path="url(#clipPath5)" stroke="none">Partition: Y</text>
      </g>
      <g font-family="'Segoe UI'" text-rendering="geometricPrecision" shape-rendering="geometricPrecision">
        <path d="M0 0 L150 0 L150 66 L0 66 L0 0 ZM1 1 L149 1 L149 65 L1 65 L1 1 Z" fill-rule="evenodd" clip-path="url(#clipPath5)" stroke="none"/>
      </g>
    </g>
    <g visibility="hidden" id="tooltip.y.node.14" pointer-events="none">
      <g fill="rgb(255,255,225)" text-rendering="geometricPrecision" shape-rendering="geometricPrecision" font-family="'Segoe UI'" stroke="rgb(255,255,225)">
        <rect x="0" width="150" height="66" y="0" clip-path="url(#clipPath5)" stroke="none"/>
        <text fill="black" x="4" xml:space="preserve" y="14" clip-path="url(#clipPath5)" stroke="none">Description: Accounts</text>
        <text fill="black" x="120" xml:space="preserve" y="14" clip-path="url(#clipPath5)" stroke="none"> </text>
        <text fill="black" x="4" xml:space="preserve" y="30" clip-path="url(#clipPath5)" stroke="none">Data Category: Transaction</text>
        <text fill="black" x="146" xml:space="preserve" y="30" clip-path="url(#clipPath5)" stroke="none"> </text>
        <text fill="black" x="4" xml:space="preserve" y="46" clip-path="url(#clipPath5)" stroke="none">Group: Accounts</text>
        <text fill="black" x="93" xml:space="preserve" y="46" clip-path="url(#clipPath5)" stroke="none"> </text>
        <text fill="black" x="4" xml:space="preserve" y="62" clip-path="url(#clipPath5)" stroke="none">Partition: Y</text>
      </g>
      <g font-family="'Segoe UI'" text-rendering="geometricPrecision" shape-rendering="geometricPrecision">
        <path d="M0 0 L150 0 L150 66 L0 66 L0 0 ZM1 1 L149 1 L149 65 L1 65 L1 1 Z" fill-rule="evenodd" clip-path="url(#clipPath5)" stroke="none"/>
      </g>
    </g>
    <g visibility="hidden" id="tooltip.y.node.15" pointer-events="none">
      <g fill="rgb(255,255,225)" text-rendering="geometricPrecision" shape-rendering="geometricPrecision" font-family="'Segoe UI'" stroke="rgb(255,255,225)">
        <rect x="0" width="143" height="66" y="0" clip-path="url(#clipPath11)" stroke="none"/>
        <text fill="black" x="4" xml:space="preserve" y="14" clip-path="url(#clipPath11)" stroke="none">Description: System Users</text>
        <text fill="black" x="139" xml:space="preserve" y="14" clip-path="url(#clipPath11)" stroke="none"> </text>
        <text fill="black" x="4" xml:space="preserve" y="30" clip-path="url(#clipPath11)" stroke="none">Data Category: Reference</text>
        <text fill="black" x="137" xml:space="preserve" y="30" clip-path="url(#clipPath11)" stroke="none"> </text>
        <text fill="black" x="4" xml:space="preserve" y="46" clip-path="url(#clipPath11)" stroke="none">Group: System</text>
        <text fill="black" x="81" xml:space="preserve" y="46" clip-path="url(#clipPath11)" stroke="none"> </text>
        <text fill="black" x="4" xml:space="preserve" y="62" clip-path="url(#clipPath11)" stroke="none">Partition: Y</text>
      </g>
      <g font-family="'Segoe UI'" text-rendering="geometricPrecision" shape-rendering="geometricPrecision">
        <path d="M0 0 L143 0 L143 66 L0 66 L0 0 ZM1 1 L142 1 L142 65 L1 65 L1 1 Z" fill-rule="evenodd" clip-path="url(#clipPath11)" stroke="none"/>
      </g>
    </g>
    <g visibility="hidden" id="tooltip.y.node.16" pointer-events="none">
      <g fill="rgb(255,255,225)" text-rendering="geometricPrecision" shape-rendering="geometricPrecision" font-family="'Segoe UI'" stroke="rgb(255,255,225)">
        <rect x="0" width="150" height="66" y="0" clip-path="url(#clipPath5)" stroke="none"/>
        <text fill="black" x="4" xml:space="preserve" y="14" clip-path="url(#clipPath5)" stroke="none">Description: Item</text>
        <text fill="black" x="94" xml:space="preserve" y="14" clip-path="url(#clipPath5)" stroke="none"> </text>
        <text fill="black" x="4" xml:space="preserve" y="30" clip-path="url(#clipPath5)" stroke="none">Data Category: Transaction</text>
        <text fill="black" x="146" xml:space="preserve" y="30" clip-path="url(#clipPath5)" stroke="none"> </text>
        <text fill="black" x="4" xml:space="preserve" y="46" clip-path="url(#clipPath5)" stroke="none">Group: Logistics</text>
        <text fill="black" x="89" xml:space="preserve" y="46" clip-path="url(#clipPath5)" stroke="none"> </text>
        <text fill="black" x="4" xml:space="preserve" y="62" clip-path="url(#clipPath5)" stroke="none">Partition: Y</text>
      </g>
      <g font-family="'Segoe UI'" text-rendering="geometricPrecision" shape-rendering="geometricPrecision">
        <path d="M0 0 L150 0 L150 66 L0 66 L0 0 ZM1 1 L149 1 L149 65 L1 65 L1 1 Z" fill-rule="evenodd" clip-path="url(#clipPath5)" stroke="none"/>
      </g>
    </g>
    <g visibility="hidden" id="tooltip.y.node.17" pointer-events="none">
      <g fill="rgb(255,255,225)" text-rendering="geometricPrecision" shape-rendering="geometricPrecision" font-family="'Segoe UI'" stroke="rgb(255,255,225)">
        <rect x="0" width="162" height="66" y="0" clip-path="url(#clipPath7)" stroke="none"/>
        <text fill="black" x="4" xml:space="preserve" y="14" clip-path="url(#clipPath7)" stroke="none">Description: System Divisions</text>
        <text fill="black" x="158" xml:space="preserve" y="14" clip-path="url(#clipPath7)" stroke="none"> </text>
        <text fill="black" x="4" xml:space="preserve" y="30" clip-path="url(#clipPath7)" stroke="none">Data Category: Reference</text>
        <text fill="black" x="137" xml:space="preserve" y="30" clip-path="url(#clipPath7)" stroke="none"> </text>
        <text fill="black" x="4" xml:space="preserve" y="46" clip-path="url(#clipPath7)" stroke="none">Group: System</text>
        <text fill="black" x="81" xml:space="preserve" y="46" clip-path="url(#clipPath7)" stroke="none"> </text>
        <text fill="black" x="4" xml:space="preserve" y="62" clip-path="url(#clipPath7)" stroke="none">Partition: N</text>
      </g>
      <g font-family="'Segoe UI'" text-rendering="geometricPrecision" shape-rendering="geometricPrecision">
        <path d="M0 0 L162 0 L162 66 L0 66 L0 0 ZM1 1 L161 1 L161 65 L1 65 L1 1 Z" fill-rule="evenodd" clip-path="url(#clipPath7)" stroke="none"/>
      </g>
    </g>
  </g>
</svg>
