<?xml version="1.0" encoding="UTF-8" standalone="no"?>
<graphml xmlns="http://graphml.graphdrawing.org/xmlns" xmlns:java="http://www.yworks.com/xml/yfiles-common/1.0/java" xmlns:sys="http://www.yworks.com/xml/yfiles-common/markup/primitives/2.0" xmlns:x="http://www.yworks.com/xml/yfiles-common/markup/2.0" xmlns:xsi="http://www.w3.org/2001/XMLSchema-instance" xmlns:y="http://www.yworks.com/xml/graphml" xmlns:yed="http://www.yworks.com/xml/yed/3" xsi:schemaLocation="http://graphml.graphdrawing.org/xmlns http://www.yworks.com/xml/schema/graphml/1.1/ygraphml.xsd">
  <!--Created by yEd 3.17.1-->
  <key for="port" id="d0" yfiles.type="portgraphics"/>
  <key for="port" id="d1" yfiles.type="portgeometry"/>
  <key for="port" id="d2" yfiles.type="portuserdata"/>
  <key attr.name="url" attr.type="string" for="node" id="d3"/>
  <key attr.name="description" attr.type="string" for="node" id="d4"/>
  <key for="node" id="d5" yfiles.type="nodegraphics"/>
  <key for="graphml" id="d6" yfiles.type="resources"/>
  <key attr.name="url" attr.type="string" for="edge" id="d7"/>
  <key attr.name="description" attr.type="string" for="edge" id="d8"/>
  <key for="edge" id="d9" yfiles.type="edgegraphics"/>
  <graph edgedefault="directed" id="G">
    <node id="n0">
      <data key="d4"><![CDATA[Description: None.
Data Category: Seed
Group: Activities
Partition: N]]></data>
      <data key="d5">
        <y:ShapeNode>
          <y:Geometry height="45.0" width="200.0" x="524.0" y="-291.0"/>
          <y:Fill color="#59A9DF" transparent="false"/>
          <y:BorderStyle color="#1D71B8" type="line" width="1.0"/>
          <y:NodeLabel alignment="center" autoSizePolicy="node_width" fontFamily="Gill Sans MT" fontSize="15" fontStyle="plain" hasBackgroundColor="false" hasLineColor="false" height="38.7900390625" horizontalTextPosition="center" iconTextGap="4" modelName="internal" modelPosition="c" textColor="#FFFFFF" verticalTextPosition="bottom" visible="true" width="200.0" x="0.0" y="3.10498046875">TaskStatuses
domtks, #code</y:NodeLabel>
          <y:Shape type="roundrectangle"/>
          <y:DropShadow color="#C0C0C07E" offsetX="2" offsetY="2"/>
        </y:ShapeNode>
      </data>
    </node>
    <node id="n1">
      <data key="d4"><![CDATA[Description: None.
Data Category: Seed
Group: Activities
Partition: N]]></data>
      <data key="d5">
        <y:ShapeNode>
          <y:Geometry height="45.0" width="200.0" x="524.0" y="-219.0"/>
          <y:Fill color="#59A9DF" transparent="false"/>
          <y:BorderStyle color="#1D71B8" type="line" width="1.0"/>
          <y:NodeLabel alignment="center" autoSizePolicy="node_width" fontFamily="Gill Sans MT" fontSize="15" fontStyle="plain" hasBackgroundColor="false" hasLineColor="false" height="38.7900390625" horizontalTextPosition="center" iconTextGap="4" modelName="internal" modelPosition="c" textColor="#FFFFFF" verticalTextPosition="bottom" visible="true" width="200.0" x="0.0" y="3.10498046875">StandardTaskTypes
domste, #code</y:NodeLabel>
          <y:Shape type="roundrectangle"/>
          <y:DropShadow color="#C0C0C07E" offsetX="2" offsetY="2"/>
        </y:ShapeNode>
      </data>
    </node>
    <node id="n2">
      <data key="d4"><![CDATA[Description: None.
Data Category: Seed
Group: Activities
Partition: N]]></data>
      <data key="d5">
        <y:ShapeNode>
          <y:Geometry height="60.0" width="200.0" x="524.0" y="-825.0"/>
          <y:Fill color="#59A9DF" transparent="false"/>
          <y:BorderStyle color="#1D71B8" type="line" width="1.0"/>
          <y:NodeLabel alignment="center" autoSizePolicy="node_width" fontFamily="Gill Sans MT" fontSize="15" fontStyle="plain" hasBackgroundColor="false" hasLineColor="false" height="38.7900390625" horizontalTextPosition="center" iconTextGap="4" modelName="internal" modelPosition="c" textColor="#FFFFFF" verticalTextPosition="bottom" visible="true" width="200.0" x="0.0" y="10.60498046875">ServiceRequestStatuses
domsqs, #code</y:NodeLabel>
          <y:Shape type="roundrectangle"/>
          <y:DropShadow color="#C0C0C07E" offsetX="2" offsetY="2"/>
        </y:ShapeNode>
      </data>
    </node>
    <node id="n3">
      <data key="d4"><![CDATA[Description: None.
Data Category: Seed
Group: Activities
Partition: N]]></data>
      <data key="d5">
        <y:ShapeNode>
          <y:Geometry height="60.0" width="200.0" x="524.0" y="-999.0"/>
          <y:Fill color="#59A9DF" transparent="false"/>
          <y:BorderStyle color="#1D71B8" type="line" width="1.0"/>
          <y:NodeLabel alignment="center" autoSizePolicy="node_width" fontFamily="Gill Sans MT" fontSize="15" fontStyle="plain" hasBackgroundColor="false" hasLineColor="false" height="38.7900390625" horizontalTextPosition="center" iconTextGap="4" modelName="internal" modelPosition="c" textColor="#FFFFFF" verticalTextPosition="bottom" visible="true" width="200.0" x="0.0" y="10.60498046875">EventStatuses
domess, #code</y:NodeLabel>
          <y:Shape type="roundrectangle"/>
          <y:DropShadow color="#C0C0C07E" offsetX="2" offsetY="2"/>
        </y:ShapeNode>
      </data>
    </node>
    <node id="n4">
      <data key="d4"><![CDATA[Description: None.
Data Category: Seed
Group: Activities
Partition: N]]></data>
      <data key="d5">
        <y:ShapeNode>
          <y:Geometry height="60.0" width="200.0" x="524.0" y="-912.0"/>
          <y:Fill color="#59A9DF" transparent="false"/>
          <y:BorderStyle color="#1D71B8" type="line" width="1.0"/>
          <y:NodeLabel alignment="center" autoSizePolicy="node_width" fontFamily="Gill Sans MT" fontSize="15" fontStyle="plain" hasBackgroundColor="false" hasLineColor="false" height="38.7900390625" horizontalTextPosition="center" iconTextGap="4" modelName="internal" modelPosition="c" textColor="#FFFFFF" verticalTextPosition="bottom" visible="true" width="200.0" x="0.0" y="10.60498046875">ComplaintStatuses
domcss, #code</y:NodeLabel>
          <y:Shape type="roundrectangle"/>
          <y:DropShadow color="#C0C0C07E" offsetX="2" offsetY="2"/>
        </y:ShapeNode>
      </data>
    </node>
    <node id="n5">
      <data key="d4"><![CDATA[Description: None.
Data Category: Seed
Group: Activities
Partition: N]]></data>
      <data key="d5">
        <y:ShapeNode>
          <y:Geometry height="60.0" width="200.0" x="524.0" y="-738.0"/>
          <y:Fill color="#59A9DF" transparent="false"/>
          <y:BorderStyle color="#1D71B8" type="line" width="1.0"/>
          <y:NodeLabel alignment="center" autoSizePolicy="node_width" fontFamily="Gill Sans MT" fontSize="15" fontStyle="plain" hasBackgroundColor="false" hasLineColor="false" height="38.7900390625" horizontalTextPosition="center" iconTextGap="4" modelName="internal" modelPosition="c" textColor="#FFFFFF" verticalTextPosition="bottom" visible="true" width="200.0" x="0.0" y="10.60498046875">CommunicationNoteStatuses
domcns, #code</y:NodeLabel>
          <y:Shape type="roundrectangle"/>
          <y:DropShadow color="#C0C0C07E" offsetX="2" offsetY="2"/>
        </y:ShapeNode>
      </data>
    </node>
    <node id="n6">
      <data key="d4"><![CDATA[Description: Task Types
Data Category: Reference
Group: Activities
Partition: Y]]></data>
      <data key="d5">
        <y:ShapeNode>
          <y:Geometry height="45.0" width="200.0" x="524.0" y="-651.0"/>
          <y:Fill color="#A8C94C" transparent="false"/>
          <y:BorderStyle color="#8AAA17" type="line" width="1.0"/>
          <y:NodeLabel alignment="center" autoSizePolicy="node_width" fontFamily="Gill Sans MT" fontSize="15" fontStyle="plain" hasBackgroundColor="false" hasLineColor="false" height="38.7900390625" horizontalTextPosition="center" iconTextGap="4" modelName="internal" modelPosition="c" textColor="#FFFFFF" verticalTextPosition="bottom" visible="true" width="200.0" x="0.0" y="3.10498046875">TaskTypes
rtte, #ID</y:NodeLabel>
          <y:Shape type="roundrectangle"/>
          <y:DropShadow color="#C0C0C07E" offsetX="2" offsetY="2"/>
        </y:ShapeNode>
      </data>
    </node>
    <node id="n7">
      <data key="d4"><![CDATA[Description: Tasks
Data Category: Transaction
Group: Activities
Partition: Y]]></data>
      <data key="d5">
        <y:ShapeNode>
          <y:Geometry height="145.0" width="200.0" x="232.0" y="-557.0"/>
          <y:Fill color="#DC7600" transparent="false"/>
          <y:BorderStyle color="#D15400" type="line" width="1.0"/>
          <y:NodeLabel alignment="center" autoSizePolicy="node_width" fontFamily="Gill Sans MT" fontSize="15" fontStyle="plain" hasBackgroundColor="false" hasLineColor="false" height="38.7900390625" horizontalTextPosition="center" iconTextGap="4" modelName="internal" modelPosition="c" textColor="#FFFFFF" verticalTextPosition="bottom" visible="true" width="200.0" x="0.0" y="53.10498046875">Tasks
rtsk, #ID</y:NodeLabel>
          <y:Shape type="roundrectangle"/>
          <y:DropShadow color="#C0C0C07E" offsetX="2" offsetY="2"/>
        </y:ShapeNode>
      </data>
    </node>
    <node id="n8">
      <data key="d4"><![CDATA[Description: Events
Data Category: Transaction
Group: Activities
Partition: Y]]></data>
      <data key="d5">
        <y:ShapeNode>
          <y:Geometry height="60.0" width="200.0" x="232.0" y="-999.0"/>
          <y:Fill color="#DC7600" transparent="false"/>
          <y:BorderStyle color="#D15400" type="line" width="1.0"/>
          <y:NodeLabel alignment="center" autoSizePolicy="node_width" fontFamily="Gill Sans MT" fontSize="15" fontStyle="plain" hasBackgroundColor="false" hasLineColor="false" height="56.18505859375" horizontalTextPosition="center" iconTextGap="4" modelName="internal" modelPosition="c" textColor="#FFFFFF" verticalTextPosition="bottom" visible="true" width="200.0" x="0.0" y="1.907470703125">Events
(subtype of Tasks)
revt, #ID</y:NodeLabel>
          <y:Shape type="roundrectangle"/>
          <y:DropShadow color="#C0C0C07E" offsetX="2" offsetY="2"/>
        </y:ShapeNode>
      </data>
    </node>
    <node id="n9">
      <data key="d4"><![CDATA[Description: Complaints
Data Category: Transaction
Group: Activities
Partition: Y]]></data>
      <data key="d5">
        <y:ShapeNode>
          <y:Geometry height="60.0" width="200.0" x="232.0" y="-912.0"/>
          <y:Fill color="#DC7600" transparent="false"/>
          <y:BorderStyle color="#D15400" type="line" width="1.0"/>
          <y:NodeLabel alignment="center" autoSizePolicy="node_width" fontFamily="Gill Sans MT" fontSize="15" fontStyle="plain" hasBackgroundColor="false" hasLineColor="false" height="56.18505859375" horizontalTextPosition="center" iconTextGap="4" modelName="internal" modelPosition="c" textColor="#FFFFFF" verticalTextPosition="bottom" visible="true" width="200.0" x="0.0" y="1.907470703125">Complaints
(subtype of Tasks)
rcpt, #ID</y:NodeLabel>
          <y:Shape type="roundrectangle"/>
          <y:DropShadow color="#C0C0C07E" offsetX="2" offsetY="2"/>
        </y:ShapeNode>
      </data>
    </node>
    <node id="n10">
      <data key="d4"><![CDATA[Description: Request Attachments
Data Category: Transaction
Group: Activities
Partition: Y]]></data>
      <data key="d5">
        <y:ShapeNode>
          <y:Geometry height="100.0" width="200.0" x="232.0" y="-363.0"/>
          <y:Fill color="#DC7600" transparent="false"/>
          <y:BorderStyle color="#D15400" type="line" width="1.0"/>
          <y:NodeLabel alignment="center" autoSizePolicy="node_width" fontFamily="Gill Sans MT" fontSize="15" fontStyle="plain" hasBackgroundColor="false" hasLineColor="false" height="38.7900390625" horizontalTextPosition="center" iconTextGap="4" modelName="internal" modelPosition="c" textColor="#FFFFFF" verticalTextPosition="bottom" visible="true" width="200.0" x="0.0" y="30.60498046875">Activities.RequestAttachments
rrat</y:NodeLabel>
          <y:Shape type="roundrectangle"/>
          <y:DropShadow color="#C0C0C07E" offsetX="2" offsetY="2"/>
        </y:ShapeNode>
      </data>
    </node>
    <node id="n11">
      <data key="d4"><![CDATA[Description: Communication Notes
Data Category: Transaction
Group: Activities
Partition: Y]]></data>
      <data key="d5">
        <y:ShapeNode>
          <y:Geometry height="60.0" width="200.0" x="232.0" y="-738.0"/>
          <y:Fill color="#DC7600" transparent="false"/>
          <y:BorderStyle color="#D15400" type="line" width="1.0"/>
          <y:NodeLabel alignment="center" autoSizePolicy="node_width" fontFamily="Gill Sans MT" fontSize="15" fontStyle="plain" hasBackgroundColor="false" hasLineColor="false" height="56.18505859375" horizontalTextPosition="center" iconTextGap="4" modelName="internal" modelPosition="c" textColor="#FFFFFF" verticalTextPosition="bottom" visible="true" width="200.0" x="0.0" y="1.907470703125">CommunicationNotes
(subtype of Tasks)
rcne, #ID</y:NodeLabel>
          <y:Shape type="roundrectangle"/>
          <y:DropShadow color="#C0C0C07E" offsetX="2" offsetY="2"/>
        </y:ShapeNode>
      </data>
    </node>
    <node id="n12">
      <data key="d4"><![CDATA[Description: Service Requests
Data Category: Transaction
Group: Activities
Partition: Y]]></data>
      <data key="d5">
        <y:ShapeNode>
          <y:Geometry height="60.0" width="200.0" x="232.0" y="-825.0"/>
          <y:Fill color="#DC7600" transparent="false"/>
          <y:BorderStyle color="#D15400" type="line" width="1.0"/>
          <y:NodeLabel alignment="center" autoSizePolicy="node_width" fontFamily="Gill Sans MT" fontSize="15" fontStyle="plain" hasBackgroundColor="false" hasLineColor="false" height="56.18505859375" horizontalTextPosition="center" iconTextGap="4" modelName="internal" modelPosition="c" textColor="#FFFFFF" verticalTextPosition="bottom" visible="true" width="200.0" x="0.0" y="1.907470703125">ServiceRequests
(subtype of Tasks)
rsrt, #ID</y:NodeLabel>
          <y:Shape type="roundrectangle"/>
          <y:DropShadow color="#C0C0C07E" offsetX="2" offsetY="2"/>
        </y:ShapeNode>
      </data>
    </node>
    <node id="n13">
      <data key="d4"><![CDATA[Description: Opportunities
Data Category: Transaction
Group: CRM
Partition: Y]]></data>
      <data key="d5">
        <y:ShapeNode>
          <y:Geometry height="45.0" width="200.0" x="524.0" y="-75.0"/>
          <y:Fill color="#EEEEEE" transparent="false"/>
          <y:BorderStyle color="#444444" type="line" width="1.0"/>
          <y:NodeLabel alignment="center" autoSizePolicy="node_width" fontFamily="Gill Sans MT" fontSize="15" fontStyle="plain" hasBackgroundColor="false" hasLineColor="false" height="38.7900390625" horizontalTextPosition="center" iconTextGap="4" modelName="internal" modelPosition="c" textColor="#000000" verticalTextPosition="bottom" visible="true" width="200.0" x="0.0" y="3.10498046875">Opportunities
CRM: ropy, #ID</y:NodeLabel>
          <y:Shape type="roundrectangle"/>
          <y:DropShadow color="#CCCCCC" offsetX="2" offsetY="2"/>
        </y:ShapeNode>
      </data>
    </node>
    <node id="n14">
      <data key="d4"><![CDATA[Description: Contacts
Data Category: Transaction
Group: Accounts
Partition: Y]]></data>
      <data key="d5">
        <y:ShapeNode>
          <y:Geometry height="45.0" width="200.0" x="524.0" y="-147.0"/>
          <y:Fill color="#EEEEEE" transparent="false"/>
          <y:BorderStyle color="#444444" type="line" width="1.0"/>
          <y:NodeLabel alignment="center" autoSizePolicy="node_width" fontFamily="Gill Sans MT" fontSize="15" fontStyle="plain" hasBackgroundColor="false" hasLineColor="false" height="38.7900390625" horizontalTextPosition="center" iconTextGap="4" modelName="internal" modelPosition="c" textColor="#000000" verticalTextPosition="bottom" visible="true" width="200.0" x="0.0" y="3.10498046875">Contacts
Accounts: rctt, #ID</y:NodeLabel>
          <y:Shape type="roundrectangle"/>
          <y:DropShadow color="#CCCCCC" offsetX="2" offsetY="2"/>
        </y:ShapeNode>
      </data>
    </node>
    <node id="n15">
      <data key="d4"><![CDATA[Description: System Users
Data Category: Reference
Group: System
Partition: Y]]></data>
      <data key="d5">
        <y:ShapeNode>
          <y:Geometry height="45.0" width="200.0" x="524.0" y="-363.0"/>
          <y:Fill color="#EEEEEE" transparent="false"/>
          <y:BorderStyle color="#444444" type="line" width="1.0"/>
          <y:NodeLabel alignment="center" autoSizePolicy="node_width" fontFamily="Gill Sans MT" fontSize="15" fontStyle="plain" hasBackgroundColor="false" hasLineColor="false" height="38.7900390625" horizontalTextPosition="center" iconTextGap="4" modelName="internal" modelPosition="c" textColor="#000000" verticalTextPosition="bottom" visible="true" width="200.0" x="0.0" y="3.10498046875">SystemUsers
System: rsur, #ID</y:NodeLabel>
          <y:Shape type="roundrectangle"/>
          <y:DropShadow color="#CCCCCC" offsetX="2" offsetY="2"/>
        </y:ShapeNode>
      </data>
    </node>
    <node id="n16">
      <data key="d4"><![CDATA[Description: Documents
Data Category: Transaction
Group: Documents
Partition: Y]]></data>
      <data key="d5">
        <y:ShapeNode>
          <y:Geometry height="45.0" width="200.0" x="524.0" y="-435.0"/>
          <y:Fill color="#EEEEEE" transparent="false"/>
          <y:BorderStyle color="#444444" type="line" width="1.0"/>
          <y:NodeLabel alignment="center" autoSizePolicy="node_width" fontFamily="Gill Sans MT" fontSize="15" fontStyle="plain" hasBackgroundColor="false" hasLineColor="false" height="38.7900390625" horizontalTextPosition="center" iconTextGap="4" modelName="internal" modelPosition="c" textColor="#000000" verticalTextPosition="bottom" visible="true" width="200.0" x="0.0" y="3.10498046875">Documents
Documents: rdct, #ID</y:NodeLabel>
          <y:Shape type="roundrectangle"/>
          <y:DropShadow color="#CCCCCC" offsetX="2" offsetY="2"/>
        </y:ShapeNode>
      </data>
    </node>
    <node id="n17">
      <data key="d4"><![CDATA[Description: Projects
Data Category: Transaction
Group: Project
Partition: Y]]></data>
      <data key="d5">
        <y:ShapeNode>
          <y:Geometry height="45.0" width="200.0" x="524.0" y="-507.0"/>
          <y:Fill color="#EEEEEE" transparent="false"/>
          <y:BorderStyle color="#444444" type="line" width="1.0"/>
          <y:NodeLabel alignment="center" autoSizePolicy="node_width" fontFamily="Gill Sans MT" fontSize="15" fontStyle="plain" hasBackgroundColor="false" hasLineColor="false" height="38.7900390625" horizontalTextPosition="center" iconTextGap="4" modelName="internal" modelPosition="c" textColor="#000000" verticalTextPosition="bottom" visible="true" width="200.0" x="0.0" y="3.10498046875">Projects
Project: rpjt, #ID</y:NodeLabel>
          <y:Shape type="roundrectangle"/>
          <y:DropShadow color="#CCCCCC" offsetX="2" offsetY="2"/>
        </y:ShapeNode>
      </data>
    </node>
    <node id="n18">
      <data key="d4"><![CDATA[Description: Accounts
Data Category: Transaction
Group: Accounts
Partition: Y]]></data>
      <data key="d5">
        <y:ShapeNode>
          <y:Geometry height="45.0" width="200.0" x="524.0" y="-579.0"/>
          <y:Fill color="#EEEEEE" transparent="false"/>
          <y:BorderStyle color="#444444" type="line" width="1.0"/>
          <y:NodeLabel alignment="center" autoSizePolicy="node_width" fontFamily="Gill Sans MT" fontSize="15" fontStyle="plain" hasBackgroundColor="false" hasLineColor="false" height="38.7900390625" horizontalTextPosition="center" iconTextGap="4" modelName="internal" modelPosition="c" textColor="#000000" verticalTextPosition="bottom" visible="true" width="200.0" x="0.0" y="3.10498046875">Accounts
Accounts: ract, #ID</y:NodeLabel>
          <y:Shape type="roundrectangle"/>
          <y:DropShadow color="#CCCCCC" offsetX="2" offsetY="2"/>
        </y:ShapeNode>
      </data>
    </node>
    <edge id="e0" source="n7" target="n13">
      <data key="d9">
        <y:PolyLineEdge>
          <y:Path sx="100.0" sy="66.92307692307696" tx="-100.0" ty="-0.0">
            <y:Point x="444.0" y="-417.57692307692304"/>
            <y:Point x="444.0" y="-52.5"/>
          </y:Path>
          <y:LineStyle color="#000000" type="line" width="1.0"/>
          <y:Arrows source="none" target="standard"/>
          <y:BendStyle smoothed="true"/>
        </y:PolyLineEdge>
      </data>
    </edge>
    <edge id="e1" source="n7" target="n14">
      <data key="d9">
        <y:PolyLineEdge>
          <y:Path sx="100.0" sy="55.7692307692308" tx="-100.0" ty="-0.0">
            <y:Point x="454.0" y="-428.73076923076917"/>
            <y:Point x="454.0" y="-124.5"/>
          </y:Path>
          <y:LineStyle color="#000000" type="line" width="1.0"/>
          <y:Arrows source="none" target="standard"/>
          <y:BendStyle smoothed="true"/>
        </y:PolyLineEdge>
      </data>
    </edge>
    <edge id="e2" source="n7" target="n1">
      <data key="d9">
        <y:PolyLineEdge>
          <y:Path sx="100.0" sy="44.61538461538464" tx="-100.0" ty="-0.0">
            <y:Point x="464.0" y="-439.88461538461536"/>
            <y:Point x="464.0" y="-196.5"/>
          </y:Path>
          <y:LineStyle color="#000000" type="line" width="1.0"/>
          <y:Arrows source="none" target="standard"/>
          <y:BendStyle smoothed="true"/>
        </y:PolyLineEdge>
      </data>
    </edge>
    <edge id="e3" source="n7" target="n0">
      <data key="d9">
        <y:PolyLineEdge>
          <y:Path sx="100.0" sy="33.46153846153848" tx="-100.0" ty="-0.0">
            <y:Point x="474.0" y="-451.03846153846155"/>
            <y:Point x="474.0" y="-268.5"/>
          </y:Path>
          <y:LineStyle color="#000000" type="line" width="1.0"/>
          <y:Arrows source="none" target="standard"/>
          <y:BendStyle smoothed="true"/>
        </y:PolyLineEdge>
      </data>
    </edge>
    <edge id="e4" source="n7" target="n15">
      <data key="d9">
        <y:PolyLineEdge>
          <y:Path sx="100.0" sy="22.30769230769232" tx="-100.0" ty="-0.0">
            <y:Point x="484.0" y="-462.1923076923077"/>
            <y:Point x="484.0" y="-340.5"/>
          </y:Path>
          <y:LineStyle color="#000000" type="line" width="1.0"/>
          <y:Arrows source="none" target="standard"/>
          <y:BendStyle smoothed="true"/>
        </y:PolyLineEdge>
      </data>
    </edge>
    <edge id="e5" source="n7" target="n16">
      <data key="d9">
        <y:PolyLineEdge>
          <y:Path sx="100.0" sy="11.15384615384616" tx="-100.0" ty="-0.0">
            <y:Point x="494.0" y="-473.3461538461538"/>
            <y:Point x="494.0" y="-412.5"/>
          </y:Path>
          <y:LineStyle color="#000000" type="line" width="1.0"/>
          <y:Arrows source="none" target="standard"/>
          <y:BendStyle smoothed="true"/>
        </y:PolyLineEdge>
      </data>
    </edge>
    <edge id="e6" source="n7" target="n17">
      <data key="d9">
        <y:PolyLineEdge>
          <y:Path sx="100.0" sy="-0.0" tx="-100.0" ty="-0.0"/>
          <y:LineStyle color="#000000" type="line" width="1.0"/>
          <y:Arrows source="none" target="standard"/>
          <y:BendStyle smoothed="true"/>
        </y:PolyLineEdge>
      </data>
    </edge>
    <edge id="e7" source="n7" target="n18">
      <data key="d9">
        <y:PolyLineEdge>
          <y:Path sx="100.0" sy="-11.15384615384616" tx="-100.0" ty="-0.0">
            <y:Point x="494.0" y="-495.6538461538462"/>
            <y:Point x="494.0" y="-556.5"/>
          </y:Path>
          <y:LineStyle color="#000000" type="line" width="1.0"/>
          <y:Arrows source="none" target="standard"/>
          <y:BendStyle smoothed="true"/>
        </y:PolyLineEdge>
      </data>
    </edge>
    <edge id="e8" source="n7" target="n6">
      <data key="d9">
        <y:PolyLineEdge>
          <y:Path sx="100.0" sy="-22.307692307692314" tx="-100.0" ty="-0.0">
            <y:Point x="484.0" y="-506.8076923076923"/>
            <y:Point x="484.0" y="-628.5"/>
          </y:Path>
          <y:LineStyle color="#000000" type="line" width="1.0"/>
          <y:Arrows source="none" target="standard"/>
          <y:BendStyle smoothed="true"/>
        </y:PolyLineEdge>
      </data>
    </edge>
    <edge id="e9" source="n8" target="n3">
      <data key="d9">
        <y:PolyLineEdge>
          <y:Path sx="100.0" sy="0.0" tx="-100.0" ty="0.0"/>
          <y:LineStyle color="#000000" type="line" width="1.0"/>
          <y:Arrows source="none" target="standard"/>
          <y:BendStyle smoothed="true"/>
        </y:PolyLineEdge>
      </data>
    </edge>
    <edge id="e10" source="n9" target="n4">
      <data key="d9">
        <y:PolyLineEdge>
          <y:Path sx="100.0" sy="0.0" tx="-100.0" ty="0.0"/>
          <y:LineStyle color="#000000" type="line" width="1.0"/>
          <y:Arrows source="none" target="standard"/>
          <y:BendStyle smoothed="true"/>
        </y:PolyLineEdge>
      </data>
    </edge>
    <edge id="e11" source="n10" target="n7">
      <data key="d9">
        <y:PolyLineEdge>
          <y:Path sx="0.0" sy="-50.0" tx="0.0" ty="72.5"/>
          <y:LineStyle color="#000000" type="line" width="1.0"/>
          <y:Arrows source="none" target="standard"/>
          <y:BendStyle smoothed="true"/>
        </y:PolyLineEdge>
      </data>
    </edge>
    <edge id="e12" source="n11" target="n5">
      <data key="d9">
        <y:PolyLineEdge>
          <y:Path sx="100.0" sy="0.0" tx="-100.0" ty="0.0"/>
          <y:LineStyle color="#000000" type="line" width="1.0"/>
          <y:Arrows source="none" target="standard"/>
          <y:BendStyle smoothed="true"/>
        </y:PolyLineEdge>
      </data>
    </edge>
    <edge id="e13" source="n12" target="n2">
      <data key="d9">
        <y:PolyLineEdge>
          <y:Path sx="100.0" sy="0.0" tx="-100.0" ty="0.0"/>
          <y:LineStyle color="#000000" type="line" width="1.0"/>
          <y:Arrows source="none" target="standard"/>
          <y:BendStyle smoothed="true"/>
        </y:PolyLineEdge>
      </data>
    </edge>
    <edge id="e14" source="n7" target="n11">
      <data key="d8"/>
      <data key="d9">
        <y:PolyLineEdge>
          <y:Path sx="0.0" sy="-72.5" tx="0.0" ty="30.0"/>
          <y:LineStyle color="#000000" type="line" width="1.0"/>
          <y:Arrows source="none" target="standard"/>
          <y:BendStyle smoothed="false"/>
        </y:PolyLineEdge>
      </data>
    </edge>
    <edge id="e15" source="n7" target="n12">
      <data key="d8"/>
      <data key="d9">
        <y:PolyLineEdge>
          <y:Path sx="-100.0" sy="-15.0" tx="-100.0" ty="0.0">
            <y:Point x="224.5" y="-499.5"/>
            <y:Point x="224.5" y="-795.0"/>
          </y:Path>
          <y:LineStyle color="#000000" type="line" width="1.0"/>
          <y:Arrows source="none" target="standard"/>
          <y:BendStyle smoothed="false"/>
        </y:PolyLineEdge>
      </data>
    </edge>
    <edge id="e16" source="n7" target="n9">
      <data key="d8"/>
      <data key="d9">
        <y:PolyLineEdge>
          <y:Path sx="-100.0" sy="0.0" tx="-100.0" ty="0.0">
            <y:Point x="209.5" y="-484.5"/>
            <y:Point x="209.5" y="-882.0"/>
          </y:Path>
          <y:LineStyle color="#000000" type="line" width="1.0"/>
          <y:Arrows source="none" target="standard"/>
          <y:BendStyle smoothed="false"/>
        </y:PolyLineEdge>
      </data>
    </edge>
    <edge id="e17" source="n7" target="n8">
      <data key="d8"/>
      <data key="d9">
        <y:PolyLineEdge>
          <y:Path sx="-100.0" sy="15.0" tx="-100.0" ty="0.0">
            <y:Point x="194.5" y="-469.5"/>
            <y:Point x="194.5" y="-969.0"/>
          </y:Path>
          <y:LineStyle color="#000000" type="line" width="1.0"/>
          <y:Arrows source="none" target="standard"/>
          <y:BendStyle smoothed="false"/>
        </y:PolyLineEdge>
      </data>
    </edge>
  </graph>
  <data key="d6">
    <y:Resources/>
  </data>
</graphml>
