<?xml version="1.0" encoding="UTF-8" standalone="no"?>
<graphml xmlns="http://graphml.graphdrawing.org/xmlns" xmlns:java="http://www.yworks.com/xml/yfiles-common/1.0/java" xmlns:sys="http://www.yworks.com/xml/yfiles-common/markup/primitives/2.0" xmlns:x="http://www.yworks.com/xml/yfiles-common/markup/2.0" xmlns:xsi="http://www.w3.org/2001/XMLSchema-instance" xmlns:y="http://www.yworks.com/xml/graphml" xmlns:yed="http://www.yworks.com/xml/yed/3" xsi:schemaLocation="http://graphml.graphdrawing.org/xmlns http://www.yworks.com/xml/schema/graphml/1.1/ygraphml.xsd">
  <!--Created by yEd 3.17.1-->
  <key for="port" id="d0" yfiles.type="portgraphics"/>
  <key for="port" id="d1" yfiles.type="portgeometry"/>
  <key for="port" id="d2" yfiles.type="portuserdata"/>
  <key attr.name="url" attr.type="string" for="node" id="d3"/>
  <key attr.name="description" attr.type="string" for="node" id="d4"/>
  <key for="node" id="d5" yfiles.type="nodegraphics"/>
  <key for="graphml" id="d6" yfiles.type="resources"/>
  <key attr.name="url" attr.type="string" for="edge" id="d7"/>
  <key attr.name="description" attr.type="string" for="edge" id="d8"/>
  <key for="edge" id="d9" yfiles.type="edgegraphics"/>
  <graph edgedefault="directed" id="G">
    <node id="n0">
      <data key="d4"><![CDATA[Description: Budget Scenarios
Data Category: Transaction
Group: Budget
Partition: Y]]></data>
      <data key="d5">
        <y:ShapeNode>
          <y:Geometry height="45.0" width="200.0" x="252.0" y="-291.0"/>
          <y:Fill color="#DC7600" transparent="false"/>
          <y:BorderStyle color="#D15400" type="line" width="1.0"/>
          <y:NodeLabel alignment="center" autoSizePolicy="node_width" fontFamily="Gill Sans MT" fontSize="15" fontStyle="plain" hasBackgroundColor="false" hasLineColor="false" height="38.7900390625" horizontalTextPosition="center" iconTextGap="4" modelName="internal" modelPosition="c" textColor="#FFFFFF" verticalTextPosition="bottom" visible="true" width="200.0" x="0.0" y="3.10498046875">BudgetScenarios
rbso, #ID</y:NodeLabel>
          <y:Shape type="roundrectangle"/>
          <y:DropShadow color="#C0C0C07E" offsetX="2" offsetY="2"/>
        </y:ShapeNode>
      </data>
    </node>
    <node id="n1">
      <data key="d4"><![CDATA[Description: Budgets
Data Category: Transaction
Group: Budget
Partition: Y]]></data>
      <data key="d5">
        <y:ShapeNode>
          <y:Geometry height="100.0" width="200.0" x="0.0" y="-246.5"/>
          <y:Fill color="#DC7600" transparent="false"/>
          <y:BorderStyle color="#D15400" type="line" width="1.0"/>
          <y:NodeLabel alignment="center" autoSizePolicy="node_width" fontFamily="Gill Sans MT" fontSize="15" fontStyle="plain" hasBackgroundColor="false" hasLineColor="false" height="38.7900390625" horizontalTextPosition="center" iconTextGap="4" modelName="internal" modelPosition="c" textColor="#FFFFFF" verticalTextPosition="bottom" visible="true" width="200.0" x="0.0" y="30.60498046875">Budgets
rbgt</y:NodeLabel>
          <y:Shape type="roundrectangle"/>
          <y:DropShadow color="#C0C0C07E" offsetX="2" offsetY="2"/>
        </y:ShapeNode>
      </data>
    </node>
    <node id="n2">
      <data key="d4"><![CDATA[Description: Cost Centers
Data Category: Reference
Group: Payroll
Partition: Y]]></data>
      <data key="d5">
        <y:ShapeNode>
          <y:Geometry height="45.0" width="200.0" x="252.0" y="-75.0"/>
          <y:Fill color="#EEEEEE" transparent="false"/>
          <y:BorderStyle color="#444444" type="line" width="1.0"/>
          <y:NodeLabel alignment="center" autoSizePolicy="node_width" fontFamily="Gill Sans MT" fontSize="15" fontStyle="plain" hasBackgroundColor="false" hasLineColor="false" height="38.7900390625" horizontalTextPosition="center" iconTextGap="4" modelName="internal" modelPosition="c" textColor="#000000" verticalTextPosition="bottom" visible="true" width="200.0" x="0.0" y="3.10498046875">Costcenters
Payroll: rccr, #Code</y:NodeLabel>
          <y:Shape type="roundrectangle"/>
          <y:DropShadow color="#CCCCCC" offsetX="2" offsetY="2"/>
        </y:ShapeNode>
      </data>
    </node>
    <node id="n3">
      <data key="d4"><![CDATA[Description: Cost Units
Data Category: Reference
Group: Payroll
Partition: Y]]></data>
      <data key="d5">
        <y:ShapeNode>
          <y:Geometry height="45.0" width="200.0" x="252.0" y="-147.0"/>
          <y:Fill color="#EEEEEE" transparent="false"/>
          <y:BorderStyle color="#444444" type="line" width="1.0"/>
          <y:NodeLabel alignment="center" autoSizePolicy="node_width" fontFamily="Gill Sans MT" fontSize="15" fontStyle="plain" hasBackgroundColor="false" hasLineColor="false" height="38.7900390625" horizontalTextPosition="center" iconTextGap="4" modelName="internal" modelPosition="c" textColor="#000000" verticalTextPosition="bottom" visible="true" width="200.0" x="0.0" y="3.10498046875">Costunits
Payroll: rcut, #Code</y:NodeLabel>
          <y:Shape type="roundrectangle"/>
          <y:DropShadow color="#CCCCCC" offsetX="2" offsetY="2"/>
        </y:ShapeNode>
      </data>
    </node>
    <node id="n4">
      <data key="d4"><![CDATA[Description: Item
Data Category: Transaction
Group: Logistics
Partition: Y]]></data>
      <data key="d5">
        <y:ShapeNode>
          <y:Geometry height="45.0" width="200.0" x="252.0" y="-219.0"/>
          <y:Fill color="#EEEEEE" transparent="false"/>
          <y:BorderStyle color="#444444" type="line" width="1.0"/>
          <y:NodeLabel alignment="center" autoSizePolicy="node_width" fontFamily="Gill Sans MT" fontSize="15" fontStyle="plain" hasBackgroundColor="false" hasLineColor="false" height="38.7900390625" horizontalTextPosition="center" iconTextGap="4" modelName="internal" modelPosition="c" textColor="#000000" verticalTextPosition="bottom" visible="true" width="200.0" x="0.0" y="3.10498046875">Items
Logistics: ritm, #ID</y:NodeLabel>
          <y:Shape type="roundrectangle"/>
          <y:DropShadow color="#CCCCCC" offsetX="2" offsetY="2"/>
        </y:ShapeNode>
      </data>
    </node>
    <node id="n5">
      <data key="d4"><![CDATA[Description: General Ledger Accounts
Data Category: Reference
Group: Financial
Partition: Y]]></data>
      <data key="d5">
        <y:ShapeNode>
          <y:Geometry height="45.0" width="200.0" x="252.0" y="-363.0"/>
          <y:Fill color="#EEEEEE" transparent="false"/>
          <y:BorderStyle color="#444444" type="line" width="1.0"/>
          <y:NodeLabel alignment="center" autoSizePolicy="node_width" fontFamily="Gill Sans MT" fontSize="15" fontStyle="plain" hasBackgroundColor="false" hasLineColor="false" height="38.7900390625" horizontalTextPosition="center" iconTextGap="4" modelName="internal" modelPosition="c" textColor="#000000" verticalTextPosition="bottom" visible="true" width="200.0" x="0.0" y="3.10498046875">GLAccounts
Financial: rgat, #ID</y:NodeLabel>
          <y:Shape type="roundrectangle"/>
          <y:DropShadow color="#CCCCCC" offsetX="2" offsetY="2"/>
        </y:ShapeNode>
      </data>
    </node>
    <edge id="e0" source="n1" target="n2">
      <data key="d9">
        <y:PolyLineEdge>
          <y:Path sx="100.0" sy="40.0" tx="-100.0" ty="-0.0">
            <y:Point x="212.0" y="-156.5"/>
            <y:Point x="212.0" y="-52.5"/>
          </y:Path>
          <y:LineStyle color="#000000" type="line" width="1.0"/>
          <y:Arrows source="none" target="standard"/>
          <y:BendStyle smoothed="true"/>
        </y:PolyLineEdge>
      </data>
    </edge>
    <edge id="e1" source="n1" target="n3">
      <data key="d9">
        <y:PolyLineEdge>
          <y:Path sx="100.0" sy="20.0" tx="-100.0" ty="-0.0">
            <y:Point x="222.0" y="-176.5"/>
            <y:Point x="222.0" y="-124.5"/>
          </y:Path>
          <y:LineStyle color="#000000" type="line" width="1.0"/>
          <y:Arrows source="none" target="standard"/>
          <y:BendStyle smoothed="true"/>
        </y:PolyLineEdge>
      </data>
    </edge>
    <edge id="e2" source="n1" target="n4">
      <data key="d9">
        <y:PolyLineEdge>
          <y:Path sx="100.0" sy="-0.0" tx="-100.0" ty="-0.0"/>
          <y:LineStyle color="#000000" type="line" width="1.0"/>
          <y:Arrows source="none" target="standard"/>
          <y:BendStyle smoothed="true"/>
        </y:PolyLineEdge>
      </data>
    </edge>
    <edge id="e3" source="n1" target="n0">
      <data key="d9">
        <y:PolyLineEdge>
          <y:Path sx="100.0" sy="-20.0" tx="-100.0" ty="-0.0">
            <y:Point x="222.0" y="-216.5"/>
            <y:Point x="222.0" y="-268.5"/>
          </y:Path>
          <y:LineStyle color="#000000" type="line" width="1.0"/>
          <y:Arrows source="none" target="standard"/>
          <y:BendStyle smoothed="true"/>
        </y:PolyLineEdge>
      </data>
    </edge>
    <edge id="e4" source="n1" target="n5">
      <data key="d9">
        <y:PolyLineEdge>
          <y:Path sx="100.0" sy="-40.0" tx="-100.0" ty="-0.0">
            <y:Point x="212.0" y="-236.5"/>
            <y:Point x="212.0" y="-340.5"/>
          </y:Path>
          <y:LineStyle color="#000000" type="line" width="1.0"/>
          <y:Arrows source="none" target="standard"/>
          <y:BendStyle smoothed="true"/>
        </y:PolyLineEdge>
      </data>
    </edge>
  </graph>
  <data key="d6">
    <y:Resources/>
  </data>
</graphml>
