<?xml version="1.0" encoding="UTF-8"?><svg xmlns="http://www.w3.org/2000/svg" xmlns:xlink="http://www.w3.org/1999/xlink" fill-opacity="1" color-rendering="auto" color-interpolation="auto" text-rendering="auto" stroke="black" stroke-linecap="square" width="1050" stroke-miterlimit="10" shape-rendering="auto" stroke-opacity="1" fill="black" stroke-dasharray="none" font-weight="normal" stroke-width="1" height="443" font-family="'Dialog'" font-style="normal" stroke-linejoin="miter" font-size="12px" stroke-dashoffset="0" image-rendering="auto">
  <!--Generated by ySVG 2.5-->
  <defs id="genericDefs"/>
  <g>
    <defs id="defs1">
      <clipPath clipPathUnits="userSpaceOnUse" id="clipPath1">
        <path d="M0 0 L1050 0 L1050 443 L0 443 L0 0 Z"/>
      </clipPath>
      <clipPath clipPathUnits="userSpaceOnUse" id="clipPath2">
        <path d="M-15 -456 L1035 -456 L1035 -13 L-15 -13 L-15 -456 Z"/>
      </clipPath>
      <clipPath clipPathUnits="userSpaceOnUse" id="clipPath3">
        <path d="M0 0 L0 66 L141 66 L141 0 Z"/>
      </clipPath>
      <clipPath clipPathUnits="userSpaceOnUse" id="clipPath4">
        <path d="M0 0 L0 66 L150 66 L150 0 Z"/>
      </clipPath>
      <clipPath clipPathUnits="userSpaceOnUse" id="clipPath5">
        <path d="M0 0 L0 66 L215 66 L215 0 Z"/>
      </clipPath>
      <clipPath clipPathUnits="userSpaceOnUse" id="clipPath6">
        <path d="M0 0 L0 66 L161 66 L161 0 Z"/>
      </clipPath>
      <clipPath clipPathUnits="userSpaceOnUse" id="clipPath7">
        <path d="M0 0 L0 66 L187 66 L187 0 Z"/>
      </clipPath>
      <script type="text/ecmascript"><![CDATA[      var SVGDocument = null;
      var SVGRoot = null;
      var TrueCoords = null;
      var lastElement = null;
      var initialized = null;
      var tipGroup;
      function Init(evt)
      {
         SVGDocument = evt.target.ownerDocument;
         SVGRoot = SVGDocument.documentElement;
         TrueCoords = SVGRoot.createSVGPoint();
         initialized = evt;
      };
      function GetTrueCoords(evt)
      {
         var newScale = SVGRoot.currentScale;
         var translation = SVGRoot.currentTranslate;
         TrueCoords.x = (evt.clientX - translation.x)/newScale;
         TrueCoords.y = (evt.clientY - translation.y)/newScale;
      };
      function HideTooltip( evt )
      {
         if(initialized == null) {
           Init(evt);
         }
         if(tipGroup != null) {
           tipGroup.setAttributeNS(null, 'visibility', 'hidden');
         }
      };
      function ShowTooltip( evt )
      {
         if(initialized == null) {
           Init(evt);
         }
         GetTrueCoords( evt );
         var tipScale = 1/SVGRoot.currentScale;
         var targetElement = evt.currentTarget;
         if ( lastElement != targetElement )
         {
            var targetId = targetElement.getAttributeNS(null, 'id');
            var tipId = 'tooltip.' + targetId;
            tipGroup = SVGDocument.getElementById(tipId);
            var xPos = TrueCoords.x + (10 * tipScale);
            var yPos = TrueCoords.y + (10 * tipScale);
            tipGroup.setAttributeNS(null, 'transform', 'translate(' + xPos + ',' + yPos + ') scale(' + tipScale + ')');
            tipGroup.setAttributeNS(null, 'visibility', 'visible');
         }
      };
]]></script>
    </defs>
    <g fill="white" text-rendering="geometricPrecision" shape-rendering="geometricPrecision" transform="translate(15,456)" stroke="white">
      <rect x="-15" width="1050" height="443" y="-456" clip-path="url(#clipPath2)" stroke="none"/>
    </g>
    <g onmouseout="HideTooltip(evt)" id="y.node.0" onmousemove="ShowTooltip(evt)">
      <g transform="matrix(1,0,0,1,15,456) translate(2,2)" fill-opacity="0.4941" fill="rgb(192,192,192)" text-rendering="geometricPrecision" shape-rendering="geometricPrecision" stroke="rgb(192,192,192)" stroke-opacity="0.4941">
        <rect x="540" y="-75" width="200" rx="4" ry="4" height="45" stroke="none"/>
      </g>
      <g fill="rgb(168,201,76)" text-rendering="geometricPrecision" shape-rendering="geometricPrecision" transform="matrix(1,0,0,1,15,456)" stroke="rgb(168,201,76)">
        <rect x="540" y="-75" width="200" rx="4" ry="4" height="45" stroke="none"/>
      </g>
      <g>
        <g stroke-linecap="butt" font-size="15px" transform="matrix(1,0,0,1,15,456)" fill="white" text-rendering="geometricPrecision" font-family="'Gill Sans MT'" shape-rendering="geometricPrecision" stroke="white" stroke-miterlimit="1.45">
          <text x="605.6311" xml:space="preserve" y="-55.957" stroke="none">HourTypes</text>
          <text x="599.6362" xml:space="preserve" y="-38.562" stroke="none">rhte, #ItemId</text>
        </g>
      </g>
      <g stroke-linecap="butt" transform="matrix(1,0,0,1,15,456)" fill="rgb(138,170,23)" text-rendering="geometricPrecision" shape-rendering="geometricPrecision" stroke="rgb(138,170,23)" stroke-miterlimit="1.45">
        <rect x="540" y="-75" fill="none" width="200" rx="4" ry="4" height="45"/>
      </g>
    </g>
    <g onmouseout="HideTooltip(evt)" id="y.node.1" onmousemove="ShowTooltip(evt)">
      <g transform="matrix(1,0,0,1,15,456) translate(2,2)" fill-opacity="0.4941" fill="rgb(192,192,192)" text-rendering="geometricPrecision" shape-rendering="geometricPrecision" stroke="rgb(192,192,192)" stroke-opacity="0.4941">
        <rect x="540" y="-247" width="200" rx="4" ry="4" height="45" stroke="none"/>
      </g>
      <g fill="rgb(220,118,0)" text-rendering="geometricPrecision" shape-rendering="geometricPrecision" transform="matrix(1,0,0,1,15,456)" stroke="rgb(220,118,0)">
        <rect x="540" y="-247" width="200" rx="4" ry="4" height="45" stroke="none"/>
      </g>
      <g>
        <g stroke-linecap="butt" font-size="15px" transform="matrix(1,0,0,1,15,456)" fill="white" text-rendering="geometricPrecision" font-family="'Gill Sans MT'" shape-rendering="geometricPrecision" stroke="white" stroke-miterlimit="1.45">
          <text x="602.5769" xml:space="preserve" y="-227.957" stroke="none">ProjectWBS</text>
          <text x="609.3921" xml:space="preserve" y="-210.562" stroke="none">rwbs, #ID</text>
        </g>
      </g>
      <g stroke-linecap="butt" transform="matrix(1,0,0,1,15,456)" fill="rgb(209,84,0)" text-rendering="geometricPrecision" shape-rendering="geometricPrecision" stroke="rgb(209,84,0)" stroke-miterlimit="1.45">
        <rect x="540" y="-247" fill="none" width="200" rx="4" ry="4" height="45"/>
      </g>
    </g>
    <g onmouseout="HideTooltip(evt)" id="y.node.2" onmousemove="ShowTooltip(evt)">
      <g transform="matrix(1,0,0,1,15,456) translate(2,2)" fill-opacity="0.4941" fill="rgb(192,192,192)" text-rendering="geometricPrecision" shape-rendering="geometricPrecision" stroke="rgb(192,192,192)" stroke-opacity="0.4941">
        <rect x="818" y="-288.875" width="200" rx="4" ry="4" height="45" stroke="none"/>
      </g>
      <g fill="rgb(220,118,0)" text-rendering="geometricPrecision" shape-rendering="geometricPrecision" transform="matrix(1,0,0,1,15,456)" stroke="rgb(220,118,0)">
        <rect x="818" y="-288.875" width="200" rx="4" ry="4" height="45" stroke="none"/>
      </g>
      <g>
        <g stroke-linecap="butt" font-size="15px" transform="matrix(1,0,0,1,15,456)" fill="white" text-rendering="geometricPrecision" font-family="'Gill Sans MT'" shape-rendering="geometricPrecision" stroke="white" stroke-miterlimit="1.45">
          <text x="893.1636" xml:space="preserve" y="-269.832" stroke="none">Projects</text>
          <text x="891.5303" xml:space="preserve" y="-252.437" stroke="none">rpjt, #ID</text>
        </g>
      </g>
      <g stroke-linecap="butt" transform="matrix(1,0,0,1,15,456)" fill="rgb(209,84,0)" text-rendering="geometricPrecision" shape-rendering="geometricPrecision" stroke="rgb(209,84,0)" stroke-miterlimit="1.45">
        <rect x="818" y="-288.875" fill="none" width="200" rx="4" ry="4" height="45"/>
      </g>
    </g>
    <g onmouseout="HideTooltip(evt)" id="y.node.3" onmousemove="ShowTooltip(evt)">
      <g transform="matrix(1,0,0,1,15,456) translate(2,2)" fill-opacity="0.4941" fill="rgb(192,192,192)" text-rendering="geometricPrecision" shape-rendering="geometricPrecision" stroke="rgb(192,192,192)" stroke-opacity="0.4941">
        <rect x="262" y="-322" width="200" rx="4" ry="4" height="100" stroke="none"/>
      </g>
      <g fill="rgb(220,118,0)" text-rendering="geometricPrecision" shape-rendering="geometricPrecision" transform="matrix(1,0,0,1,15,456)" stroke="rgb(220,118,0)">
        <rect x="262" y="-322" width="200" rx="4" ry="4" height="100" stroke="none"/>
      </g>
      <g>
        <g stroke-linecap="butt" font-size="15px" transform="matrix(1,0,0,1,15,456)" fill="white" text-rendering="geometricPrecision" font-family="'Gill Sans MT'" shape-rendering="geometricPrecision" stroke="white" stroke-miterlimit="1.45">
          <text x="285.5938" xml:space="preserve" y="-275.457" stroke="none">ProjectPlanningRecurring</text>
          <text x="332.1721" xml:space="preserve" y="-258.062" stroke="none">rpph, #ID</text>
        </g>
      </g>
      <g stroke-linecap="butt" transform="matrix(1,0,0,1,15,456)" fill="rgb(209,84,0)" text-rendering="geometricPrecision" shape-rendering="geometricPrecision" stroke="rgb(209,84,0)" stroke-miterlimit="1.45">
        <rect x="262" y="-322" fill="none" width="200" rx="4" ry="4" height="100"/>
      </g>
    </g>
    <g onmouseout="HideTooltip(evt)" id="y.node.4" onmousemove="ShowTooltip(evt)">
      <g transform="matrix(1,0,0,1,15,456) translate(2,2)" fill-opacity="0.4941" fill="rgb(192,192,192)" text-rendering="geometricPrecision" shape-rendering="geometricPrecision" stroke="rgb(192,192,192)" stroke-opacity="0.4941">
        <rect x="0" y="-330.3333" width="200" rx="4" ry="4" height="100" stroke="none"/>
      </g>
      <g fill="rgb(220,118,0)" text-rendering="geometricPrecision" shape-rendering="geometricPrecision" transform="matrix(1,0,0,1,15,456)" stroke="rgb(220,118,0)">
        <rect x="0" y="-330.3333" width="200" rx="4" ry="4" height="100" stroke="none"/>
      </g>
      <g>
        <g stroke-linecap="butt" font-size="15px" transform="matrix(1,0,0,1,15,456)" fill="white" text-rendering="geometricPrecision" font-family="'Gill Sans MT'" shape-rendering="geometricPrecision" stroke="white" stroke-miterlimit="1.45">
          <text x="53.2861" xml:space="preserve" y="-283.7904" stroke="none">ProjectPlanning</text>
          <text x="86.3293" xml:space="preserve" y="-266.3954" stroke="none">rppg</text>
        </g>
      </g>
      <g stroke-linecap="butt" transform="matrix(1,0,0,1,15,456)" fill="rgb(209,84,0)" text-rendering="geometricPrecision" shape-rendering="geometricPrecision" stroke="rgb(209,84,0)" stroke-miterlimit="1.45">
        <rect x="0" y="-330.3333" fill="none" width="200" rx="4" ry="4" height="100"/>
      </g>
    </g>
    <g onmouseout="HideTooltip(evt)" id="y.node.5" onmousemove="ShowTooltip(evt)">
      <g transform="matrix(1,0,0,1,15,456) translate(2,2)" fill-opacity="0.4941" fill="rgb(192,192,192)" text-rendering="geometricPrecision" shape-rendering="geometricPrecision" stroke="rgb(192,192,192)" stroke-opacity="0.4941">
        <rect x="540" y="-147" width="200" rx="4" ry="4" height="45" stroke="none"/>
      </g>
      <g fill="rgb(220,118,0)" text-rendering="geometricPrecision" shape-rendering="geometricPrecision" transform="matrix(1,0,0,1,15,456)" stroke="rgb(220,118,0)">
        <rect x="540" y="-147" width="200" rx="4" ry="4" height="45" stroke="none"/>
      </g>
      <g>
        <g stroke-linecap="butt" font-size="15px" transform="matrix(1,0,0,1,15,456)" fill="white" text-rendering="geometricPrecision" font-family="'Gill Sans MT'" shape-rendering="geometricPrecision" stroke="white" stroke-miterlimit="1.45">
          <text x="577.7515" xml:space="preserve" y="-127.957" stroke="none">ProjectHourBudgets</text>
          <text x="627.0325" xml:space="preserve" y="-110.562" stroke="none">rpht</text>
        </g>
      </g>
      <g stroke-linecap="butt" transform="matrix(1,0,0,1,15,456)" fill="rgb(209,84,0)" text-rendering="geometricPrecision" shape-rendering="geometricPrecision" stroke="rgb(209,84,0)" stroke-miterlimit="1.45">
        <rect x="540" y="-147" fill="none" width="200" rx="4" ry="4" height="45"/>
      </g>
    </g>
    <g onmouseout="HideTooltip(evt)" id="y.node.6" onmousemove="ShowTooltip(evt)">
      <g fill="rgb(204,204,204)" text-rendering="geometricPrecision" shape-rendering="geometricPrecision" transform="matrix(1,0,0,1,15,456) translate(2,2)" stroke="rgb(204,204,204)">
        <rect x="818" y="-135.75" width="200" rx="4" ry="4" height="45" stroke="none"/>
      </g>
      <g fill="rgb(238,238,238)" text-rendering="geometricPrecision" shape-rendering="geometricPrecision" transform="matrix(1,0,0,1,15,456)" stroke="rgb(238,238,238)">
        <rect x="818" y="-135.75" width="200" rx="4" ry="4" height="45" stroke="none"/>
      </g>
      <g>
        <g font-size="15px" stroke-linecap="butt" transform="matrix(1,0,0,1,15,456)" text-rendering="geometricPrecision" font-family="'Gill Sans MT'" shape-rendering="geometricPrecision" stroke-miterlimit="1.45">
          <text x="901.3667" xml:space="preserve" y="-116.707" stroke="none">Items</text>
          <text x="859.9116" xml:space="preserve" y="-99.312" stroke="none">Logistics: ritm, #ID</text>
        </g>
      </g>
      <g stroke-linecap="butt" transform="matrix(1,0,0,1,15,456)" fill="rgb(68,68,68)" text-rendering="geometricPrecision" shape-rendering="geometricPrecision" stroke="rgb(68,68,68)" stroke-miterlimit="1.45">
        <rect x="818" y="-135.75" fill="none" width="200" rx="4" ry="4" height="45"/>
      </g>
    </g>
    <g onmouseout="HideTooltip(evt)" id="y.node.7" onmousemove="ShowTooltip(evt)">
      <g fill="rgb(204,204,204)" text-rendering="geometricPrecision" shape-rendering="geometricPrecision" transform="matrix(1,0,0,1,15,456) translate(2,2)" stroke="rgb(204,204,204)">
        <rect x="540" y="-416" width="200" rx="4" ry="4" height="45" stroke="none"/>
      </g>
      <g fill="rgb(238,238,238)" text-rendering="geometricPrecision" shape-rendering="geometricPrecision" transform="matrix(1,0,0,1,15,456)" stroke="rgb(238,238,238)">
        <rect x="540" y="-416" width="200" rx="4" ry="4" height="45" stroke="none"/>
      </g>
      <g>
        <g font-size="15px" stroke-linecap="butt" transform="matrix(1,0,0,1,15,456)" text-rendering="geometricPrecision" font-family="'Gill Sans MT'" shape-rendering="geometricPrecision" stroke-miterlimit="1.45">
          <text x="611.4062" xml:space="preserve" y="-396.957" stroke="none">Accounts</text>
          <text x="580.1172" xml:space="preserve" y="-379.562" stroke="none">Accounts: ract, #ID</text>
        </g>
      </g>
      <g stroke-linecap="butt" transform="matrix(1,0,0,1,15,456)" fill="rgb(68,68,68)" text-rendering="geometricPrecision" shape-rendering="geometricPrecision" stroke="rgb(68,68,68)" stroke-miterlimit="1.45">
        <rect x="540" y="-416" fill="none" width="200" rx="4" ry="4" height="45"/>
      </g>
    </g>
    <g onmouseout="HideTooltip(evt)" id="y.node.8" onmousemove="ShowTooltip(evt)">
      <g fill="rgb(204,204,204)" text-rendering="geometricPrecision" shape-rendering="geometricPrecision" transform="matrix(1,0,0,1,15,456) translate(2,2)" stroke="rgb(204,204,204)">
        <rect x="540" y="-344" width="200" rx="4" ry="4" height="45" stroke="none"/>
      </g>
      <g fill="rgb(238,238,238)" text-rendering="geometricPrecision" shape-rendering="geometricPrecision" transform="matrix(1,0,0,1,15,456)" stroke="rgb(238,238,238)">
        <rect x="540" y="-344" width="200" rx="4" ry="4" height="45" stroke="none"/>
      </g>
      <g>
        <g font-size="15px" stroke-linecap="butt" transform="matrix(1,0,0,1,15,456)" text-rendering="geometricPrecision" font-family="'Gill Sans MT'" shape-rendering="geometricPrecision" stroke-miterlimit="1.45">
          <text x="607.5793" xml:space="preserve" y="-324.957" stroke="none">Employees</text>
          <text x="586.5186" xml:space="preserve" y="-307.562" stroke="none">Payroll: reye, #ID</text>
        </g>
      </g>
      <g stroke-linecap="butt" transform="matrix(1,0,0,1,15,456)" fill="rgb(68,68,68)" text-rendering="geometricPrecision" shape-rendering="geometricPrecision" stroke="rgb(68,68,68)" stroke-miterlimit="1.45">
        <rect x="540" y="-344" fill="none" width="200" rx="4" ry="4" height="45"/>
      </g>
    </g>
    <g id="y.edge.1">
      <g text-rendering="geometricPrecision" stroke-miterlimit="1.45" shape-rendering="geometricPrecision" transform="matrix(1,0,0,1,15,456)" stroke-linecap="butt">
        <path fill="none" d="M740 -209.5 L757.5 -209.5 L761.875 -208.875 L765 -207 L766.875 -203.875 L767.5 -199.5 L767.5 -184.5 L766.875 -180.125 L765 -177 L761.875 -175.125 L757.5 -174.5 L524.5 -174.5 L520.125 -175.125 L517 -177 L515.125 -180.125 L514.5 -184.5 L514.5 -199.5 L515.0453 -203.875 L516.6813 -207 L519.4078 -208.875 L523.2251 -209.5 L531.9502 -209.5"/>
        <path d="M539.9502 -209.5 L527.9502 -214.5 L530.9502 -209.5 L527.9502 -204.5 Z" stroke="none"/>
      </g>
      <g>
        <g stroke-linecap="butt" transform="matrix(1,0,0,1,15,456)" fill="rgb(218,231,247)" text-rendering="geometricPrecision" shape-rendering="geometricPrecision" stroke="rgb(218,231,247)" stroke-miterlimit="1.45">
          <rect x="627.0996" width="27.8008" height="14.437" y="-190.937" stroke="none"/>
        </g>
        <g fill="rgb(91,171,224)" text-rendering="geometricPrecision" stroke-miterlimit="1.6" shape-rendering="geometricPrecision" transform="matrix(1,0,0,1,15,456)" stroke="rgb(91,171,224)">
          <rect fill="none" x="627.0996" width="27.8008" height="14.437" y="-190.937"/>
        </g>
        <g font-size="9px" stroke-linecap="butt" transform="matrix(1,0,0,1,15,456)" text-rendering="geometricPrecision" font-family="'Gill Sans MT'" shape-rendering="geometricPrecision" stroke-miterlimit="1.45">
          <text x="629.0996" xml:space="preserve" y="-180.5742" stroke="none">Parent</text>
        </g>
      </g>
    </g>
    <g id="y.edge.2">
      <g text-rendering="geometricPrecision" stroke-miterlimit="1.45" shape-rendering="geometricPrecision" transform="matrix(1,0,0,1,15,456)" stroke-linecap="butt">
        <path fill="none" d="M740 -239.5 L746 -239.5 L748.625 -240.125 L750.5 -242 L752 -249.5 L752 -250.75 L752.625 -255.125 L754.5 -258.25 L757.625 -260.125 L762 -260.75 L809.9678 -260.75"/>
        <path d="M817.9678 -260.75 L805.9678 -265.75 L808.9678 -260.75 L805.9678 -255.75 Z" stroke="none"/>
      </g>
    </g>
    <g id="y.edge.4">
      <g text-rendering="geometricPrecision" stroke-miterlimit="1.45" shape-rendering="geometricPrecision" transform="matrix(1,0,0,1,15,456)" stroke-linecap="butt">
        <path fill="none" d="M462 -272 L809.9565 -272"/>
        <path d="M817.9565 -272 L805.9565 -277 L808.9565 -272 L805.9565 -267 Z" stroke="none"/>
      </g>
    </g>
    <g id="y.edge.6">
      <g text-rendering="geometricPrecision" stroke-miterlimit="1.45" shape-rendering="geometricPrecision" transform="matrix(1,0,0,1,15,456)" stroke-linecap="butt">
        <path fill="none" d="M462 -252 L474 -252 L478.375 -251.6094 L481.5 -250.4375 L483.375 -248.4844 L484 -245.75 L484 -245.75 L484.625 -243.0156 L486.5 -241.0625 L489.625 -239.8906 L494 -239.5 L531.9727 -239.5"/>
        <path d="M539.9727 -239.5 L527.9727 -244.5 L530.9727 -239.5 L527.9727 -234.5 Z" stroke="none"/>
      </g>
    </g>
    <g id="y.edge.7">
      <g text-rendering="geometricPrecision" stroke-miterlimit="1.45" shape-rendering="geometricPrecision" transform="matrix(1,0,0,1,15,456)" stroke-linecap="butt">
        <path fill="none" d="M462 -232 L468 -232 L470.625 -231.375 L472.5 -229.5 L474 -222 L474 -73.75 L474.625 -69.375 L476.5 -66.25 L479.625 -64.375 L484 -63.75 L531.9678 -63.75"/>
        <path d="M539.9678 -63.75 L527.9678 -68.75 L530.9678 -63.75 L527.9678 -58.75 Z" stroke="none"/>
      </g>
    </g>
    <g id="y.edge.9">
      <g text-rendering="geometricPrecision" stroke-miterlimit="1.45" shape-rendering="geometricPrecision" transform="matrix(1,0,0,1,15,456)" stroke-linecap="butt">
        <path fill="none" d="M200 -272 L253.9697 -272"/>
        <path d="M261.9697 -272 L249.9697 -277 L252.9697 -272 L249.9697 -267 Z" stroke="none"/>
      </g>
    </g>
    <g id="y.edge.10">
      <g text-rendering="geometricPrecision" stroke-miterlimit="1.45" shape-rendering="geometricPrecision" transform="matrix(1,0,0,1,15,456)" stroke-linecap="butt">
        <path fill="none" d="M200 -322 L206 -322 L208.625 -322.625 L210.5 -324.5 L212 -332 L212 -431 L212.625 -435.375 L214.5 -438.5 L217.625 -440.375 L222 -441 L742 -441 L746.375 -440.375 L749.5 -438.5 L751.375 -435.375 L752 -431 L752 -293.25 L752.625 -288.875 L754.5 -285.75 L757.625 -283.875 L762 -283.25 L809.9678 -283.25"/>
        <path d="M817.9678 -283.25 L805.9678 -288.25 L808.9678 -283.25 L805.9678 -278.25 Z" stroke="none"/>
      </g>
    </g>
    <g id="y.edge.12">
      <g text-rendering="geometricPrecision" stroke-miterlimit="1.45" shape-rendering="geometricPrecision" transform="matrix(1,0,0,1,15,456)" stroke-linecap="butt">
        <path fill="none" d="M200 -255.3333 L212 -255.3333 L216.375 -254.7083 L219.5 -252.8333 L221.375 -249.7083 L222 -245.3333 L222 -205 L222.625 -200.625 L224.5 -197.5 L227.625 -195.625 L232 -195 L474 -195 L478.375 -195.625 L481.5 -197.5 L483.375 -200.625 L484 -205 L484 -214.5 L484.625 -218.875 L486.5 -222 L489.625 -223.875 L494 -224.5 L531.9727 -224.5"/>
        <path d="M539.9727 -224.5 L527.9727 -229.5 L530.9727 -224.5 L527.9727 -219.5 Z" stroke="none"/>
      </g>
    </g>
    <g id="y.edge.13">
      <g text-rendering="geometricPrecision" stroke-miterlimit="1.45" shape-rendering="geometricPrecision" transform="matrix(1,0,0,1,15,456)" stroke-linecap="butt">
        <path fill="none" d="M200 -238.6667 L206 -238.6667 L208.625 -238.0417 L210.5 -236.1667 L212 -228.6667 L212 -51.25 L212.625 -46.875 L214.5 -43.75 L217.625 -41.875 L222 -41.25 L531.96 -41.25"/>
        <path d="M539.96 -41.25 L527.96 -46.25 L530.96 -41.25 L527.96 -36.25 Z" stroke="none"/>
      </g>
    </g>
    <g id="y.edge.14">
      <g text-rendering="geometricPrecision" stroke-miterlimit="1.45" shape-rendering="geometricPrecision" transform="matrix(1,0,0,1,15,456)" stroke-linecap="butt">
        <path fill="none" d="M740 -135.75 L768 -135.75 L772.375 -136.375 L775.5 -138.25 L777.375 -141.375 L778 -145.75 L778 -239.5 L778.625 -243.875 L780.5 -247 L783.625 -248.875 L788 -249.5 L809.9609 -249.5"/>
        <path d="M817.9609 -249.5 L805.9609 -254.5 L808.9609 -249.5 L805.9609 -244.5 Z" stroke="none"/>
      </g>
    </g>
    <g id="y.edge.0">
      <g text-rendering="geometricPrecision" stroke-miterlimit="1.45" shape-rendering="geometricPrecision" transform="matrix(1,0,0,1,15,456)" stroke-linecap="butt">
        <path fill="none" d="M740 -224.5 L778 -224.5 L782.375 -223.875 L785.5 -222 L787.375 -218.875 L788 -214.5 L788 -138.25 L788.625 -133.875 L790.5 -130.75 L793.625 -128.875 L798 -128.25 L809.9707 -128.25"/>
        <path d="M817.9707 -128.25 L805.9707 -133.25 L808.9707 -128.25 L805.9707 -123.25 Z" stroke="none"/>
      </g>
      <g>
        <g stroke-linecap="butt" transform="matrix(1,0,0,1,15,456)" fill="rgb(218,231,247)" text-rendering="geometricPrecision" shape-rendering="geometricPrecision" stroke="rgb(218,231,247)" stroke-miterlimit="1.45">
          <rect x="790" width="47.1191" height="14.437" y="-183.5935" stroke="none"/>
        </g>
        <g fill="rgb(91,171,224)" text-rendering="geometricPrecision" stroke-miterlimit="1.6" shape-rendering="geometricPrecision" transform="matrix(1,0,0,1,15,456)" stroke="rgb(91,171,224)">
          <rect fill="none" x="790" width="47.1191" height="14.437" y="-183.5935"/>
        </g>
        <g font-size="9px" stroke-linecap="butt" transform="matrix(1,0,0,1,15,456)" text-rendering="geometricPrecision" font-family="'Gill Sans MT'" shape-rendering="geometricPrecision" stroke-miterlimit="1.45">
          <text x="792" xml:space="preserve" y="-173.2307" stroke="none">DefaultItem</text>
        </g>
      </g>
    </g>
    <g id="y.edge.15">
      <g text-rendering="geometricPrecision" stroke-miterlimit="1.45" shape-rendering="geometricPrecision" transform="matrix(1,0,0,1,15,456)" stroke-linecap="butt">
        <path fill="none" d="M740 -113.25 L809.9619 -113.25"/>
        <path d="M817.9619 -113.25 L805.9619 -118.25 L808.9619 -113.25 L805.9619 -108.25 Z" stroke="none"/>
      </g>
    </g>
    <g id="y.edge.16">
      <g text-rendering="geometricPrecision" stroke-miterlimit="1.45" shape-rendering="geometricPrecision" transform="matrix(1,0,0,1,15,456)" stroke-linecap="butt">
        <path fill="none" d="M740 -52.5 L746 -52.5 L748.625 -53.125 L750.5 -55 L752 -62.5 L752 -88.25 L752.625 -92.625 L754.5 -95.75 L757.625 -97.625 L762 -98.25 L809.9678 -98.25"/>
        <path d="M817.9678 -98.25 L805.9678 -103.25 L808.9678 -98.25 L805.9678 -93.25 Z" stroke="none"/>
      </g>
    </g>
    <g id="y.edge.5">
      <g text-rendering="geometricPrecision" stroke-miterlimit="1.45" shape-rendering="geometricPrecision" transform="matrix(1,0,0,1,15,456)" stroke-linecap="butt">
        <path fill="none" d="M462 -312 L474 -312 L478.375 -312.625 L481.5 -314.5 L483.375 -317.625 L484 -322 L484 -372.25 L484.625 -376.625 L486.5 -379.75 L489.625 -381.625 L494 -382.25 L531.9727 -382.25"/>
        <path d="M539.9727 -382.25 L527.9727 -387.25 L530.9727 -382.25 L527.9727 -377.25 Z" stroke="none"/>
      </g>
    </g>
    <g id="y.edge.11">
      <g text-rendering="geometricPrecision" stroke-miterlimit="1.45" shape-rendering="geometricPrecision" transform="matrix(1,0,0,1,15,456)" stroke-linecap="butt">
        <path fill="none" d="M200 -305.3333 L212 -305.3333 L216.375 -305.9583 L219.5 -307.8333 L221.375 -310.9583 L222 -315.3333 L222 -394.75 L222.625 -399.125 L224.5 -402.25 L227.625 -404.125 L232 -404.75 L531.9612 -404.75"/>
        <path d="M539.9612 -404.75 L527.9612 -409.75 L530.9612 -404.75 L527.9612 -399.75 Z" stroke="none"/>
      </g>
    </g>
    <g id="y.edge.3">
      <g text-rendering="geometricPrecision" stroke-miterlimit="1.45" shape-rendering="geometricPrecision" transform="matrix(1,0,0,1,15,456)" stroke-linecap="butt">
        <path fill="none" d="M462 -292 L484 -292 L488.375 -292.5703 L491.5 -294.2812 L493.375 -297.1328 L494 -301.125 L494 -301.125 L494.625 -305.1172 L496.5 -307.9688 L499.625 -309.6797 L504 -310.25 L531.9551 -310.25"/>
        <path d="M539.9551 -310.25 L527.9551 -315.25 L530.9551 -310.25 L527.9551 -305.25 Z" stroke="none"/>
      </g>
    </g>
    <g id="y.edge.8">
      <g text-rendering="geometricPrecision" stroke-miterlimit="1.45" shape-rendering="geometricPrecision" transform="matrix(1,0,0,1,15,456)" stroke-linecap="butt">
        <path fill="none" d="M200 -288.6667 L222 -288.6667 L226.375 -289.2917 L229.5 -291.1667 L231.375 -294.2917 L232 -298.6667 L232 -337 L232.625 -341.375 L234.5 -344.5 L237.625 -346.375 L242 -347 L464 -347 L468.375 -346.5547 L471.5 -345.2188 L473.375 -342.9922 L474 -339.875 L474 -339.875 L474.625 -336.7578 L476.5 -334.5312 L479.625 -333.1953 L484 -332.75 L531.9678 -332.75"/>
        <path d="M539.9678 -332.75 L527.9678 -337.75 L530.9678 -332.75 L527.9678 -327.75 Z" stroke="none"/>
      </g>
    </g>
    <g visibility="hidden" id="tooltip.y.node.0" pointer-events="none">
      <g fill="rgb(255,255,225)" text-rendering="geometricPrecision" shape-rendering="geometricPrecision" font-family="'Segoe UI'" stroke="rgb(255,255,225)">
        <rect x="0" width="141" height="66" y="0" clip-path="url(#clipPath3)" stroke="none"/>
        <text fill="black" x="4" xml:space="preserve" y="14" clip-path="url(#clipPath3)" stroke="none">Description: Hour Types</text>
        <text fill="black" x="130" xml:space="preserve" y="14" clip-path="url(#clipPath3)" stroke="none"> </text>
        <text fill="black" x="4" xml:space="preserve" y="30" clip-path="url(#clipPath3)" stroke="none">Data Category: Reference</text>
        <text fill="black" x="137" xml:space="preserve" y="30" clip-path="url(#clipPath3)" stroke="none"> </text>
        <text fill="black" x="4" xml:space="preserve" y="46" clip-path="url(#clipPath3)" stroke="none">Group: Project</text>
        <text fill="black" x="80" xml:space="preserve" y="46" clip-path="url(#clipPath3)" stroke="none"> </text>
        <text fill="black" x="4" xml:space="preserve" y="62" clip-path="url(#clipPath3)" stroke="none">Partition: Y</text>
      </g>
      <g font-family="'Segoe UI'" text-rendering="geometricPrecision" shape-rendering="geometricPrecision">
        <path d="M0 0 L141 0 L141 66 L0 66 L0 0 ZM1 1 L140 1 L140 65 L1 65 L1 1 Z" fill-rule="evenodd" clip-path="url(#clipPath3)" stroke="none"/>
      </g>
    </g>
    <g visibility="hidden" id="tooltip.y.node.1" pointer-events="none">
      <g fill="rgb(255,255,225)" text-rendering="geometricPrecision" shape-rendering="geometricPrecision" font-family="'Segoe UI'" stroke="rgb(255,255,225)">
        <rect x="0" width="150" height="66" y="0" clip-path="url(#clipPath4)" stroke="none"/>
        <text fill="black" x="4" xml:space="preserve" y="14" clip-path="url(#clipPath4)" stroke="none">Description: Project WBS</text>
        <text fill="black" x="134" xml:space="preserve" y="14" clip-path="url(#clipPath4)" stroke="none"> </text>
        <text fill="black" x="4" xml:space="preserve" y="30" clip-path="url(#clipPath4)" stroke="none">Data Category: Transaction</text>
        <text fill="black" x="146" xml:space="preserve" y="30" clip-path="url(#clipPath4)" stroke="none"> </text>
        <text fill="black" x="4" xml:space="preserve" y="46" clip-path="url(#clipPath4)" stroke="none">Group: Project</text>
        <text fill="black" x="80" xml:space="preserve" y="46" clip-path="url(#clipPath4)" stroke="none"> </text>
        <text fill="black" x="4" xml:space="preserve" y="62" clip-path="url(#clipPath4)" stroke="none">Partition: Y</text>
      </g>
      <g font-family="'Segoe UI'" text-rendering="geometricPrecision" shape-rendering="geometricPrecision">
        <path d="M0 0 L150 0 L150 66 L0 66 L0 0 ZM1 1 L149 1 L149 65 L1 65 L1 1 Z" fill-rule="evenodd" clip-path="url(#clipPath4)" stroke="none"/>
      </g>
    </g>
    <g visibility="hidden" id="tooltip.y.node.2" pointer-events="none">
      <g fill="rgb(255,255,225)" text-rendering="geometricPrecision" shape-rendering="geometricPrecision" font-family="'Segoe UI'" stroke="rgb(255,255,225)">
        <rect x="0" width="150" height="66" y="0" clip-path="url(#clipPath4)" stroke="none"/>
        <text fill="black" x="4" xml:space="preserve" y="14" clip-path="url(#clipPath4)" stroke="none">Description: Projects</text>
        <text fill="black" x="112" xml:space="preserve" y="14" clip-path="url(#clipPath4)" stroke="none"> </text>
        <text fill="black" x="4" xml:space="preserve" y="30" clip-path="url(#clipPath4)" stroke="none">Data Category: Transaction</text>
        <text fill="black" x="146" xml:space="preserve" y="30" clip-path="url(#clipPath4)" stroke="none"> </text>
        <text fill="black" x="4" xml:space="preserve" y="46" clip-path="url(#clipPath4)" stroke="none">Group: Project</text>
        <text fill="black" x="80" xml:space="preserve" y="46" clip-path="url(#clipPath4)" stroke="none"> </text>
        <text fill="black" x="4" xml:space="preserve" y="62" clip-path="url(#clipPath4)" stroke="none">Partition: Y</text>
      </g>
      <g font-family="'Segoe UI'" text-rendering="geometricPrecision" shape-rendering="geometricPrecision">
        <path d="M0 0 L150 0 L150 66 L0 66 L0 0 ZM1 1 L149 1 L149 65 L1 65 L1 1 Z" fill-rule="evenodd" clip-path="url(#clipPath4)" stroke="none"/>
      </g>
    </g>
    <g visibility="hidden" id="tooltip.y.node.3" pointer-events="none">
      <g fill="rgb(255,255,225)" text-rendering="geometricPrecision" shape-rendering="geometricPrecision" font-family="'Segoe UI'" stroke="rgb(255,255,225)">
        <rect x="0" width="215" height="66" y="0" clip-path="url(#clipPath5)" stroke="none"/>
        <text fill="black" x="4" xml:space="preserve" y="14" clip-path="url(#clipPath5)" stroke="none">Description: Recurring Project Planning</text>
        <text fill="black" x="211" xml:space="preserve" y="14" clip-path="url(#clipPath5)" stroke="none"> </text>
        <text fill="black" x="4" xml:space="preserve" y="30" clip-path="url(#clipPath5)" stroke="none">Data Category: Transaction</text>
        <text fill="black" x="146" xml:space="preserve" y="30" clip-path="url(#clipPath5)" stroke="none"> </text>
        <text fill="black" x="4" xml:space="preserve" y="46" clip-path="url(#clipPath5)" stroke="none">Group: Project</text>
        <text fill="black" x="80" xml:space="preserve" y="46" clip-path="url(#clipPath5)" stroke="none"> </text>
        <text fill="black" x="4" xml:space="preserve" y="62" clip-path="url(#clipPath5)" stroke="none">Partition: Y</text>
      </g>
      <g font-family="'Segoe UI'" text-rendering="geometricPrecision" shape-rendering="geometricPrecision">
        <path d="M0 0 L215 0 L215 66 L0 66 L0 0 ZM1 1 L214 1 L214 65 L1 65 L1 1 Z" fill-rule="evenodd" clip-path="url(#clipPath5)" stroke="none"/>
      </g>
    </g>
    <g visibility="hidden" id="tooltip.y.node.4" pointer-events="none">
      <g fill="rgb(255,255,225)" text-rendering="geometricPrecision" shape-rendering="geometricPrecision" font-family="'Segoe UI'" stroke="rgb(255,255,225)">
        <rect x="0" width="161" height="66" y="0" clip-path="url(#clipPath6)" stroke="none"/>
        <text fill="black" x="4" xml:space="preserve" y="14" clip-path="url(#clipPath6)" stroke="none">Description: Project Planning</text>
        <text fill="black" x="157" xml:space="preserve" y="14" clip-path="url(#clipPath6)" stroke="none"> </text>
        <text fill="black" x="4" xml:space="preserve" y="30" clip-path="url(#clipPath6)" stroke="none">Data Category: Transaction</text>
        <text fill="black" x="146" xml:space="preserve" y="30" clip-path="url(#clipPath6)" stroke="none"> </text>
        <text fill="black" x="4" xml:space="preserve" y="46" clip-path="url(#clipPath6)" stroke="none">Group: Project</text>
        <text fill="black" x="80" xml:space="preserve" y="46" clip-path="url(#clipPath6)" stroke="none"> </text>
        <text fill="black" x="4" xml:space="preserve" y="62" clip-path="url(#clipPath6)" stroke="none">Partition: Y</text>
      </g>
      <g font-family="'Segoe UI'" text-rendering="geometricPrecision" shape-rendering="geometricPrecision">
        <path d="M0 0 L161 0 L161 66 L0 66 L0 0 ZM1 1 L160 1 L160 65 L1 65 L1 1 Z" fill-rule="evenodd" clip-path="url(#clipPath6)" stroke="none"/>
      </g>
    </g>
    <g visibility="hidden" id="tooltip.y.node.5" pointer-events="none">
      <g fill="rgb(255,255,225)" text-rendering="geometricPrecision" shape-rendering="geometricPrecision" font-family="'Segoe UI'" stroke="rgb(255,255,225)">
        <rect x="0" width="187" height="66" y="0" clip-path="url(#clipPath7)" stroke="none"/>
        <text fill="black" x="4" xml:space="preserve" y="14" clip-path="url(#clipPath7)" stroke="none">Description: Project Hour Budgets</text>
        <text fill="black" x="183" xml:space="preserve" y="14" clip-path="url(#clipPath7)" stroke="none"> </text>
        <text fill="black" x="4" xml:space="preserve" y="30" clip-path="url(#clipPath7)" stroke="none">Data Category: Transaction</text>
        <text fill="black" x="146" xml:space="preserve" y="30" clip-path="url(#clipPath7)" stroke="none"> </text>
        <text fill="black" x="4" xml:space="preserve" y="46" clip-path="url(#clipPath7)" stroke="none">Group: Project</text>
        <text fill="black" x="80" xml:space="preserve" y="46" clip-path="url(#clipPath7)" stroke="none"> </text>
        <text fill="black" x="4" xml:space="preserve" y="62" clip-path="url(#clipPath7)" stroke="none">Partition: Y</text>
      </g>
      <g font-family="'Segoe UI'" text-rendering="geometricPrecision" shape-rendering="geometricPrecision">
        <path d="M0 0 L187 0 L187 66 L0 66 L0 0 ZM1 1 L186 1 L186 65 L1 65 L1 1 Z" fill-rule="evenodd" clip-path="url(#clipPath7)" stroke="none"/>
      </g>
    </g>
    <g visibility="hidden" id="tooltip.y.node.6" pointer-events="none">
      <g fill="rgb(255,255,225)" text-rendering="geometricPrecision" shape-rendering="geometricPrecision" font-family="'Segoe UI'" stroke="rgb(255,255,225)">
        <rect x="0" width="150" height="66" y="0" clip-path="url(#clipPath4)" stroke="none"/>
        <text fill="black" x="4" xml:space="preserve" y="14" clip-path="url(#clipPath4)" stroke="none">Description: Item</text>
        <text fill="black" x="94" xml:space="preserve" y="14" clip-path="url(#clipPath4)" stroke="none"> </text>
        <text fill="black" x="4" xml:space="preserve" y="30" clip-path="url(#clipPath4)" stroke="none">Data Category: Transaction</text>
        <text fill="black" x="146" xml:space="preserve" y="30" clip-path="url(#clipPath4)" stroke="none"> </text>
        <text fill="black" x="4" xml:space="preserve" y="46" clip-path="url(#clipPath4)" stroke="none">Group: Logistics</text>
        <text fill="black" x="89" xml:space="preserve" y="46" clip-path="url(#clipPath4)" stroke="none"> </text>
        <text fill="black" x="4" xml:space="preserve" y="62" clip-path="url(#clipPath4)" stroke="none">Partition: Y</text>
      </g>
      <g font-family="'Segoe UI'" text-rendering="geometricPrecision" shape-rendering="geometricPrecision">
        <path d="M0 0 L150 0 L150 66 L0 66 L0 0 ZM1 1 L149 1 L149 65 L1 65 L1 1 Z" fill-rule="evenodd" clip-path="url(#clipPath4)" stroke="none"/>
      </g>
    </g>
    <g visibility="hidden" id="tooltip.y.node.7" pointer-events="none">
      <g fill="rgb(255,255,225)" text-rendering="geometricPrecision" shape-rendering="geometricPrecision" font-family="'Segoe UI'" stroke="rgb(255,255,225)">
        <rect x="0" width="150" height="66" y="0" clip-path="url(#clipPath4)" stroke="none"/>
        <text fill="black" x="4" xml:space="preserve" y="14" clip-path="url(#clipPath4)" stroke="none">Description: Accounts</text>
        <text fill="black" x="120" xml:space="preserve" y="14" clip-path="url(#clipPath4)" stroke="none"> </text>
        <text fill="black" x="4" xml:space="preserve" y="30" clip-path="url(#clipPath4)" stroke="none">Data Category: Transaction</text>
        <text fill="black" x="146" xml:space="preserve" y="30" clip-path="url(#clipPath4)" stroke="none"> </text>
        <text fill="black" x="4" xml:space="preserve" y="46" clip-path="url(#clipPath4)" stroke="none">Group: Accounts</text>
        <text fill="black" x="93" xml:space="preserve" y="46" clip-path="url(#clipPath4)" stroke="none"> </text>
        <text fill="black" x="4" xml:space="preserve" y="62" clip-path="url(#clipPath4)" stroke="none">Partition: Y</text>
      </g>
      <g font-family="'Segoe UI'" text-rendering="geometricPrecision" shape-rendering="geometricPrecision">
        <path d="M0 0 L150 0 L150 66 L0 66 L0 0 ZM1 1 L149 1 L149 65 L1 65 L1 1 Z" fill-rule="evenodd" clip-path="url(#clipPath4)" stroke="none"/>
      </g>
    </g>
    <g visibility="hidden" id="tooltip.y.node.8" pointer-events="none">
      <g fill="rgb(255,255,225)" text-rendering="geometricPrecision" shape-rendering="geometricPrecision" font-family="'Segoe UI'" stroke="rgb(255,255,225)">
        <rect x="0" width="141" height="66" y="0" clip-path="url(#clipPath3)" stroke="none"/>
        <text fill="black" x="4" xml:space="preserve" y="14" clip-path="url(#clipPath3)" stroke="none">Description: Employees</text>
        <text fill="black" x="127" xml:space="preserve" y="14" clip-path="url(#clipPath3)" stroke="none"> </text>
        <text fill="black" x="4" xml:space="preserve" y="30" clip-path="url(#clipPath3)" stroke="none">Data Category: Reference</text>
        <text fill="black" x="137" xml:space="preserve" y="30" clip-path="url(#clipPath3)" stroke="none"> </text>
        <text fill="black" x="4" xml:space="preserve" y="46" clip-path="url(#clipPath3)" stroke="none">Group: Payroll</text>
        <text fill="black" x="79" xml:space="preserve" y="46" clip-path="url(#clipPath3)" stroke="none"> </text>
        <text fill="black" x="4" xml:space="preserve" y="62" clip-path="url(#clipPath3)" stroke="none">Partition: Y</text>
      </g>
      <g font-family="'Segoe UI'" text-rendering="geometricPrecision" shape-rendering="geometricPrecision">
        <path d="M0 0 L141 0 L141 66 L0 66 L0 0 ZM1 1 L140 1 L140 65 L1 65 L1 1 Z" fill-rule="evenodd" clip-path="url(#clipPath3)" stroke="none"/>
      </g>
    </g>
  </g>
</svg>
