<?xml version="1.0" encoding="UTF-8" standalone="no"?>
<graphml xmlns="http://graphml.graphdrawing.org/xmlns" xmlns:java="http://www.yworks.com/xml/yfiles-common/1.0/java" xmlns:sys="http://www.yworks.com/xml/yfiles-common/markup/primitives/2.0" xmlns:x="http://www.yworks.com/xml/yfiles-common/markup/2.0" xmlns:xsi="http://www.w3.org/2001/XMLSchema-instance" xmlns:y="http://www.yworks.com/xml/graphml" xmlns:yed="http://www.yworks.com/xml/yed/3" xsi:schemaLocation="http://graphml.graphdrawing.org/xmlns http://www.yworks.com/xml/schema/graphml/1.1/ygraphml.xsd">
  <!--Created by yEd 3.17.1-->
  <key for="port" id="d0" yfiles.type="portgraphics"/>
  <key for="port" id="d1" yfiles.type="portgeometry"/>
  <key for="port" id="d2" yfiles.type="portuserdata"/>
  <key attr.name="url" attr.type="string" for="node" id="d3"/>
  <key attr.name="description" attr.type="string" for="node" id="d4"/>
  <key for="node" id="d5" yfiles.type="nodegraphics"/>
  <key for="graphml" id="d6" yfiles.type="resources"/>
  <key attr.name="url" attr.type="string" for="edge" id="d7"/>
  <key attr.name="description" attr.type="string" for="edge" id="d8"/>
  <key for="edge" id="d9" yfiles.type="edgegraphics"/>
  <graph edgedefault="directed" id="G">
    <node id="n0">
      <data key="d4"><![CDATA[Description: None.
Data Category: Seed
Group: Project
Partition: N]]></data>
      <data key="d5">
        <y:ShapeNode>
          <y:Geometry height="45.0" width="200.0" x="619.0" y="-371.97222222222223"/>
          <y:Fill color="#59A9DF" transparent="false"/>
          <y:BorderStyle color="#1D71B8" type="line" width="1.0"/>
          <y:NodeLabel alignment="center" autoSizePolicy="node_width" fontFamily="Gill Sans MT" fontSize="15" fontStyle="plain" hasBackgroundColor="false" hasLineColor="false" height="38.7900390625" horizontalTextPosition="center" iconTextGap="4" modelName="internal" modelPosition="c" textColor="#FFFFFF" verticalTextPosition="bottom" visible="true" width="200.0" x="0.0" y="3.10498046875">ProjectTypes
dompte, #code</y:NodeLabel>
          <y:Shape type="roundrectangle"/>
          <y:DropShadow color="#C0C0C07E" offsetX="2" offsetY="2"/>
        </y:ShapeNode>
      </data>
    </node>
    <node id="n1">
      <data key="d4"><![CDATA[Description: None.
Data Category: Seed
Group: Project
Partition: N]]></data>
      <data key="d5">
        <y:ShapeNode>
          <y:Geometry height="45.0" width="200.0" x="619.0" y="-587.9722222222222"/>
          <y:Fill color="#59A9DF" transparent="false"/>
          <y:BorderStyle color="#1D71B8" type="line" width="1.0"/>
          <y:NodeLabel alignment="center" autoSizePolicy="node_width" fontFamily="Gill Sans MT" fontSize="15" fontStyle="plain" hasBackgroundColor="false" hasLineColor="false" height="38.7900390625" horizontalTextPosition="center" iconTextGap="4" modelName="internal" modelPosition="c" textColor="#FFFFFF" verticalTextPosition="bottom" visible="true" width="200.0" x="0.0" y="3.10498046875">ProjectPrepaidTypes
domppe, #code</y:NodeLabel>
          <y:Shape type="roundrectangle"/>
          <y:DropShadow color="#C0C0C07E" offsetX="2" offsetY="2"/>
        </y:ShapeNode>
      </data>
    </node>
    <node id="n2">
      <data key="d4"><![CDATA[Description: Project Budget Types
Data Category: Reference
Group: Project
Partition: Y]]></data>
      <data key="d5">
        <y:ShapeNode>
          <y:Geometry height="45.0" width="200.0" x="619.0" y="-515.9722222222222"/>
          <y:Fill color="#A8C94C" transparent="false"/>
          <y:BorderStyle color="#8AAA17" type="line" width="1.0"/>
          <y:NodeLabel alignment="center" autoSizePolicy="node_width" fontFamily="Gill Sans MT" fontSize="15" fontStyle="plain" hasBackgroundColor="false" hasLineColor="false" height="38.7900390625" horizontalTextPosition="center" iconTextGap="4" modelName="internal" modelPosition="c" textColor="#FFFFFF" verticalTextPosition="bottom" visible="true" width="200.0" x="0.0" y="3.10498046875">ProjectBudgetTypes
rpbt, #ID</y:NodeLabel>
          <y:Shape type="roundrectangle"/>
          <y:DropShadow color="#C0C0C07E" offsetX="2" offsetY="2"/>
        </y:ShapeNode>
      </data>
    </node>
    <node id="n3">
      <data key="d4"><![CDATA[Description: Hour Cost Types
Data Category: Reference
Group: Project
Partition: Y]]></data>
      <data key="d5">
        <y:ShapeNode>
          <y:Geometry height="45.0" width="200.0" x="317.0" y="-113.25"/>
          <y:Fill color="#A8C94C" transparent="false"/>
          <y:BorderStyle color="#8AAA17" type="line" width="1.0"/>
          <y:NodeLabel alignment="center" autoSizePolicy="node_width" fontFamily="Gill Sans MT" fontSize="15" fontStyle="plain" hasBackgroundColor="false" hasLineColor="false" height="38.7900390625" horizontalTextPosition="center" iconTextGap="4" modelName="internal" modelPosition="c" textColor="#FFFFFF" verticalTextPosition="bottom" visible="true" width="200.0" x="0.0" y="3.10498046875">HourCostTypes
rhce</y:NodeLabel>
          <y:Shape type="roundrectangle"/>
          <y:DropShadow color="#C0C0C07E" offsetX="2" offsetY="2"/>
        </y:ShapeNode>
      </data>
    </node>
    <node id="n4">
      <data key="d4"><![CDATA[Description: Cost Types
Data Category: Reference
Group: Project
Partition: Y]]></data>
      <data key="d5">
        <y:ShapeNode>
          <y:Geometry height="45.0" width="200.0" x="317.0" y="-185.25"/>
          <y:Fill color="#A8C94C" transparent="false"/>
          <y:BorderStyle color="#8AAA17" type="line" width="1.0"/>
          <y:NodeLabel alignment="center" autoSizePolicy="node_width" fontFamily="Gill Sans MT" fontSize="15" fontStyle="plain" hasBackgroundColor="false" hasLineColor="false" height="38.7900390625" horizontalTextPosition="center" iconTextGap="4" modelName="internal" modelPosition="c" textColor="#FFFFFF" verticalTextPosition="bottom" visible="true" width="200.0" x="0.0" y="3.10498046875">CostTypes
rcte</y:NodeLabel>
          <y:Shape type="roundrectangle"/>
          <y:DropShadow color="#C0C0C07E" offsetX="2" offsetY="2"/>
        </y:ShapeNode>
      </data>
    </node>
    <node id="n5">
      <data key="d4"><![CDATA[Description: Project WBS
Data Category: Transaction
Group: Project
Partition: Y]]></data>
      <data key="d5">
        <y:ShapeNode>
          <y:Geometry height="45.0" width="200.0" x="0.0" y="-75.0"/>
          <y:Fill color="#DC7600" transparent="false"/>
          <y:BorderStyle color="#D15400" type="line" width="1.0"/>
          <y:NodeLabel alignment="center" autoSizePolicy="node_width" fontFamily="Gill Sans MT" fontSize="15" fontStyle="plain" hasBackgroundColor="false" hasLineColor="false" height="38.7900390625" horizontalTextPosition="center" iconTextGap="4" modelName="internal" modelPosition="c" textColor="#FFFFFF" verticalTextPosition="bottom" visible="true" width="200.0" x="0.0" y="3.10498046875">ProjectWBS
rwbs, #ID</y:NodeLabel>
          <y:Shape type="roundrectangle"/>
          <y:DropShadow color="#C0C0C07E" offsetX="2" offsetY="2"/>
        </y:ShapeNode>
      </data>
    </node>
    <node id="n6">
      <data key="d4"><![CDATA[Description: Projects
Data Category: Transaction
Group: Project
Partition: Y]]></data>
      <data key="d5">
        <y:ShapeNode>
          <y:Geometry height="190.0" width="200.0" x="317.0" y="-537.5833333333333"/>
          <y:Fill color="#DC7600" transparent="false"/>
          <y:BorderStyle color="#D15400" type="line" width="1.0"/>
          <y:NodeLabel alignment="center" autoSizePolicy="node_width" fontFamily="Gill Sans MT" fontSize="15" fontStyle="plain" hasBackgroundColor="false" hasLineColor="false" height="38.7900390625" horizontalTextPosition="center" iconTextGap="4" modelName="internal" modelPosition="c" textColor="#FFFFFF" verticalTextPosition="bottom" visible="true" width="200.0" x="0.0" y="75.60498046875">Projects
rpjt, #ID</y:NodeLabel>
          <y:Shape type="roundrectangle"/>
          <y:DropShadow color="#C0C0C07E" offsetX="2" offsetY="2"/>
        </y:ShapeNode>
      </data>
    </node>
    <node id="n7">
      <data key="d4"><![CDATA[Description: Project Restriction Rebillings
Data Category: Transaction
Group: Project
Partition: Y]]></data>
      <data key="d5">
        <y:ShapeNode>
          <y:Geometry height="45.0" width="200.0" x="0.0" y="-244.0"/>
          <y:Fill color="#DC7600" transparent="false"/>
          <y:BorderStyle color="#D15400" type="line" width="1.0"/>
          <y:NodeLabel alignment="center" autoSizePolicy="node_width" fontFamily="Gill Sans MT" fontSize="15" fontStyle="plain" hasBackgroundColor="false" hasLineColor="false" height="38.7900390625" horizontalTextPosition="center" iconTextGap="4" modelName="internal" modelPosition="c" textColor="#FFFFFF" verticalTextPosition="bottom" visible="true" width="200.0" x="0.0" y="3.10498046875">ProjectRestrictionRebillings
rprg</y:NodeLabel>
          <y:Shape type="roundrectangle"/>
          <y:DropShadow color="#C0C0C07E" offsetX="2" offsetY="2"/>
        </y:ShapeNode>
      </data>
    </node>
    <node id="n8">
      <data key="d4"><![CDATA[Description: Project Restriction Items
Data Category: Transaction
Group: Project
Partition: Y]]></data>
      <data key="d5">
        <y:ShapeNode>
          <y:Geometry height="45.0" width="200.0" x="0.0" y="-453.8333333333333"/>
          <y:Fill color="#DC7600" transparent="false"/>
          <y:BorderStyle color="#D15400" type="line" width="1.0"/>
          <y:NodeLabel alignment="center" autoSizePolicy="node_width" fontFamily="Gill Sans MT" fontSize="15" fontStyle="plain" hasBackgroundColor="false" hasLineColor="false" height="38.7900390625" horizontalTextPosition="center" iconTextGap="4" modelName="internal" modelPosition="c" textColor="#FFFFFF" verticalTextPosition="bottom" visible="true" width="200.0" x="0.0" y="3.10498046875">ProjectRestrictionItems
rprm</y:NodeLabel>
          <y:Shape type="roundrectangle"/>
          <y:DropShadow color="#C0C0C07E" offsetX="2" offsetY="2"/>
        </y:ShapeNode>
      </data>
    </node>
    <node id="n9">
      <data key="d4"><![CDATA[Description: Project Restriction Employees
Data Category: Transaction
Group: Project
Partition: Y]]></data>
      <data key="d5">
        <y:ShapeNode>
          <y:Geometry height="45.0" width="200.0" x="0.0" y="-649.25"/>
          <y:Fill color="#DC7600" transparent="false"/>
          <y:BorderStyle color="#D15400" type="line" width="1.0"/>
          <y:NodeLabel alignment="center" autoSizePolicy="node_width" fontFamily="Gill Sans MT" fontSize="15" fontStyle="plain" hasBackgroundColor="false" hasLineColor="false" height="38.7900390625" horizontalTextPosition="center" iconTextGap="4" modelName="internal" modelPosition="c" textColor="#FFFFFF" verticalTextPosition="bottom" visible="true" width="200.0" x="0.0" y="3.10498046875">ProjectRestrictionEmployees
rpry</y:NodeLabel>
          <y:Shape type="roundrectangle"/>
          <y:DropShadow color="#C0C0C07E" offsetX="2" offsetY="2"/>
        </y:ShapeNode>
      </data>
    </node>
    <node id="n10">
      <data key="d4"><![CDATA[Description: Invoice Terms
Data Category: Transaction
Group: Project
Partition: Y]]></data>
      <data key="d5">
        <y:ShapeNode>
          <y:Geometry height="45.0" width="200.0" x="0.0" y="-381.8333333333333"/>
          <y:Fill color="#DC7600" transparent="false"/>
          <y:BorderStyle color="#D15400" type="line" width="1.0"/>
          <y:NodeLabel alignment="center" autoSizePolicy="node_width" fontFamily="Gill Sans MT" fontSize="15" fontStyle="plain" hasBackgroundColor="false" hasLineColor="false" height="38.7900390625" horizontalTextPosition="center" iconTextGap="4" modelName="internal" modelPosition="c" textColor="#FFFFFF" verticalTextPosition="bottom" visible="true" width="200.0" x="0.0" y="3.10498046875">InvoiceTerms
ricm</y:NodeLabel>
          <y:Shape type="roundrectangle"/>
          <y:DropShadow color="#C0C0C07E" offsetX="2" offsetY="2"/>
        </y:ShapeNode>
      </data>
    </node>
    <node id="n11">
      <data key="d4"><![CDATA[Description: Cost Transactions
Data Category: Transaction
Group: Project
Partition: Y]]></data>
      <data key="d5">
        <y:ShapeNode>
          <y:Geometry height="100.0" width="200.0" x="0.0" y="-776.25"/>
          <y:Fill color="#DC7600" transparent="false"/>
          <y:BorderStyle color="#D15400" type="line" width="1.0"/>
          <y:NodeLabel alignment="center" autoSizePolicy="node_width" fontFamily="Gill Sans MT" fontSize="15" fontStyle="plain" hasBackgroundColor="false" hasLineColor="false" height="38.7900390625" horizontalTextPosition="center" iconTextGap="4" modelName="internal" modelPosition="c" textColor="#FFFFFF" verticalTextPosition="bottom" visible="true" width="200.0" x="0.0" y="30.60498046875">CostTransactions
rctn</y:NodeLabel>
          <y:Shape type="roundrectangle"/>
          <y:DropShadow color="#C0C0C07E" offsetX="2" offsetY="2"/>
        </y:ShapeNode>
      </data>
    </node>
    <node id="n12">
      <data key="d4"><![CDATA[Description: Item
Data Category: Transaction
Group: Logistics
Partition: Y]]></data>
      <data key="d5">
        <y:ShapeNode>
          <y:Geometry height="190.0" width="200.0" x="619.0" y="-299.97222222222223"/>
          <y:Fill color="#EEEEEE" transparent="false"/>
          <y:BorderStyle color="#444444" type="line" width="1.0"/>
          <y:NodeLabel alignment="center" autoSizePolicy="node_width" fontFamily="Gill Sans MT" fontSize="15" fontStyle="plain" hasBackgroundColor="false" hasLineColor="false" height="38.7900390625" horizontalTextPosition="center" iconTextGap="4" modelName="internal" modelPosition="c" textColor="#000000" verticalTextPosition="bottom" visible="true" width="200.0" x="0.0" y="75.60498046875">Items
Logistics: ritm, #ID</y:NodeLabel>
          <y:Shape type="roundrectangle"/>
          <y:DropShadow color="#CCCCCC" offsetX="2" offsetY="2"/>
        </y:ShapeNode>
      </data>
    </node>
    <node id="n13">
      <data key="d4"><![CDATA[Description: Quotations
Data Category: Transaction
Group: CRM
Partition: Y]]></data>
      <data key="d5">
        <y:ShapeNode>
          <y:Geometry height="45.0" width="200.0" x="317.0" y="-612.5833333333333"/>
          <y:Fill color="#EEEEEE" transparent="false"/>
          <y:BorderStyle color="#444444" type="line" width="1.0"/>
          <y:NodeLabel alignment="center" autoSizePolicy="node_width" fontFamily="Gill Sans MT" fontSize="15" fontStyle="plain" hasBackgroundColor="false" hasLineColor="false" height="38.7900390625" horizontalTextPosition="center" iconTextGap="4" modelName="internal" modelPosition="c" textColor="#000000" verticalTextPosition="bottom" visible="true" width="200.0" x="0.0" y="3.10498046875">Quotations
CRM: rqtn, #QuotationID</y:NodeLabel>
          <y:Shape type="roundrectangle"/>
          <y:DropShadow color="#CCCCCC" offsetX="2" offsetY="2"/>
        </y:ShapeNode>
      </data>
    </node>
    <node id="n14">
      <data key="d4"><![CDATA[Description: Accounts
Data Category: Transaction
Group: Accounts
Partition: Y]]></data>
      <data key="d5">
        <y:ShapeNode>
          <y:Geometry height="100.0" width="200.0" x="619.0" y="-776.25"/>
          <y:Fill color="#EEEEEE" transparent="false"/>
          <y:BorderStyle color="#444444" type="line" width="1.0"/>
          <y:NodeLabel alignment="center" autoSizePolicy="node_width" fontFamily="Gill Sans MT" fontSize="15" fontStyle="plain" hasBackgroundColor="false" hasLineColor="false" height="38.7900390625" horizontalTextPosition="center" iconTextGap="4" modelName="internal" modelPosition="c" textColor="#000000" verticalTextPosition="bottom" visible="true" width="200.0" x="0.0" y="30.60498046875">Accounts
Accounts: ract, #ID</y:NodeLabel>
          <y:Shape type="roundrectangle"/>
          <y:DropShadow color="#CCCCCC" offsetX="2" offsetY="2"/>
        </y:ShapeNode>
      </data>
    </node>
    <node id="n15">
      <data key="d4"><![CDATA[Description: Contacts
Data Category: Transaction
Group: Accounts
Partition: Y]]></data>
      <data key="d5">
        <y:ShapeNode>
          <y:Geometry height="45.0" width="200.0" x="619.0" y="-443.97222222222223"/>
          <y:Fill color="#EEEEEE" transparent="false"/>
          <y:BorderStyle color="#444444" type="line" width="1.0"/>
          <y:NodeLabel alignment="center" autoSizePolicy="node_width" fontFamily="Gill Sans MT" fontSize="15" fontStyle="plain" hasBackgroundColor="false" hasLineColor="false" height="38.7900390625" horizontalTextPosition="center" iconTextGap="4" modelName="internal" modelPosition="c" textColor="#000000" verticalTextPosition="bottom" visible="true" width="200.0" x="0.0" y="3.10498046875">Contacts
Accounts: rctt, #ID</y:NodeLabel>
          <y:Shape type="roundrectangle"/>
          <y:DropShadow color="#CCCCCC" offsetX="2" offsetY="2"/>
        </y:ShapeNode>
      </data>
    </node>
    <node id="n16">
      <data key="d4"><![CDATA[Description: Employees
Data Category: Reference
Group: Payroll
Partition: Y]]></data>
      <data key="d5">
        <y:ShapeNode>
          <y:Geometry height="45.0" width="200.0" x="619.0" y="-649.25"/>
          <y:Fill color="#EEEEEE" transparent="false"/>
          <y:BorderStyle color="#444444" type="line" width="1.0"/>
          <y:NodeLabel alignment="center" autoSizePolicy="node_width" fontFamily="Gill Sans MT" fontSize="15" fontStyle="plain" hasBackgroundColor="false" hasLineColor="false" height="38.7900390625" horizontalTextPosition="center" iconTextGap="4" modelName="internal" modelPosition="c" textColor="#000000" verticalTextPosition="bottom" visible="true" width="200.0" x="0.0" y="3.10498046875">Employees
Payroll: reye, #ID</y:NodeLabel>
          <y:Shape type="roundrectangle"/>
          <y:DropShadow color="#CCCCCC" offsetX="2" offsetY="2"/>
        </y:ShapeNode>
      </data>
    </node>
    <edge id="e0" source="n13" target="n6">
      <data key="d9">
        <y:PolyLineEdge>
          <y:Path sx="0.0" sy="22.5" tx="0.0" ty="-95.0"/>
          <y:LineStyle color="#000000" type="line" width="1.0"/>
          <y:Arrows source="none" target="standard"/>
          <y:BendStyle smoothed="true"/>
        </y:PolyLineEdge>
      </data>
    </edge>
    <edge id="e1" source="n5" target="n12">
      <data key="d9">
        <y:PolyLineEdge>
          <y:Path sx="100.0" sy="11.25" tx="-100.0" ty="84.44444444444444">
            <y:Point x="539.0" y="-41.25"/>
            <y:Point x="539.0" y="-120.52777777777779"/>
          </y:Path>
          <y:LineStyle color="#000000" type="line" width="1.0"/>
          <y:Arrows source="none" target="standard"/>
          <y:EdgeLabel alignment="center" backgroundColor="#DAE7F7" distance="2.0" fontFamily="Gill Sans MT" fontSize="9" fontStyle="plain" height="14.43701171875" horizontalTextPosition="center" iconTextGap="4" lineColor="#5BABE0" modelName="side_slider" preferredPlacement="center_right" ratio="0.4581332098836873" textColor="#000000" verticalTextPosition="bottom" visible="true" width="47.119140625" x="197.29557291666663" y="-16.43701171875">DefaultItem<y:PreferredPlacementDescriptor angle="0.0" angleOffsetOnRightSide="0" angleReference="absolute" angleRotationOnRightSide="co" distance="-1.0" placement="center" side="right" sideReference="relative_to_edge_flow"/>
          </y:EdgeLabel>
          <y:BendStyle smoothed="true"/>
        </y:PolyLineEdge>
      </data>
    </edge>
    <edge id="e2" source="n5" target="n5">
      <data key="d9">
        <y:PolyLineEdge>
          <y:Path sx="-99.98291015625" sy="0.0" tx="-58.5" ty="-11.25">
            <y:Point x="-15.5" y="-52.5"/>
            <y:Point x="-15.5" y="-99.75"/>
            <y:Point x="41.5" y="-99.75"/>
          </y:Path>
          <y:LineStyle color="#000000" type="line" width="1.0"/>
          <y:Arrows source="none" target="standard"/>
          <y:EdgeLabel alignment="center" backgroundColor="#DAE7F7" distance="2.0" fontFamily="Gill Sans MT" fontSize="9" fontStyle="plain" height="14.43701171875" horizontalTextPosition="center" iconTextGap="4" lineColor="#5BABE0" modelName="side_slider" preferredPlacement="center_right" ratio="0.6504950495049505" textColor="#000000" verticalTextPosition="bottom" visible="true" width="27.80078125" x="-0.8871736526489258" y="-63.68701171875">Parent<y:PreferredPlacementDescriptor angle="0.0" angleOffsetOnRightSide="0" angleReference="absolute" angleRotationOnRightSide="co" distance="-1.0" placement="center" side="right" sideReference="relative_to_edge_flow"/>
          </y:EdgeLabel>
          <y:BendStyle smoothed="true"/>
        </y:PolyLineEdge>
      </data>
    </edge>
    <edge id="e3" source="n5" target="n6">
      <data key="d9">
        <y:PolyLineEdge>
          <y:Path sx="100.0" sy="-11.25" tx="-100.0" ty="81.42857142857143">
            <y:Point x="252.0" y="-63.75"/>
            <y:Point x="252.0" y="-361.15476190476187"/>
          </y:Path>
          <y:LineStyle color="#000000" type="line" width="1.0"/>
          <y:Arrows source="none" target="standard"/>
          <y:BendStyle smoothed="true"/>
        </y:PolyLineEdge>
      </data>
    </edge>
    <edge id="e4" source="n6" target="n0">
      <data key="d9">
        <y:PolyLineEdge>
          <y:Path sx="100.0" sy="42.22222222222223" tx="-100.0" ty="-0.0">
            <y:Point x="589.0" y="-400.3611111111111"/>
            <y:Point x="589.0" y="-349.47222222222223"/>
          </y:Path>
          <y:LineStyle color="#000000" type="line" width="1.0"/>
          <y:Arrows source="none" target="standard"/>
          <y:BendStyle smoothed="true"/>
        </y:PolyLineEdge>
      </data>
    </edge>
    <edge id="e5" source="n6" target="n1">
      <data key="d9">
        <y:PolyLineEdge>
          <y:Path sx="100.0" sy="-21.111111111111114" tx="-100.0" ty="-0.0">
            <y:Point x="559.0" y="-463.69444444444446"/>
            <y:Point x="559.0" y="-565.4722222222222"/>
          </y:Path>
          <y:LineStyle color="#000000" type="line" width="1.0"/>
          <y:Arrows source="none" target="standard"/>
          <y:BendStyle smoothed="true"/>
        </y:PolyLineEdge>
      </data>
    </edge>
    <edge id="e6" source="n6" target="n13">
      <data key="d9">
        <y:PolyLineEdge>
          <y:Path sx="15.0" sy="-95.0" tx="15.0" ty="22.5"/>
          <y:LineStyle color="#000000" type="line" width="1.0"/>
          <y:Arrows source="none" target="standard"/>
          <y:EdgeLabel alignment="center" backgroundColor="#DAE7F7" distance="2.0" fontFamily="Gill Sans MT" fontSize="9" fontStyle="plain" height="14.43701171875" horizontalTextPosition="center" iconTextGap="4" lineColor="#5BABE0" modelName="side_slider" preferredPlacement="center_right" ratio="0.0" textColor="#000000" verticalTextPosition="bottom" visible="true" width="29.40478515625" x="2.0" y="-22.189229329427008">Source<y:PreferredPlacementDescriptor angle="0.0" angleOffsetOnRightSide="0" angleReference="absolute" angleRotationOnRightSide="co" distance="-1.0" placement="center" side="right" sideReference="relative_to_edge_flow"/>
          </y:EdgeLabel>
          <y:BendStyle smoothed="true"/>
        </y:PolyLineEdge>
      </data>
    </edge>
    <edge id="e7" source="n6" target="n12">
      <data key="d9">
        <y:PolyLineEdge>
          <y:Path sx="100.0" sy="84.44444444444446" tx="-100.0" ty="-63.33333333333334">
            <y:Point x="569.0" y="-358.13888888888886"/>
            <y:Point x="569.0" y="-268.30555555555554"/>
          </y:Path>
          <y:LineStyle color="#000000" type="line" width="1.0"/>
          <y:Arrows source="none" target="standard"/>
          <y:EdgeLabel alignment="center" backgroundColor="#DAE7F7" distance="2.0" fontFamily="Gill Sans MT" fontSize="9" fontStyle="plain" height="14.43701171875" horizontalTextPosition="center" iconTextGap="4" lineColor="#5BABE0" modelName="side_slider" preferredPlacement="center_right" ratio="0.0" textColor="#000000" verticalTextPosition="bottom" visible="true" width="47.86181640625" x="6.631591796875" y="-16.437015109591982">PrepaidItem<y:PreferredPlacementDescriptor angle="0.0" angleOffsetOnRightSide="0" angleReference="absolute" angleRotationOnRightSide="co" distance="-1.0" placement="center" side="right" sideReference="relative_to_edge_flow"/>
          </y:EdgeLabel>
          <y:BendStyle smoothed="true"/>
        </y:PolyLineEdge>
      </data>
    </edge>
    <edge id="e8" source="n6" target="n12">
      <data key="d9">
        <y:PolyLineEdge>
          <y:Path sx="100.0" sy="63.33333333333334" tx="-100.0" ty="-84.44444444444446">
            <y:Point x="579.0" y="-379.25"/>
            <y:Point x="579.0" y="-289.4166666666667"/>
          </y:Path>
          <y:LineStyle color="#000000" type="line" width="1.0"/>
          <y:Arrows source="none" target="standard"/>
          <y:EdgeLabel alignment="center" backgroundColor="#DAE7F7" distance="2.0" fontFamily="Gill Sans MT" fontSize="9" fontStyle="plain" height="14.43701171875" horizontalTextPosition="center" iconTextGap="4" lineColor="#5BABE0" modelName="side_slider" preferredPlacement="center_right" ratio="0.0" textColor="#000000" verticalTextPosition="bottom" visible="true" width="58.47021484375" x="6.327392578125" y="-16.43701171875">FixedPriceItem<y:PreferredPlacementDescriptor angle="0.0" angleOffsetOnRightSide="0" angleReference="absolute" angleRotationOnRightSide="co" distance="-1.0" placement="center" side="right" sideReference="relative_to_edge_flow"/>
          </y:EdgeLabel>
          <y:BendStyle smoothed="true"/>
        </y:PolyLineEdge>
      </data>
    </edge>
    <edge id="e9" source="n6" target="n14">
      <data key="d9">
        <y:PolyLineEdge>
          <y:Path sx="100.0" sy="-84.44444444444444" tx="-100.0" ty="37.5">
            <y:Point x="529.0" y="-527.0277777777777"/>
            <y:Point x="529.0" y="-688.75"/>
          </y:Path>
          <y:LineStyle color="#000000" type="line" width="1.0"/>
          <y:Arrows source="none" target="standard"/>
          <y:BendStyle smoothed="true"/>
        </y:PolyLineEdge>
      </data>
    </edge>
    <edge id="e10" source="n6" target="n15">
      <data key="d9">
        <y:PolyLineEdge>
          <y:Path sx="100.0" sy="21.111111111111114" tx="-100.0" ty="-0.0"/>
          <y:LineStyle color="#000000" type="line" width="1.0"/>
          <y:Arrows source="none" target="standard"/>
          <y:BendStyle smoothed="true"/>
        </y:PolyLineEdge>
      </data>
    </edge>
    <edge id="e11" source="n6" target="n16">
      <data key="d9">
        <y:PolyLineEdge>
          <y:Path sx="100.0" sy="-63.333333333333336" tx="-100.0" ty="15.0">
            <y:Point x="539.0" y="-505.91666666666663"/>
            <y:Point x="539.0" y="-611.75"/>
          </y:Path>
          <y:LineStyle color="#000000" type="line" width="1.0"/>
          <y:Arrows source="none" target="standard"/>
          <y:EdgeLabel alignment="center" backgroundColor="#DAE7F7" distance="2.0" fontFamily="Gill Sans MT" fontSize="9" fontStyle="plain" height="14.43701171875" horizontalTextPosition="center" iconTextGap="4" lineColor="#5BABE0" modelName="side_slider" preferredPlacement="center_right" ratio="0.6261538461538463" textColor="#000000" verticalTextPosition="bottom" visible="true" width="34.92431640625" x="23.0" y="-122.27035522460938">Manager<y:PreferredPlacementDescriptor angle="0.0" angleOffsetOnRightSide="0" angleReference="absolute" angleRotationOnRightSide="co" distance="-1.0" placement="center" side="right" sideReference="relative_to_edge_flow"/>
          </y:EdgeLabel>
          <y:BendStyle smoothed="true"/>
        </y:PolyLineEdge>
      </data>
    </edge>
    <edge id="e12" source="n6" target="n2">
      <data key="d9">
        <y:PolyLineEdge>
          <y:Path sx="100.0" sy="-0.0" tx="-100.0" ty="-0.0">
            <y:Point x="569.0" y="-442.5833333333333"/>
            <y:Point x="569.0" y="-493.47222222222223"/>
          </y:Path>
          <y:LineStyle color="#000000" type="line" width="1.0"/>
          <y:Arrows source="none" target="standard"/>
          <y:BendStyle smoothed="true"/>
        </y:PolyLineEdge>
      </data>
    </edge>
    <edge id="e13" source="n7" target="n6">
      <data key="d9">
        <y:PolyLineEdge>
          <y:Path sx="100.0" sy="-11.25" tx="-100.0" ty="54.285714285714285">
            <y:Point x="232.0" y="-232.75"/>
            <y:Point x="232.0" y="-388.29761904761904"/>
          </y:Path>
          <y:LineStyle color="#000000" type="line" width="1.0"/>
          <y:Arrows source="none" target="standard"/>
          <y:BendStyle smoothed="true"/>
        </y:PolyLineEdge>
      </data>
    </edge>
    <edge id="e14" source="n7" target="n12">
      <data key="d9">
        <y:PolyLineEdge>
          <y:Path sx="100.0" sy="11.25" tx="-100.0" ty="21.111111111111114">
            <y:Point x="529.0" y="-210.25"/>
            <y:Point x="529.0" y="-183.86111111111111"/>
          </y:Path>
          <y:LineStyle color="#000000" type="line" width="1.0"/>
          <y:Arrows source="none" target="standard"/>
          <y:EdgeLabel alignment="center" backgroundColor="#DAE7F7" distance="2.0" fontFamily="Gill Sans MT" fontSize="9" fontStyle="plain" height="14.43701171875" horizontalTextPosition="center" iconTextGap="4" lineColor="#5BABE0" modelName="side_slider" preferredPlacement="center_right" ratio="0.5616586460297848" textColor="#000000" verticalTextPosition="bottom" visible="true" width="60.1533203125" x="203.416259765625" y="-16.43701171875">CostTypeRebill<y:PreferredPlacementDescriptor angle="0.0" angleOffsetOnRightSide="0" angleReference="absolute" angleRotationOnRightSide="co" distance="-1.0" placement="center" side="right" sideReference="relative_to_edge_flow"/>
          </y:EdgeLabel>
          <y:BendStyle smoothed="true"/>
        </y:PolyLineEdge>
      </data>
    </edge>
    <edge id="e15" source="n8" target="n6">
      <data key="d9">
        <y:PolyLineEdge>
          <y:Path sx="100.0" sy="-11.25" tx="-100.0" ty="-0.0"/>
          <y:LineStyle color="#000000" type="line" width="1.0"/>
          <y:Arrows source="none" target="standard"/>
          <y:BendStyle smoothed="true"/>
        </y:PolyLineEdge>
      </data>
    </edge>
    <edge id="e16" source="n8" target="n12">
      <data key="d9">
        <y:PolyLineEdge>
          <y:Path sx="100.0" sy="11.25" tx="-100.0" ty="-21.111111111111114">
            <y:Point x="212.0" y="-420.0833333333333"/>
            <y:Point x="212.0" y="-252.47301587301587"/>
            <y:Point x="549.0" y="-252.47301587301587"/>
            <y:Point x="549.0" y="-226.08333333333334"/>
          </y:Path>
          <y:LineStyle color="#000000" type="line" width="1.0"/>
          <y:Arrows source="none" target="standard"/>
          <y:BendStyle smoothed="true"/>
        </y:PolyLineEdge>
      </data>
    </edge>
    <edge id="e17" source="n9" target="n16">
      <data key="d9">
        <y:PolyLineEdge>
          <y:Path sx="72.5" sy="0.0" tx="-100.0" ty="-0.0"/>
          <y:LineStyle color="#000000" type="line" width="1.0"/>
          <y:Arrows source="none" target="standard"/>
          <y:BendStyle smoothed="true"/>
        </y:PolyLineEdge>
      </data>
    </edge>
    <edge id="e18" source="n9" target="n6">
      <data key="d9">
        <y:PolyLineEdge>
          <y:Path sx="100.0" sy="11.25" tx="-100.0" ty="-27.14285714285714">
            <y:Point x="212.0" y="-615.5"/>
            <y:Point x="212.0" y="-469.7261904761905"/>
          </y:Path>
          <y:LineStyle color="#000000" type="line" width="1.0"/>
          <y:Arrows source="none" target="standard"/>
          <y:BendStyle smoothed="true"/>
        </y:PolyLineEdge>
      </data>
    </edge>
    <edge id="e19" source="n10" target="n6">
      <data key="d9">
        <y:PolyLineEdge>
          <y:Path sx="100.0" sy="-11.25" tx="-100.0" ty="27.14285714285714">
            <y:Point x="222.0" y="-370.5833333333333"/>
            <y:Point x="222.0" y="-415.44047619047615"/>
          </y:Path>
          <y:LineStyle color="#000000" type="line" width="1.0"/>
          <y:Arrows source="none" target="standard"/>
          <y:BendStyle smoothed="true"/>
        </y:PolyLineEdge>
      </data>
    </edge>
    <edge id="e20" source="n10" target="n12">
      <data key="d9">
        <y:PolyLineEdge>
          <y:Path sx="100.0" sy="11.25" tx="-100.0" ty="-0.0">
            <y:Point x="242.0" y="-348.0833333333333"/>
            <y:Point x="242.0" y="-231.36150793650793"/>
            <y:Point x="539.0" y="-231.36150793650793"/>
            <y:Point x="539.0" y="-204.97222222222223"/>
          </y:Path>
          <y:LineStyle color="#000000" type="line" width="1.0"/>
          <y:Arrows source="none" target="standard"/>
          <y:BendStyle smoothed="true"/>
        </y:PolyLineEdge>
      </data>
    </edge>
    <edge id="e21" source="n3" target="n12">
      <data key="d9">
        <y:PolyLineEdge>
          <y:Path sx="100.0" sy="-0.0" tx="-100.0" ty="63.333333333333336">
            <y:Point x="529.0" y="-90.75"/>
            <y:Point x="529.0" y="-141.63888888888889"/>
          </y:Path>
          <y:LineStyle color="#000000" type="line" width="1.0"/>
          <y:Arrows source="none" target="standard"/>
          <y:BendStyle smoothed="true"/>
        </y:PolyLineEdge>
      </data>
    </edge>
    <edge id="e22" source="n4" target="n12">
      <data key="d9">
        <y:PolyLineEdge>
          <y:Path sx="100.0" sy="-0.0" tx="-100.0" ty="42.22222222222223"/>
          <y:LineStyle color="#000000" type="line" width="1.0"/>
          <y:Arrows source="none" target="standard"/>
          <y:BendStyle smoothed="true"/>
        </y:PolyLineEdge>
      </data>
    </edge>
    <edge id="e23" source="n11" target="n16">
      <data key="d9">
        <y:PolyLineEdge>
          <y:Path sx="49.5" sy="18.75" tx="-100.0" ty="-15.0">
            <y:Point x="284.0" y="-707.5"/>
            <y:Point x="284.0" y="-641.75"/>
          </y:Path>
          <y:LineStyle color="#000000" type="line" width="1.0"/>
          <y:Arrows source="none" target="standard"/>
          <y:BendStyle smoothed="true"/>
        </y:PolyLineEdge>
      </data>
    </edge>
    <edge id="e24" source="n11" target="n6">
      <data key="d9">
        <y:PolyLineEdge>
          <y:Path sx="47.5" sy="32.0" tx="-100.0" ty="-54.28571428571428">
            <y:Point x="272.0" y="-694.25"/>
            <y:Point x="272.0" y="-496.8690476190476"/>
          </y:Path>
          <y:LineStyle color="#000000" type="line" width="1.0"/>
          <y:Arrows source="none" target="standard"/>
          <y:BendStyle smoothed="true"/>
        </y:PolyLineEdge>
      </data>
    </edge>
    <edge id="e25" source="n11" target="n14">
      <data key="d9">
        <y:PolyLineEdge>
          <y:Path sx="76.5" sy="1.75" tx="-84.5" ty="1.75"/>
          <y:LineStyle color="#000000" type="line" width="1.0"/>
          <y:Arrows source="none" target="standard"/>
          <y:BendStyle smoothed="true"/>
        </y:PolyLineEdge>
      </data>
    </edge>
    <edge id="e26" source="n11" target="n12">
      <data key="d9">
        <y:PolyLineEdge>
          <y:Path sx="100.0" sy="41.66666666666663" tx="-100.0" ty="-42.22222222222223">
            <y:Point x="262.0" y="-684.5833333333334"/>
            <y:Point x="262.0" y="-273.58452380952383"/>
            <y:Point x="559.0" y="-273.58452380952383"/>
            <y:Point x="559.0" y="-247.19444444444446"/>
          </y:Path>
          <y:LineStyle color="#000000" type="line" width="1.0"/>
          <y:Arrows source="none" target="standard"/>
          <y:BendStyle smoothed="true"/>
        </y:PolyLineEdge>
      </data>
    </edge>
    <edge id="e27" source="n11" target="n14">
      <data key="d9">
        <y:PolyLineEdge>
          <y:Path sx="74.5" sy="-14.25" tx="-74.5" ty="-14.25"/>
          <y:LineStyle color="#000000" type="line" width="1.0"/>
          <y:Arrows source="none" target="standard"/>
          <y:EdgeLabel alignment="center" backgroundColor="#DAE7F7" distance="2.0" fontFamily="Gill Sans MT" fontSize="9" fontStyle="plain" height="14.43701171875" horizontalTextPosition="center" iconTextGap="4" lineColor="#5BABE0" modelName="side_slider" preferredPlacement="center_right" ratio="0.5" textColor="#000000" verticalTextPosition="bottom" visible="true" width="79.849609375" x="169.5728759765625" y="-16.43701171875">SubscriptionAccount<y:PreferredPlacementDescriptor angle="0.0" angleOffsetOnRightSide="0" angleReference="absolute" angleRotationOnRightSide="co" distance="-1.0" placement="center" side="right" sideReference="relative_to_edge_flow"/>
          </y:EdgeLabel>
          <y:BendStyle smoothed="true"/>
        </y:PolyLineEdge>
      </data>
    </edge>
    <edge id="e28" source="n11" target="n14">
      <data key="d9">
        <y:PolyLineEdge>
          <y:Path sx="80.5" sy="-34.25" tx="-77.5" ty="-34.25"/>
          <y:LineStyle color="#000000" type="line" width="1.0"/>
          <y:Arrows source="none" target="standard"/>
          <y:EdgeLabel alignment="center" backgroundColor="#DAE7F7" distance="2.0" fontFamily="Gill Sans MT" fontSize="9" fontStyle="plain" height="14.43701171875" horizontalTextPosition="center" iconTextGap="4" lineColor="#5BABE0" modelName="side_slider" preferredPlacement="center_right" ratio="0.5" textColor="#000000" verticalTextPosition="bottom" visible="true" width="61.1904296875" x="178.90570068359375" y="-16.43701171875">ProjectAccount<y:PreferredPlacementDescriptor angle="0.0" angleOffsetOnRightSide="0" angleReference="absolute" angleRotationOnRightSide="co" distance="-1.0" placement="center" side="right" sideReference="relative_to_edge_flow"/>
          </y:EdgeLabel>
          <y:BendStyle smoothed="true"/>
        </y:PolyLineEdge>
      </data>
    </edge>
  </graph>
  <data key="d6">
    <y:Resources/>
  </data>
</graphml>
