<?xml version="1.0" encoding="UTF-8" standalone="no"?>
<graphml xmlns="http://graphml.graphdrawing.org/xmlns" xmlns:java="http://www.yworks.com/xml/yfiles-common/1.0/java" xmlns:sys="http://www.yworks.com/xml/yfiles-common/markup/primitives/2.0" xmlns:x="http://www.yworks.com/xml/yfiles-common/markup/2.0" xmlns:xsi="http://www.w3.org/2001/XMLSchema-instance" xmlns:y="http://www.yworks.com/xml/graphml" xmlns:yed="http://www.yworks.com/xml/yed/3" xsi:schemaLocation="http://graphml.graphdrawing.org/xmlns http://www.yworks.com/xml/schema/graphml/1.1/ygraphml.xsd">
  <!--Created by yEd 3.17.1-->
  <key for="port" id="d0" yfiles.type="portgraphics"/>
  <key for="port" id="d1" yfiles.type="portgeometry"/>
  <key for="port" id="d2" yfiles.type="portuserdata"/>
  <key attr.name="url" attr.type="string" for="node" id="d3"/>
  <key attr.name="description" attr.type="string" for="node" id="d4"/>
  <key for="node" id="d5" yfiles.type="nodegraphics"/>
  <key for="graphml" id="d6" yfiles.type="resources"/>
  <key attr.name="url" attr.type="string" for="edge" id="d7"/>
  <key attr.name="description" attr.type="string" for="edge" id="d8"/>
  <key for="edge" id="d9" yfiles.type="edgegraphics"/>
  <graph edgedefault="directed" id="G">
    <node id="n0">
      <data key="d4"><![CDATA[Description: Sub Order Reversals
Data Category: Transaction
Group: Manufacturing
Partition: Y]]></data>
      <data key="d5">
        <y:ShapeNode>
          <y:Geometry height="190.0" width="200.0" x="0.0" y="-918.9166666666666"/>
          <y:Fill color="#DC7600" transparent="false"/>
          <y:BorderStyle color="#D15400" type="line" width="1.0"/>
          <y:NodeLabel alignment="center" autoSizePolicy="node_width" fontFamily="Gill Sans MT" fontSize="15" fontStyle="plain" hasBackgroundColor="false" hasLineColor="false" height="38.7900390625" horizontalTextPosition="center" iconTextGap="4" modelName="internal" modelPosition="c" textColor="#FFFFFF" verticalTextPosition="bottom" visible="true" width="200.0" x="0.0" y="75.60498046875">SubOrderReversals
rsos</y:NodeLabel>
          <y:Shape type="roundrectangle"/>
          <y:DropShadow color="#C0C0C07E" offsetX="2" offsetY="2"/>
        </y:ShapeNode>
      </data>
    </node>
    <node id="n1">
      <data key="d4"><![CDATA[Description: Sub Order Receipts
Data Category: Transaction
Group: Manufacturing
Partition: Y]]></data>
      <data key="d5">
        <y:ShapeNode>
          <y:Geometry height="45.0" width="200.0" x="244.0" y="-561.9166666666666"/>
          <y:Fill color="#DC7600" transparent="false"/>
          <y:BorderStyle color="#D15400" type="line" width="1.0"/>
          <y:NodeLabel alignment="center" autoSizePolicy="node_width" fontFamily="Gill Sans MT" fontSize="15" fontStyle="plain" hasBackgroundColor="false" hasLineColor="false" height="38.7900390625" horizontalTextPosition="center" iconTextGap="4" modelName="internal" modelPosition="c" textColor="#FFFFFF" verticalTextPosition="bottom" visible="true" width="200.0" x="0.0" y="3.10498046875">SubOrderReceipts
rsoi</y:NodeLabel>
          <y:Shape type="roundrectangle"/>
          <y:DropShadow color="#C0C0C07E" offsetX="2" offsetY="2"/>
        </y:ShapeNode>
      </data>
    </node>
    <node id="n2">
      <data key="d4"><![CDATA[Description: Stage for Delivery Reversals
Data Category: Transaction
Group: Manufacturing
Partition: Y]]></data>
      <data key="d5">
        <y:ShapeNode>
          <y:Geometry height="45.0" width="200.0" x="1133.0" y="-363.6666666666667"/>
          <y:Fill color="#DC7600" transparent="false"/>
          <y:BorderStyle color="#D15400" type="line" width="1.0"/>
          <y:NodeLabel alignment="center" autoSizePolicy="node_width" fontFamily="Gill Sans MT" fontSize="15" fontStyle="plain" hasBackgroundColor="false" hasLineColor="false" height="38.7900390625" horizontalTextPosition="center" iconTextGap="4" modelName="internal" modelPosition="c" textColor="#FFFFFF" verticalTextPosition="bottom" visible="true" width="200.0" x="0.0" y="3.10498046875">StageForDeliveryReversals
rsdl</y:NodeLabel>
          <y:Shape type="roundrectangle"/>
          <y:DropShadow color="#C0C0C07E" offsetX="2" offsetY="2"/>
        </y:ShapeNode>
      </data>
    </node>
    <node id="n3">
      <data key="d4"><![CDATA[Description: Stage for Delivery Receipts
Data Category: Transaction
Group: Manufacturing
Partition: Y]]></data>
      <data key="d5">
        <y:ShapeNode>
          <y:Geometry height="45.0" width="200.0" x="788.0" y="-451.0"/>
          <y:Fill color="#DC7600" transparent="false"/>
          <y:BorderStyle color="#D15400" type="line" width="1.0"/>
          <y:NodeLabel alignment="center" autoSizePolicy="node_width" fontFamily="Gill Sans MT" fontSize="15" fontStyle="plain" hasBackgroundColor="false" hasLineColor="false" height="38.7900390625" horizontalTextPosition="center" iconTextGap="4" modelName="internal" modelPosition="c" textColor="#FFFFFF" verticalTextPosition="bottom" visible="true" width="200.0" x="0.0" y="3.10498046875">StageForDeliveryReceipts
rsdt</y:NodeLabel>
          <y:Shape type="roundrectangle"/>
          <y:DropShadow color="#C0C0C07E" offsetX="2" offsetY="2"/>
        </y:ShapeNode>
      </data>
    </node>
    <node id="n4">
      <data key="d4"><![CDATA[Description: Shop Orders
Data Category: Transaction
Group: Manufacturing
Partition: Y]]></data>
      <data key="d5">
        <y:ShapeNode>
          <y:Geometry height="200.0" width="200.0" x="1133.0" y="-687.7821428571428"/>
          <y:Fill color="#DC7600" transparent="false"/>
          <y:BorderStyle color="#D15400" type="line" width="1.0"/>
          <y:NodeLabel alignment="center" autoSizePolicy="node_width" fontFamily="Gill Sans MT" fontSize="15" fontStyle="plain" hasBackgroundColor="false" hasLineColor="false" height="38.7900390625" horizontalTextPosition="center" iconTextGap="4" modelName="internal" modelPosition="c" textColor="#FFFFFF" verticalTextPosition="bottom" visible="true" width="200.0" x="0.0" y="80.60498046875">ShopOrders
rspr, #ID</y:NodeLabel>
          <y:Shape type="roundrectangle"/>
          <y:DropShadow color="#C0C0C07E" offsetX="2" offsetY="2"/>
        </y:ShapeNode>
      </data>
    </node>
    <node id="n5">
      <data key="d4"><![CDATA[Description: Shop Order Reversals
Data Category: Transaction
Group: Manufacturing
Partition: Y]]></data>
      <data key="d5">
        <y:ShapeNode>
          <y:Geometry height="100.0" width="200.0" x="520.0" y="-964.75"/>
          <y:Fill color="#DC7600" transparent="false"/>
          <y:BorderStyle color="#D15400" type="line" width="1.0"/>
          <y:NodeLabel alignment="center" autoSizePolicy="node_width" fontFamily="Gill Sans MT" fontSize="15" fontStyle="plain" hasBackgroundColor="false" hasLineColor="false" height="38.7900390625" horizontalTextPosition="center" iconTextGap="4" modelName="internal" modelPosition="c" textColor="#FFFFFF" verticalTextPosition="bottom" visible="true" width="214.5419921875" x="-7.27099609375" y="30.60498046875">ShopOrderReversals
rsor, #ReversalStockTransactionId</y:NodeLabel>
          <y:Shape type="roundrectangle"/>
          <y:DropShadow color="#C0C0C07E" offsetX="2" offsetY="2"/>
        </y:ShapeNode>
      </data>
    </node>
    <node id="n6">
      <data key="d4"><![CDATA[Description: Shop Order Receipts
Data Category: Transaction
Group: Manufacturing
Partition: Y]]></data>
      <data key="d5">
        <y:ShapeNode>
          <y:Geometry height="100.0" width="200.0" x="788.0" y="-616.9166666666666"/>
          <y:Fill color="#DC7600" transparent="false"/>
          <y:BorderStyle color="#D15400" type="line" width="1.0"/>
          <y:NodeLabel alignment="center" autoSizePolicy="node_width" fontFamily="Gill Sans MT" fontSize="15" fontStyle="plain" hasBackgroundColor="false" hasLineColor="false" height="38.7900390625" horizontalTextPosition="center" iconTextGap="4" modelName="internal" modelPosition="c" textColor="#FFFFFF" verticalTextPosition="bottom" visible="true" width="200.0" x="0.0" y="30.60498046875">ShopOrderReceipts
rsot, #StockTransactionId</y:NodeLabel>
          <y:Shape type="roundrectangle"/>
          <y:DropShadow color="#C0C0C07E" offsetX="2" offsetY="2"/>
        </y:ShapeNode>
      </data>
    </node>
    <node id="n7">
      <data key="d4"><![CDATA[Description: Shop Order Material Plans
Data Category: Transaction
Group: Manufacturing
Partition: Y]]></data>
      <data key="d5">
        <y:ShapeNode>
          <y:Geometry height="100.0" width="200.0" x="515.0" y="-418.6666666666667"/>
          <y:Fill color="#DC7600" transparent="false"/>
          <y:BorderStyle color="#D15400" type="line" width="1.0"/>
          <y:NodeLabel alignment="center" autoSizePolicy="node_width" fontFamily="Gill Sans MT" fontSize="15" fontStyle="plain" hasBackgroundColor="false" hasLineColor="false" height="38.7900390625" horizontalTextPosition="center" iconTextGap="4" modelName="internal" modelPosition="c" textColor="#FFFFFF" verticalTextPosition="bottom" visible="true" width="200.0" x="0.0" y="30.60498046875">ShopOrderMaterialPlans
rson, #ID</y:NodeLabel>
          <y:Shape type="roundrectangle"/>
          <y:DropShadow color="#C0C0C07E" offsetX="2" offsetY="2"/>
        </y:ShapeNode>
      </data>
    </node>
    <node id="n8">
      <data key="d4"><![CDATA[Description: Shop Order Material Plan Details
Data Category: Transaction
Group: Manufacturing
Partition: Y]]></data>
      <data key="d5">
        <y:ShapeNode>
          <y:Geometry height="45.0" width="200.0" x="1133.0" y="-846.4166666666666"/>
          <y:Fill color="#DC7600" transparent="false"/>
          <y:BorderStyle color="#D15400" type="line" width="1.0"/>
          <y:NodeLabel alignment="center" autoSizePolicy="node_width" fontFamily="Gill Sans MT" fontSize="15" fontStyle="plain" hasBackgroundColor="false" hasLineColor="false" height="38.7900390625" horizontalTextPosition="center" iconTextGap="4" modelName="internal" modelPosition="c" textColor="#FFFFFF" verticalTextPosition="bottom" visible="true" width="200.0" x="0.0" y="3.10498046875">ShopOrderMaterialPlanDetails
rsol</y:NodeLabel>
          <y:Shape type="roundrectangle"/>
          <y:DropShadow color="#C0C0C07E" offsetX="2" offsetY="2"/>
        </y:ShapeNode>
      </data>
    </node>
    <node id="n9">
      <data key="d4"><![CDATA[Description: Processed Cost Analysis Balance Lines per Period
Data Category: Transaction
Group: Manufacturing
Partition: Y]]></data>
      <data key="d5">
        <y:ShapeNode>
          <y:Geometry height="100.0" width="200.0" x="252.0" y="-873.9166666666666"/>
          <y:Fill color="#DC7600" transparent="false"/>
          <y:BorderStyle color="#D15400" type="line" width="1.0"/>
          <y:NodeLabel alignment="center" autoSizePolicy="node_width" fontFamily="Gill Sans MT" fontSize="15" fontStyle="plain" hasBackgroundColor="false" hasLineColor="false" height="38.7900390625" horizontalTextPosition="center" iconTextGap="4" modelName="internal" modelPosition="c" textColor="#FFFFFF" verticalTextPosition="bottom" visible="true" width="215.34765625" x="-7.673828125" y="30.60498046875">MaterialReversals
rmrl, #ReversalStockTransactionId</y:NodeLabel>
          <y:Shape type="roundrectangle"/>
          <y:DropShadow color="#C0C0C07E" offsetX="2" offsetY="2"/>
        </y:ShapeNode>
      </data>
    </node>
    <node id="n10">
      <data key="d4"><![CDATA[Description: Material Issues
Data Category: Transaction
Group: Manufacturing
Partition: Y]]></data>
      <data key="d5">
        <y:ShapeNode>
          <y:Geometry height="45.0" width="200.0" x="520.0" y="-501.5"/>
          <y:Fill color="#DC7600" transparent="false"/>
          <y:BorderStyle color="#D15400" type="line" width="1.0"/>
          <y:NodeLabel alignment="center" autoSizePolicy="node_width" fontFamily="Gill Sans MT" fontSize="15" fontStyle="plain" hasBackgroundColor="false" hasLineColor="false" height="38.7900390625" horizontalTextPosition="center" iconTextGap="4" modelName="internal" modelPosition="c" textColor="#FFFFFF" verticalTextPosition="bottom" visible="true" width="200.0" x="0.0" y="3.10498046875">MaterialIssues
rmie, #StockTransactionId</y:NodeLabel>
          <y:Shape type="roundrectangle"/>
          <y:DropShadow color="#C0C0C07E" offsetX="2" offsetY="2"/>
        </y:ShapeNode>
      </data>
    </node>
    <edge id="e0" source="n0" target="n4">
      <data key="d9">
        <y:PolyLineEdge>
          <y:Path sx="64.0" sy="-94.96614583333337" tx="-100.0" ty="-92.30769230769238">
            <y:Point x="164.0" y="-976.75"/>
            <y:Point x="1040.0" y="-976.75"/>
            <y:Point x="1040.0" y="-680.0898351648352"/>
          </y:Path>
          <y:LineStyle color="#000000" type="line" width="1.0"/>
          <y:Arrows source="none" target="standard"/>
          <y:EdgeLabel alignment="center" backgroundColor="#DAE7F7" distance="2.0" fontFamily="Gill Sans MT" fontSize="9" fontStyle="plain" height="14.43701171875" horizontalTextPosition="center" iconTextGap="4" lineColor="#5BABE0" modelName="side_slider" preferredPlacement="center_right" ratio="0.833462434801753" textColor="#000000" verticalTextPosition="bottom" visible="true" width="58.64599609375" x="876.0" y="101.28858784386648">SubShopOrder<y:PreferredPlacementDescriptor angle="0.0" angleOffsetOnRightSide="0" angleReference="absolute" angleRotationOnRightSide="co" distance="-1.0" placement="center" side="right" sideReference="relative_to_edge_flow"/>
          </y:EdgeLabel>
          <y:BendStyle smoothed="true"/>
        </y:PolyLineEdge>
      </data>
    </edge>
    <edge id="e1" source="n0" target="n5">
      <data key="d9">
        <y:PolyLineEdge>
          <y:Path sx="99.9609375" sy="-91.08333333333337" tx="-86.0" ty="-0.25"/>
          <y:LineStyle color="#000000" type="line" width="1.0"/>
          <y:Arrows source="none" target="standard"/>
          <y:BendStyle smoothed="true"/>
        </y:PolyLineEdge>
      </data>
    </edge>
    <edge id="e2" source="n0" target="n6">
      <data key="d9">
        <y:PolyLineEdge>
          <y:Path sx="100.0" sy="38.0" tx="-100.0" ty="-12.083333333333371">
            <y:Point x="222.0" y="-785.9166666666666"/>
            <y:Point x="222.0" y="-579.0"/>
          </y:Path>
          <y:LineStyle color="#000000" type="line" width="1.0"/>
          <y:Arrows source="none" target="standard"/>
          <y:EdgeLabel alignment="center" backgroundColor="#DAE7F7" distance="2.0" fontFamily="Gill Sans MT" fontSize="9" fontStyle="plain" height="14.43701171875" horizontalTextPosition="center" iconTextGap="4" lineColor="#5BABE0" modelName="side_slider" preferredPlacement="center_right" ratio="0.5070580740343348" textColor="#000000" verticalTextPosition="bottom" visible="true" width="33.07421875" x="186.062744140625" y="190.47967529296875">Original<y:PreferredPlacementDescriptor angle="0.0" angleOffsetOnRightSide="0" angleReference="absolute" angleRotationOnRightSide="co" distance="-1.0" placement="center" side="right" sideReference="relative_to_edge_flow"/>
          </y:EdgeLabel>
          <y:BendStyle smoothed="true"/>
        </y:PolyLineEdge>
      </data>
    </edge>
    <edge id="e3" source="n0" target="n10">
      <data key="d9">
        <y:PolyLineEdge>
          <y:Path sx="0.0" sy="95.0" tx="-83.0" ty="13.666666666666686">
            <y:Point x="100.0" y="-465.33333333333326"/>
          </y:Path>
          <y:LineStyle color="#000000" type="line" width="1.0"/>
          <y:Arrows source="none" target="standard"/>
          <y:EdgeLabel alignment="center" backgroundColor="#DAE7F7" distance="2.0" fontFamily="Gill Sans MT" fontSize="9" fontStyle="plain" height="14.43701171875" horizontalTextPosition="center" iconTextGap="4" lineColor="#5BABE0" modelName="side_slider" preferredPlacement="center_right" ratio="0.6397639028056112" textColor="#000000" verticalTextPosition="bottom" visible="true" width="33.07421875" x="157.58365885416663" y="247.1463419596355">Original<y:PreferredPlacementDescriptor angle="0.0" angleOffsetOnRightSide="0" angleReference="absolute" angleRotationOnRightSide="co" distance="-1.0" placement="center" side="right" sideReference="relative_to_edge_flow"/>
          </y:EdgeLabel>
          <y:BendStyle smoothed="true"/>
        </y:PolyLineEdge>
      </data>
    </edge>
    <edge id="e4" source="n0" target="n9">
      <data key="d9">
        <y:PolyLineEdge>
          <y:Path sx="100.0" sy="-0.0" tx="-100.0" ty="-0.0"/>
          <y:LineStyle color="#000000" type="line" width="1.0"/>
          <y:Arrows source="none" target="standard"/>
          <y:BendStyle smoothed="true"/>
        </y:PolyLineEdge>
      </data>
    </edge>
    <edge id="e5" source="n1" target="n4">
      <data key="d9">
        <y:PolyLineEdge>
          <y:Path sx="69.0" sy="1.4166666666666288" tx="-83.0" ty="20.782142857142844">
            <y:Point x="759.0" y="-538.0"/>
            <y:Point x="759.0" y="-507.0"/>
            <y:Point x="1038.0" y="-507.0"/>
            <y:Point x="1038.0" y="-567.0"/>
          </y:Path>
          <y:LineStyle color="#000000" type="line" width="1.0"/>
          <y:Arrows source="none" target="standard"/>
          <y:EdgeLabel alignment="center" backgroundColor="#DAE7F7" distance="2.0" fontFamily="Gill Sans MT" fontSize="9" fontStyle="plain" height="14.43701171875" horizontalTextPosition="center" iconTextGap="4" lineColor="#5BABE0" modelName="side_slider" preferredPlacement="center_right" ratio="0.6482605841811618" textColor="#000000" verticalTextPosition="bottom" visible="true" width="17.1220703125" x="460.41739908854174" y="33.0">Sub<y:PreferredPlacementDescriptor angle="0.0" angleOffsetOnRightSide="0" angleReference="absolute" angleRotationOnRightSide="co" distance="-1.0" placement="center" side="right" sideReference="relative_to_edge_flow"/>
          </y:EdgeLabel>
          <y:BendStyle smoothed="true"/>
        </y:PolyLineEdge>
      </data>
    </edge>
    <edge id="e6" source="n1" target="n6">
      <data key="d9">
        <y:PolyLineEdge>
          <y:Path sx="59.0" sy="-7.083333333333371" tx="-99.98291015625" ty="0.0">
            <y:Point x="470.0" y="-546.5"/>
            <y:Point x="470.0" y="-566.9166666666666"/>
          </y:Path>
          <y:LineStyle color="#000000" type="line" width="1.0"/>
          <y:Arrows source="none" target="standard"/>
          <y:BendStyle smoothed="true"/>
        </y:PolyLineEdge>
      </data>
    </edge>
    <edge id="e7" source="n1" target="n7">
      <data key="d9">
        <y:PolyLineEdge>
          <y:Path sx="0.0" sy="11.416666666666629" tx="-100.0" ty="0.0">
            <y:Point x="344.0" y="-368.6666666666667"/>
          </y:Path>
          <y:LineStyle color="#000000" type="line" width="1.0"/>
          <y:Arrows source="none" target="standard"/>
          <y:EdgeLabel alignment="center" backgroundColor="#DAE7F7" distance="2.0" fontFamily="Gill Sans MT" fontSize="9" fontStyle="plain" height="14.43701171875" horizontalTextPosition="center" iconTextGap="4" lineColor="#5BABE0" modelName="side_slider" preferredPlacement="center_right" ratio="0.5966569767441859" textColor="#000000" verticalTextPosition="bottom" visible="true" width="27.80078125" x="34.0185546875" y="131.80989583333331">Parent<y:PreferredPlacementDescriptor angle="0.0" angleOffsetOnRightSide="0" angleReference="absolute" angleRotationOnRightSide="co" distance="-1.0" placement="center" side="right" sideReference="relative_to_edge_flow"/>
          </y:EdgeLabel>
          <y:BendStyle smoothed="true"/>
        </y:PolyLineEdge>
      </data>
    </edge>
    <edge id="e8" source="n1" target="n10">
      <data key="d9">
        <y:PolyLineEdge>
          <y:Path sx="56.0" sy="12.416666666666629" tx="-87.0" ty="-11.0">
            <y:Point x="400.0" y="-490.0"/>
          </y:Path>
          <y:LineStyle color="#000000" type="line" width="1.0"/>
          <y:Arrows source="none" target="standard"/>
          <y:BendStyle smoothed="true"/>
        </y:PolyLineEdge>
      </data>
    </edge>
    <edge id="e9" source="n2" target="n4">
      <data key="d9">
        <y:PolyLineEdge>
          <y:Path sx="5.0" sy="-15.0" tx="5.0" ty="72.78214285714284"/>
          <y:LineStyle color="#000000" type="line" width="1.0"/>
          <y:Arrows source="none" target="standard"/>
          <y:BendStyle smoothed="true"/>
        </y:PolyLineEdge>
      </data>
    </edge>
    <edge id="e10" source="n3" target="n4">
      <data key="d9">
        <y:PolyLineEdge>
          <y:Path sx="80.0" sy="1.4999999999999432" tx="-59.0" ty="56.782142857142844">
            <y:Point x="1074.0" y="-427.00000000000006"/>
            <y:Point x="1074.0" y="-531.0"/>
          </y:Path>
          <y:LineStyle color="#000000" type="line" width="1.0"/>
          <y:Arrows source="none" target="standard"/>
          <y:BendStyle smoothed="true"/>
        </y:PolyLineEdge>
      </data>
    </edge>
    <edge id="e11" source="n4" target="n4">
      <data key="d9">
        <y:PolyLineEdge>
          <y:Path sx="-59.0" sy="83.78214285714284" tx="-100.0" ty="92.30769230769232">
            <y:Point x="1174.0" y="-459.9744505494505"/>
            <y:Point x="1107.5" y="-459.9744505494505"/>
            <y:Point x="1107.5" y="-495.4744505494505"/>
          </y:Path>
          <y:LineStyle color="#000000" type="line" width="1.0"/>
          <y:Arrows source="none" target="standard"/>
          <y:EdgeLabel alignment="center" backgroundColor="#DAE7F7" distance="2.0" fontFamily="Gill Sans MT" fontSize="9" fontStyle="plain" height="14.43701171875" horizontalTextPosition="center" iconTextGap="4" lineColor="#5BABE0" modelName="side_slider" preferredPlacement="center_right" ratio="0.37891118282587355" textColor="#000000" verticalTextPosition="bottom" visible="true" width="27.80078125" x="-47.150390625" y="11.379919567736977">Parent<y:PreferredPlacementDescriptor angle="0.0" angleOffsetOnRightSide="0" angleReference="absolute" angleRotationOnRightSide="co" distance="-1.0" placement="center" side="right" sideReference="relative_to_edge_flow"/>
          </y:EdgeLabel>
          <y:BendStyle smoothed="true"/>
        </y:PolyLineEdge>
      </data>
    </edge>
    <edge id="e12" source="n4" target="n4">
      <data key="d9">
        <y:PolyLineEdge>
          <y:Path sx="-29.5" sy="81.78214285714284" tx="-100.0" ty="76.9230769230769">
            <y:Point x="1203.5" y="-428.9744505494505"/>
            <y:Point x="1096.5" y="-428.9744505494505"/>
            <y:Point x="1096.5" y="-510.85906593406594"/>
          </y:Path>
          <y:LineStyle color="#000000" type="line" width="1.0"/>
          <y:Arrows source="none" target="standard"/>
          <y:EdgeLabel alignment="center" backgroundColor="#DAE7F7" distance="2.0" fontFamily="Gill Sans MT" fontSize="9" fontStyle="plain" height="14.43701171875" horizontalTextPosition="center" iconTextGap="4" lineColor="#5BABE0" modelName="side_slider" preferredPlacement="center_right" ratio="0.3879890086051052" textColor="#000000" verticalTextPosition="bottom" visible="true" width="21.3408203125" x="-64.17041015625" y="42.34763197008073">Main<y:PreferredPlacementDescriptor angle="0.0" angleOffsetOnRightSide="0" angleReference="absolute" angleRotationOnRightSide="co" distance="-1.0" placement="center" side="right" sideReference="relative_to_edge_flow"/>
          </y:EdgeLabel>
          <y:BendStyle smoothed="true"/>
        </y:PolyLineEdge>
      </data>
    </edge>
    <edge id="e13" source="n5" target="n4">
      <data key="d9">
        <y:PolyLineEdge>
          <y:Path sx="100.0" sy="-33.33333333333337" tx="-100.0" ty="-76.9230769230769">
            <y:Point x="1030.0" y="-948.0833333333334"/>
            <y:Point x="1030.0" y="-664.7052197802197"/>
          </y:Path>
          <y:LineStyle color="#000000" type="line" width="1.0"/>
          <y:Arrows source="none" target="standard"/>
          <y:BendStyle smoothed="true"/>
        </y:PolyLineEdge>
      </data>
    </edge>
    <edge id="e14" source="n5" target="n5">
      <data key="d9">
        <y:PolyLineEdge>
          <y:Path sx="-57.0" sy="33.33333333333337" tx="-100.0" ty="33.33333333333337">
            <y:Point x="563.0" y="-842.9166666666666"/>
            <y:Point x="494.5" y="-842.9166666666666"/>
            <y:Point x="494.5" y="-881.4166666666666"/>
          </y:Path>
          <y:LineStyle color="#000000" type="line" width="1.0"/>
          <y:Arrows source="none" target="standard"/>
          <y:BendStyle smoothed="true"/>
        </y:PolyLineEdge>
      </data>
    </edge>
    <edge id="e15" source="n5" target="n6">
      <data key="d9">
        <y:PolyLineEdge>
          <y:Path sx="100.0" sy="-0.0" tx="-45.0" ty="-35.08333333333337">
            <y:Point x="843.0" y="-914.75"/>
          </y:Path>
          <y:LineStyle color="#000000" type="line" width="1.0"/>
          <y:Arrows source="none" target="standard"/>
          <y:EdgeLabel alignment="center" backgroundColor="#DAE7F7" distance="2.0" fontFamily="Gill Sans MT" fontSize="9" fontStyle="plain" height="14.43701171875" horizontalTextPosition="center" iconTextGap="4" lineColor="#5BABE0" modelName="side_slider" preferredPlacement="center_right" ratio="0.6414303456841233" textColor="#000000" verticalTextPosition="bottom" visible="true" width="33.07421875" x="125.0" y="137.13566080729174">Original<y:PreferredPlacementDescriptor angle="0.0" angleOffsetOnRightSide="0" angleReference="absolute" angleRotationOnRightSide="co" distance="-1.0" placement="center" side="right" sideReference="relative_to_edge_flow"/>
          </y:EdgeLabel>
          <y:BendStyle smoothed="true"/>
        </y:PolyLineEdge>
      </data>
    </edge>
    <edge id="e16" source="n6" target="n4">
      <data key="d9">
        <y:PolyLineEdge>
          <y:Path sx="74.0" sy="-20.08333333333337" tx="-77.0" ty="0.7821428571428442"/>
          <y:LineStyle color="#000000" type="line" width="1.0"/>
          <y:Arrows source="none" target="standard"/>
          <y:BendStyle smoothed="true"/>
        </y:PolyLineEdge>
      </data>
    </edge>
    <edge id="e17" source="n6" target="n6">
      <data key="d9">
        <y:PolyLineEdge>
          <y:Path sx="84.0" sy="-43.08333333333337" tx="56.0" ty="-33.08333333333337">
            <y:Point x="1005.0" y="-610.0"/>
            <y:Point x="1005.0" y="-641.5"/>
            <y:Point x="944.0" y="-641.5"/>
          </y:Path>
          <y:LineStyle color="#000000" type="line" width="1.0"/>
          <y:Arrows source="none" target="standard"/>
          <y:EdgeLabel alignment="center" backgroundColor="#DAE7F7" distance="2.0" fontFamily="Gill Sans MT" fontSize="9" fontStyle="plain" height="14.43701171875" horizontalTextPosition="center" iconTextGap="4" lineColor="#5BABE0" modelName="side_slider" preferredPlacement="center_right" ratio="0.6032374100719422" textColor="#000000" verticalTextPosition="bottom" visible="true" width="31.45703125" x="-29.2451171875" y="-47.93701171875">Related<y:PreferredPlacementDescriptor angle="0.0" angleOffsetOnRightSide="0" angleReference="absolute" angleRotationOnRightSide="co" distance="-1.0" placement="center" side="right" sideReference="relative_to_edge_flow"/>
          </y:EdgeLabel>
          <y:BendStyle smoothed="true"/>
        </y:PolyLineEdge>
      </data>
    </edge>
    <edge id="e18" source="n7" target="n4">
      <data key="d9">
        <y:PolyLineEdge>
          <y:Path sx="100.0" sy="-17.333333333333314" tx="-10.0" ty="100.0">
            <y:Point x="1223.0" y="-386.0"/>
          </y:Path>
          <y:LineStyle color="#000000" type="line" width="1.0"/>
          <y:Arrows source="none" target="standard"/>
          <y:BendStyle smoothed="true"/>
        </y:PolyLineEdge>
      </data>
    </edge>
    <edge id="e19" source="n8" target="n4">
      <data key="d9">
        <y:PolyLineEdge>
          <y:Path sx="0.0" sy="22.46875" tx="0.0" ty="-100.0"/>
          <y:LineStyle color="#000000" type="line" width="1.0"/>
          <y:Arrows source="none" target="standard"/>
          <y:BendStyle smoothed="true"/>
        </y:PolyLineEdge>
      </data>
    </edge>
    <edge id="e20" source="n8" target="n4">
      <data key="d9">
        <y:PolyLineEdge>
          <y:Path sx="15.0" sy="22.46875" tx="15.0" ty="-100.0"/>
          <y:LineStyle color="#000000" type="line" width="1.0"/>
          <y:Arrows source="none" target="standard"/>
          <y:BendStyle smoothed="true"/>
        </y:PolyLineEdge>
      </data>
    </edge>
    <edge id="e21" source="n9" target="n4">
      <data key="d9">
        <y:PolyLineEdge>
          <y:Path sx="100.0" sy="-12.5" tx="-100.0" ty="-61.53846153846155">
            <y:Point x="1020.0" y="-836.4166666666666"/>
            <y:Point x="1020.0" y="-649.3206043956044"/>
          </y:Path>
          <y:LineStyle color="#000000" type="line" width="1.0"/>
          <y:Arrows source="none" target="standard"/>
          <y:BendStyle smoothed="true"/>
        </y:PolyLineEdge>
      </data>
    </edge>
    <edge id="e22" source="n9" target="n7">
      <data key="d9">
        <y:PolyLineEdge>
          <y:Path sx="0.0" sy="50.0" tx="-100.0" ty="15.0">
            <y:Point x="352.0" y="-603.1666666666666"/>
            <y:Point x="192.5" y="-603.1666666666666"/>
            <y:Point x="192.5" y="-353.6666666666667"/>
          </y:Path>
          <y:LineStyle color="#000000" type="line" width="1.0"/>
          <y:Arrows source="none" target="standard"/>
          <y:BendStyle smoothed="true"/>
        </y:PolyLineEdge>
      </data>
    </edge>
    <edge id="e23" source="n9" target="n5">
      <data key="d9">
        <y:PolyLineEdge>
          <y:Path sx="100.0" sy="-37.5" tx="-85.0" ty="20.75">
            <y:Point x="480.0" y="-861.4166666666666"/>
            <y:Point x="480.0" y="-894.0"/>
          </y:Path>
          <y:LineStyle color="#000000" type="line" width="1.0"/>
          <y:Arrows source="none" target="standard"/>
          <y:BendStyle smoothed="true"/>
        </y:PolyLineEdge>
      </data>
    </edge>
    <edge id="e24" source="n9" target="n6">
      <data key="d9">
        <y:PolyLineEdge>
          <y:Path sx="100.0" sy="12.5" tx="-85.0" ty="-23.08333333333337">
            <y:Point x="630.0" y="-811.4166666666666"/>
            <y:Point x="630.0" y="-590.0"/>
          </y:Path>
          <y:LineStyle color="#000000" type="line" width="1.0"/>
          <y:Arrows source="none" target="standard"/>
          <y:EdgeLabel alignment="center" backgroundColor="#DAE7F7" distance="2.0" fontFamily="Gill Sans MT" fontSize="9" fontStyle="plain" height="14.43701171875" horizontalTextPosition="center" iconTextGap="4" lineColor="#5BABE0" modelName="side_slider" preferredPlacement="center_right" ratio="0.31321483771251935" textColor="#000000" verticalTextPosition="bottom" visible="true" width="33.07421875" x="143.92578125" y="-16.43699137369788">Original<y:PreferredPlacementDescriptor angle="0.0" angleOffsetOnRightSide="0" angleReference="absolute" angleRotationOnRightSide="co" distance="-1.0" placement="center" side="right" sideReference="relative_to_edge_flow"/>
          </y:EdgeLabel>
          <y:BendStyle smoothed="true"/>
        </y:PolyLineEdge>
      </data>
    </edge>
    <edge id="e25" source="n10" target="n4">
      <data key="d9">
        <y:PolyLineEdge>
          <y:Path sx="87.0" sy="0.0" tx="-100.0234375" ty="46.0">
            <y:Point x="742.0" y="-479.0"/>
            <y:Point x="1064.5" y="-479.0"/>
            <y:Point x="1064.5" y="-541.7821428571428"/>
          </y:Path>
          <y:LineStyle color="#000000" type="line" width="1.0"/>
          <y:Arrows source="none" target="standard"/>
          <y:BendStyle smoothed="true"/>
        </y:PolyLineEdge>
      </data>
    </edge>
    <edge id="e26" source="n10" target="n7">
      <data key="d9">
        <y:PolyLineEdge>
          <y:Path sx="-15.0" sy="22.5" tx="-10.0" ty="-50.0"/>
          <y:LineStyle color="#000000" type="line" width="1.0"/>
          <y:Arrows source="none" target="standard"/>
          <y:BendStyle smoothed="true"/>
        </y:PolyLineEdge>
      </data>
    </edge>
    <edge id="e27" source="n10" target="n6">
      <data key="d9">
        <y:PolyLineEdge>
          <y:Path sx="10.0" sy="-22.5" tx="-88.0" ty="13.916666666666629">
            <y:Point x="630.0" y="-553.0"/>
          </y:Path>
          <y:LineStyle color="#000000" type="line" width="1.0"/>
          <y:Arrows source="none" target="standard"/>
          <y:EdgeLabel alignment="center" backgroundColor="#DAE7F7" distance="2.0" fontFamily="Gill Sans MT" fontSize="9" fontStyle="plain" height="14.43701171875" horizontalTextPosition="center" iconTextGap="4" lineColor="#5BABE0" modelName="side_slider" preferredPlacement="center_right" ratio="0.6107843137254902" textColor="#000000" verticalTextPosition="bottom" visible="true" width="31.45703125" x="66.47988281250002" y="-51.474853515625">Related<y:PreferredPlacementDescriptor angle="0.0" angleOffsetOnRightSide="0" angleReference="absolute" angleRotationOnRightSide="co" distance="-1.0" placement="center" side="right" sideReference="relative_to_edge_flow"/>
          </y:EdgeLabel>
          <y:BendStyle smoothed="true"/>
        </y:PolyLineEdge>
      </data>
    </edge>
  </graph>
  <data key="d6">
    <y:Resources/>
  </data>
</graphml>
